1.000000e+00 7.455638e+03
2.000000e+00 9.130153e+03
3.000000e+00 9.000920e+03
4.000000e+00 8.850543e+03
5.000000e+00 8.715899e+03
6.000000e+00 8.582726e+03
7.000000e+00 8.459666e+03
8.000000e+00 8.343832e+03
9.000000e+00 8.231449e+03
1.000000e+01 8.124867e+03
1.100000e+01 8.024085e+03
1.200000e+01 7.926042e+03
1.300000e+01 7.831517e+03
1.400000e+01 7.739123e+03
1.500000e+01 7.649487e+03
1.600000e+01 7.561128e+03
1.700000e+01 7.475147e+03
1.800000e+01 7.389968e+03
1.900000e+01 7.306728e+03
2.000000e+01 7.224303e+03
2.100000e+01 7.143063e+03
2.200000e+01 7.063046e+03
2.300000e+01 6.983772e+03
2.400000e+01 6.905427e+03
2.500000e+01 6.828093e+03
2.600000e+01 6.751513e+03
2.700000e+01 6.675450e+03
2.800000e+01 6.600472e+03
2.900000e+01 6.526321e+03
3.000000e+01 6.452397e+03
3.100000e+01 6.379288e+03
3.200000e+01 6.307365e+03
3.300000e+01 6.235872e+03
3.400000e+01 6.164308e+03
3.500000e+01 6.094063e+03
3.600000e+01 6.024897e+03
3.700000e+01 5.955990e+03
3.800000e+01 5.886812e+03
3.900000e+01 5.819022e+03
4.000000e+01 5.752503e+03
4.100000e+01 5.686431e+03
4.200000e+01 5.619994e+03
4.300000e+01 5.554069e+03
4.400000e+01 5.489914e+03
4.500000e+01 5.426766e+03
4.600000e+01 5.363818e+03
4.700000e+01 5.300307e+03
4.800000e+01 5.237561e+03
4.900000e+01 5.176729e+03
5.000000e+01 5.117050e+03
5.100000e+01 5.057738e+03
5.200000e+01 4.998009e+03
5.300000e+01 4.937984e+03
5.400000e+01 4.880020e+03
5.500000e+01 4.823781e+03
5.600000e+01 4.768501e+03
5.700000e+01 4.713410e+03
5.800000e+01 4.657742e+03
5.900000e+01 4.601752e+03
6.000000e+01 4.548043e+03
6.100000e+01 4.496340e+03
6.200000e+01 4.445885e+03
6.300000e+01 4.395918e+03
6.400000e+01 4.345678e+03
6.500000e+01 4.294476e+03
6.600000e+01 4.244099e+03
6.700000e+01 4.196464e+03
6.800000e+01 4.150896e+03
6.900000e+01 4.106634e+03
7.000000e+01 4.062915e+03
7.100000e+01 4.018978e+03
7.200000e+01 3.974061e+03
7.300000e+01 3.928908e+03
7.400000e+01 3.886689e+03
7.500000e+01 3.847194e+03
7.600000e+01 3.809653e+03
7.700000e+01 3.773294e+03
7.800000e+01 3.737346e+03
7.900000e+01 3.701037e+03
8.000000e+01 3.663595e+03
8.100000e+01 3.625595e+03
8.200000e+01 3.590696e+03
8.300000e+01 3.559054e+03
8.400000e+01 3.529890e+03
8.500000e+01 3.502424e+03
8.600000e+01 3.475877e+03
8.700000e+01 3.449468e+03
8.800000e+01 3.422418e+03
8.900000e+01 3.393953e+03
9.000000e+01 3.365062e+03
9.100000e+01 3.339687e+03
9.200000e+01 3.317997e+03
9.300000e+01 3.299217e+03
9.400000e+01 3.282571e+03
9.500000e+01 3.267282e+03
9.600000e+01 3.252575e+03
9.700000e+01 3.237674e+03
9.800000e+01 3.221804e+03
9.900000e+01 3.204231e+03
1.000000e+02 3.186587e+03
1.010000e+02 3.172698e+03
1.020000e+02 3.162545e+03
1.030000e+02 3.155346e+03
1.040000e+02 3.150316e+03
1.050000e+02 3.146671e+03
1.060000e+02 3.143627e+03
1.070000e+02 3.140401e+03
1.080000e+02 3.136208e+03
1.090000e+02 3.130283e+03
1.100000e+02 3.123993e+03
1.110000e+02 3.121736e+03
1.120000e+02 3.123761e+03
1.130000e+02 3.129118e+03
1.140000e+02 3.136855e+03
1.150000e+02 3.146023e+03
1.160000e+02 3.155670e+03
1.170000e+02 3.164845e+03
1.180000e+02 3.172598e+03
1.190000e+02 3.178473e+03
1.200000e+02 3.186610e+03
1.210000e+02 3.199737e+03
1.220000e+02 3.216880e+03
1.230000e+02 3.236926e+03
1.240000e+02 3.258763e+03
1.250000e+02 3.281281e+03
1.260000e+02 3.303368e+03
1.270000e+02 3.323911e+03
1.280000e+02 3.342592e+03
1.290000e+02 3.364248e+03
1.300000e+02 3.390826e+03
1.310000e+02 3.421159e+03
1.320000e+02 3.454043e+03
1.330000e+02 3.488273e+03
1.340000e+02 3.522644e+03
1.350000e+02 3.555951e+03
1.360000e+02 3.587167e+03
1.370000e+02 3.619537e+03
1.380000e+02 3.656668e+03
1.390000e+02 3.697585e+03
1.400000e+02 3.741050e+03
1.410000e+02 3.785828e+03
1.420000e+02 3.830684e+03
1.430000e+02 3.874382e+03
1.440000e+02 3.916231e+03
1.450000e+02 3.960476e+03
1.460000e+02 4.008911e+03
1.470000e+02 4.060353e+03
1.480000e+02 4.113591e+03
1.490000e+02 4.167416e+03
1.500000e+02 4.220617e+03
1.510000e+02 4.272107e+03
1.520000e+02 4.324519e+03
1.530000e+02 4.380708e+03
1.540000e+02 4.439677e+03
1.550000e+02 4.500275e+03
1.560000e+02 4.561353e+03
1.570000e+02 4.621762e+03
1.580000e+02 4.680721e+03
1.590000e+02 4.741512e+03
1.600000e+02 4.805411e+03
1.610000e+02 4.871353e+03
1.620000e+02 4.938259e+03
1.630000e+02 5.005051e+03
1.640000e+02 5.070683e+03
1.650000e+02 5.136668e+03
1.660000e+02 5.205472e+03
1.670000e+02 5.276244e+03
1.680000e+02 5.347975e+03
1.690000e+02 5.419650e+03
1.700000e+02 5.490315e+03
1.710000e+02 5.561622e+03
1.720000e+02 5.635359e+03
1.730000e+02 5.710633e+03
1.740000e+02 5.786483e+03
1.750000e+02 5.861950e+03
1.760000e+02 5.936710e+03
1.770000e+02 6.013338e+03
1.780000e+02 6.091709e+03
1.790000e+02 6.170900e+03
1.800000e+02 6.249984e+03
1.810000e+02 6.328326e+03
1.820000e+02 6.408067e+03
1.830000e+02 6.489461e+03
1.840000e+02 6.571602e+03
1.850000e+02 6.653584e+03
1.860000e+02 6.735050e+03
1.870000e+02 6.818102e+03
1.880000e+02 6.902454e+03
1.890000e+02 6.987202e+03
1.900000e+02 7.071464e+03
1.910000e+02 7.156201e+03
1.920000e+02 7.242505e+03
1.930000e+02 7.329496e+03
1.940000e+02 7.416261e+03
1.950000e+02 7.503026e+03
1.960000e+02 7.591312e+03
1.970000e+02 7.680329e+03
1.980000e+02 7.769146e+03
1.990000e+02 7.858099e+03
2.000000e+02 7.948463e+03
2.010000e+02 8.039358e+03
2.020000e+02 8.129891e+03
2.030000e+02 8.221225e+03
2.040000e+02 8.313635e+03
2.050000e+02 8.406118e+03
2.060000e+02 8.498568e+03
2.070000e+02 8.592289e+03
2.080000e+02 8.686393e+03
2.090000e+02 8.780275e+03
2.100000e+02 8.875318e+03
2.110000e+02 8.970847e+03
2.120000e+02 9.066190e+03
2.130000e+02 9.162644e+03
2.140000e+02 9.259465e+03
2.150000e+02 9.356291e+03
2.160000e+02 9.454193e+03
2.170000e+02 9.552115e+03
2.180000e+02 9.650629e+03
2.190000e+02 9.749814e+03
2.200000e+02 9.848994e+03
2.210000e+02 9.949140e+03
2.220000e+02 1.004928e+04
2.230000e+02 1.015027e+04
2.240000e+02 1.025140e+04
2.250000e+02 1.035324e+04
2.260000e+02 1.045530e+04
2.270000e+02 1.055806e+04
2.280000e+02 1.066101e+04
2.290000e+02 1.076470e+04
2.300000e+02 1.086857e+04
2.310000e+02 1.097309e+04
2.320000e+02 1.107800e+04
2.330000e+02 1.118328e+04
2.340000e+02 1.128914e+04
2.350000e+02 1.139545e+04
2.360000e+02 1.150213e+04
2.370000e+02 1.160928e+04
2.380000e+02 1.171691e+04
2.390000e+02 1.182504e+04
2.400000e+02 1.193459e+04
2.410000e+02 1.204116e+04
2.420000e+02 1.215103e+04
2.430000e+02 1.226123e+04
2.440000e+02 1.237186e+04
2.450000e+02 1.248447e+04
2.460000e+02 1.259414e+04
2.470000e+02 1.270644e+04
2.480000e+02 1.281928e+04
2.490000e+02 2.528028e+03
