0.0 0.0 1.000e+00 0.0 0.0 1.656e+04
0.0 0.0 1.500e+00 0.0 0.0 2.361e+04
0.0 0.0 2.000e+00 0.0 0.0 2.336e+04
0.0 0.0 2.500e+00 0.0 0.0 2.310e+04
0.0 0.0 3.000e+00 0.0 0.0 2.288e+04
0.0 0.0 3.500e+00 0.0 0.0 2.259e+04
0.0 0.0 4.000e+00 0.0 0.0 2.233e+04
0.0 0.0 4.500e+00 0.0 0.0 2.210e+04
0.0 0.0 5.000e+00 0.0 0.0 2.185e+04
0.0 0.0 5.500e+00 0.0 0.0 2.162e+04
0.0 0.0 6.000e+00 0.0 0.0 2.137e+04
0.0 0.0 6.500e+00 0.0 0.0 2.114e+04
0.0 0.0 7.000e+00 0.0 0.0 2.092e+04
0.0 0.0 7.500e+00 0.0 0.0 2.069e+04
0.0 0.0 8.000e+00 0.0 0.0 2.048e+04
0.0 0.0 8.500e+00 0.0 0.0 2.026e+04
0.0 0.0 9.000e+00 0.0 0.0 2.006e+04
0.0 0.0 9.500e+00 0.0 0.0 1.985e+04
0.0 0.0 1.000e+01 0.0 0.0 1.965e+04
0.0 0.0 1.050e+01 0.0 0.0 1.945e+04
0.0 0.0 1.100e+01 0.0 0.0 1.925e+04
0.0 0.0 1.150e+01 0.0 0.0 1.906e+04
0.0 0.0 1.200e+01 0.0 0.0 1.887e+04
0.0 0.0 1.250e+01 0.0 0.0 1.868e+04
0.0 0.0 1.300e+01 0.0 0.0 1.849e+04
0.0 0.0 1.350e+01 0.0 0.0 1.830e+04
0.0 0.0 1.400e+01 0.0 0.0 1.812e+04
0.0 0.0 1.450e+01 0.0 0.0 1.793e+04
0.0 0.0 1.500e+01 0.0 0.0 1.775e+04
0.0 0.0 1.550e+01 0.0 0.0 1.757e+04
0.0 0.0 1.600e+01 0.0 0.0 1.739e+04
0.0 0.0 1.650e+01 0.0 0.0 1.721e+04
0.0 0.0 1.700e+01 0.0 0.0 1.703e+04
0.0 0.0 1.750e+01 0.0 0.0 1.686e+04
0.0 0.0 1.800e+01 0.0 0.0 1.668e+04
0.0 0.0 1.850e+01 0.0 0.0 1.651e+04
0.0 0.0 1.900e+01 0.0 0.0 1.633e+04
0.0 0.0 1.950e+01 0.0 0.0 1.616e+04
0.0 0.0 2.000e+01 0.0 0.0 1.599e+04
0.0 0.0 2.050e+01 0.0 0.0 1.582e+04
0.0 0.0 2.100e+01 0.0 0.0 1.564e+04
0.0 0.0 2.150e+01 0.0 0.0 1.547e+04
0.0 0.0 2.200e+01 0.0 0.0 1.531e+04
0.0 0.0 2.250e+01 0.0 0.0 1.514e+04
0.0 0.0 2.300e+01 0.0 0.0 1.497e+04
0.0 0.0 2.350e+01 0.0 0.0 1.480e+04
0.0 0.0 2.400e+01 0.0 0.0 1.463e+04
0.0 0.0 2.450e+01 0.0 0.0 1.447e+04
0.0 0.0 2.500e+01 0.0 0.0 1.430e+04
0.0 0.0 2.550e+01 0.0 0.0 1.414e+04
0.0 0.0 2.600e+01 0.0 0.0 1.397e+04
0.0 0.0 2.650e+01 0.0 0.0 1.381e+04
0.0 0.0 2.700e+01 0.0 0.0 1.364e+04
0.0 0.0 2.750e+01 0.0 0.0 1.348e+04
0.0 0.0 2.800e+01 0.0 0.0 1.332e+04
0.0 0.0 2.850e+01 0.0 0.0 1.316e+04
0.0 0.0 2.900e+01 0.0 0.0 1.300e+04
0.0 0.0 2.950e+01 0.0 0.0 1.284e+04
0.0 0.0 3.000e+01 0.0 0.0 1.268e+04
0.0 0.0 3.050e+01 0.0 0.0 1.251e+04
0.0 0.0 3.100e+01 0.0 0.0 1.236e+04
0.0 0.0 3.150e+01 0.0 0.0 1.220e+04
0.0 0.0 3.200e+01 0.0 0.0 1.204e+04
0.0 0.0 3.250e+01 0.0 0.0 1.188e+04
0.0 0.0 3.300e+01 0.0 0.0 1.173e+04
0.0 0.0 3.350e+01 0.0 0.0 1.157e+04
0.0 0.0 3.400e+01 0.0 0.0 1.141e+04
0.0 0.0 3.450e+01 0.0 0.0 1.126e+04
0.0 0.0 3.500e+01 0.0 0.0 1.110e+04
0.0 0.0 3.550e+01 0.0 0.0 1.095e+04
0.0 0.0 3.600e+01 0.0 0.0 1.079e+04
0.0 0.0 3.650e+01 0.0 0.0 1.064e+04
0.0 0.0 3.700e+01 0.0 0.0 1.049e+04
0.0 0.0 3.750e+01 0.0 0.0 1.033e+04
0.0 0.0 3.800e+01 0.0 0.0 1.018e+04
0.0 0.0 3.850e+01 0.0 0.0 1.003e+04
0.0 0.0 3.900e+01 0.0 0.0 9.879e+03
0.0 0.0 3.950e+01 0.0 0.0 9.729e+03
0.0 0.0 4.000e+01 0.0 0.0 9.581e+03
0.0 0.0 4.050e+01 0.0 0.0 9.433e+03
0.0 0.0 4.100e+01 0.0 0.0 9.285e+03
0.0 0.0 4.150e+01 0.0 0.0 9.136e+03
0.0 0.0 4.200e+01 0.0 0.0 8.987e+03
0.0 0.0 4.250e+01 0.0 0.0 8.838e+03
0.0 0.0 4.300e+01 0.0 0.0 8.691e+03
0.0 0.0 4.350e+01 0.0 0.0 8.546e+03
0.0 0.0 4.400e+01 0.0 0.0 8.402e+03
0.0 0.0 4.450e+01 0.0 0.0 8.259e+03
0.0 0.0 4.500e+01 0.0 0.0 8.117e+03
0.0 0.0 4.550e+01 0.0 0.0 7.975e+03
0.0 0.0 4.600e+01 0.0 0.0 7.832e+03
0.0 0.0 4.650e+01 0.0 0.0 7.689e+03
0.0 0.0 4.700e+01 0.0 0.0 7.546e+03
0.0 0.0 4.750e+01 0.0 0.0 7.403e+03
0.0 0.0 4.800e+01 0.0 0.0 7.262e+03
0.0 0.0 4.850e+01 0.0 0.0 7.124e+03
0.0 0.0 4.900e+01 0.0 0.0 6.988e+03
0.0 0.0 4.950e+01 0.0 0.0 6.852e+03
0.0 0.0 5.000e+01 0.0 0.0 6.718e+03
0.0 0.0 5.050e+01 0.0 0.0 6.583e+03
0.0 0.0 5.100e+01 0.0 0.0 6.449e+03
0.0 0.0 5.150e+01 0.0 0.0 6.314e+03
0.0 0.0 5.200e+01 0.0 0.0 6.179e+03
0.0 0.0 5.250e+01 0.0 0.0 6.042e+03
0.0 0.0 5.300e+01 0.0 0.0 5.907e+03
0.0 0.0 5.350e+01 0.0 0.0 5.776e+03
0.0 0.0 5.400e+01 0.0 0.0 5.648e+03
0.0 0.0 5.450e+01 0.0 0.0 5.522e+03
0.0 0.0 5.500e+01 0.0 0.0 5.397e+03
0.0 0.0 5.550e+01 0.0 0.0 5.274e+03
0.0 0.0 5.600e+01 0.0 0.0 5.152e+03
0.0 0.0 5.650e+01 0.0 0.0 5.030e+03
0.0 0.0 5.700e+01 0.0 0.0 4.908e+03
0.0 0.0 5.750e+01 0.0 0.0 4.785e+03
0.0 0.0 5.800e+01 0.0 0.0 4.660e+03
0.0 0.0 5.850e+01 0.0 0.0 4.534e+03
0.0 0.0 5.900e+01 0.0 0.0 4.411e+03
0.0 0.0 5.950e+01 0.0 0.0 4.294e+03
0.0 0.0 6.000e+01 0.0 0.0 4.181e+03
0.0 0.0 6.050e+01 0.0 0.0 4.072e+03
0.0 0.0 6.100e+01 0.0 0.0 3.966e+03
0.0 0.0 6.150e+01 0.0 0.0 3.862e+03
0.0 0.0 6.200e+01 0.0 0.0 3.761e+03
0.0 0.0 6.250e+01 0.0 0.0 3.660e+03
0.0 0.0 6.300e+01 0.0 0.0 3.559e+03
0.0 0.0 6.350e+01 0.0 0.0 3.457e+03
0.0 0.0 6.400e+01 0.0 0.0 3.354e+03
0.0 0.0 6.450e+01 0.0 0.0 3.250e+03
0.0 0.0 6.500e+01 0.0 0.0 3.142e+03
0.0 0.0 6.550e+01 0.0 0.0 3.038e+03
0.0 0.0 6.600e+01 0.0 0.0 2.940e+03
0.0 0.0 6.650e+01 0.0 0.0 2.850e+03
0.0 0.0 6.700e+01 0.0 0.0 2.766e+03
0.0 0.0 6.750e+01 0.0 0.0 2.687e+03
0.0 0.0 6.800e+01 0.0 0.0 2.612e+03
0.0 0.0 6.850e+01 0.0 0.0 2.541e+03
0.0 0.0 6.900e+01 0.0 0.0 2.472e+03
0.0 0.0 6.950e+01 0.0 0.0 2.405e+03
0.0 0.0 7.000e+01 0.0 0.0 2.338e+03
0.0 0.0 7.050e+01 0.0 0.0 2.270e+03
0.0 0.0 7.100e+01 0.0 0.0 2.201e+03
0.0 0.0 7.150e+01 0.0 0.0 2.130e+03
0.0 0.0 7.200e+01 0.0 0.0 2.055e+03
0.0 0.0 7.250e+01 0.0 0.0 1.979e+03
0.0 0.0 7.300e+01 0.0 0.0 1.906e+03
0.0 0.0 7.350e+01 0.0 0.0 1.841e+03
0.0 0.0 7.400e+01 0.0 0.0 1.783e+03
0.0 0.0 7.450e+01 0.0 0.0 1.732e+03
0.0 0.0 7.500e+01 0.0 0.0 1.685e+03
0.0 0.0 7.550e+01 0.0 0.0 1.644e+03
0.0 0.0 7.600e+01 0.0 0.0 1.606e+03
0.0 0.0 7.650e+01 0.0 0.0 1.570e+03
0.0 0.0 7.700e+01 0.0 0.0 1.537e+03
0.0 0.0 7.750e+01 0.0 0.0 1.505e+03
0.0 0.0 7.800e+01 0.0 0.0 1.473e+03
0.0 0.0 7.850e+01 0.0 0.0 1.440e+03
0.0 0.0 7.900e+01 0.0 0.0 1.406e+03
0.0 0.0 7.950e+01 0.0 0.0 1.370e+03
0.0 0.0 8.000e+01 0.0 0.0 1.330e+03
0.0 0.0 8.050e+01 0.0 0.0 1.287e+03
0.0 0.0 8.100e+01 0.0 0.0 1.246e+03
0.0 0.0 8.150e+01 0.0 0.0 1.210e+03
0.0 0.0 8.200e+01 0.0 0.0 1.178e+03
0.0 0.0 8.250e+01 0.0 0.0 1.150e+03
0.0 0.0 8.300e+01 0.0 0.0 1.127e+03
0.0 0.0 8.350e+01 0.0 0.0 1.106e+03
0.0 0.0 8.400e+01 0.0 0.0 1.089e+03
0.0 0.0 8.450e+01 0.0 0.0 1.074e+03
0.0 0.0 8.500e+01 0.0 0.0 1.060e+03
0.0 0.0 8.550e+01 0.0 0.0 1.048e+03
0.0 0.0 8.600e+01 0.0 0.0 1.037e+03
0.0 0.0 8.650e+01 0.0 0.0 1.026e+03
0.0 0.0 8.700e+01 0.0 0.0 1.015e+03
0.0 0.0 8.750e+01 0.0 0.0 1.003e+03
0.0 0.0 8.800e+01 0.0 0.0 9.900e+02
0.0 0.0 8.850e+01 0.0 0.0 9.754e+02
0.0 0.0 8.900e+01 0.0 0.0 9.585e+02
0.0 0.0 8.950e+01 0.0 0.0 9.401e+02
0.0 0.0 9.000e+01 0.0 0.0 9.222e+02
0.0 0.0 9.050e+01 0.0 0.0 9.065e+02
0.0 0.0 9.100e+01 0.0 0.0 8.932e+02
0.0 0.0 9.150e+01 0.0 0.0 8.820e+02
0.0 0.0 9.200e+01 0.0 0.0 8.726e+02
0.0 0.0 9.250e+01 0.0 0.0 8.649e+02
0.0 0.0 9.300e+01 0.0 0.0 8.587e+02
0.0 0.0 9.350e+01 0.0 0.0 8.538e+02
0.0 0.0 9.400e+01 0.0 0.0 8.498e+02
0.0 0.0 9.450e+01 0.0 0.0 8.467e+02
0.0 0.0 9.500e+01 0.0 0.0 8.441e+02
0.0 0.0 9.550e+01 0.0 0.0 8.420e+02
0.0 0.0 9.600e+01 0.0 0.0 8.400e+02
0.0 0.0 9.650e+01 0.0 0.0 8.379e+02
0.0 0.0 9.700e+01 0.0 0.0 8.356e+02
0.0 0.0 9.750e+01 0.0 0.0 8.328e+02
0.0 0.0 9.800e+01 0.0 0.0 8.292e+02
0.0 0.0 9.850e+01 0.0 0.0 8.248e+02
0.0 0.0 9.900e+01 0.0 0.0 8.193e+02
0.0 0.0 9.950e+01 0.0 0.0 8.132e+02
0.0 0.0 1.000e+02 0.0 0.0 8.078e+02
0.0 0.0 1.005e+02 0.0 0.0 8.035e+02
0.0 0.0 1.010e+02 0.0 0.0 8.004e+02
0.0 0.0 1.015e+02 0.0 0.0 7.985e+02
0.0 0.0 1.020e+02 0.0 0.0 7.975e+02
0.0 0.0 1.025e+02 0.0 0.0 7.974e+02
0.0 0.0 1.030e+02 0.0 0.0 7.981e+02
0.0 0.0 1.035e+02 0.0 0.0 7.994e+02
0.0 0.0 1.040e+02 0.0 0.0 8.012e+02
0.0 0.0 1.045e+02 0.0 0.0 8.034e+02
0.0 0.0 1.050e+02 0.0 0.0 8.060e+02
0.0 0.0 1.055e+02 0.0 0.0 8.087e+02
0.0 0.0 1.060e+02 0.0 0.0 8.115e+02
0.0 0.0 1.065e+02 0.0 0.0 8.143e+02
0.0 0.0 1.070e+02 0.0 0.0 8.169e+02
0.0 0.0 1.075e+02 0.0 0.0 8.192e+02
0.0 0.0 1.080e+02 0.0 0.0 8.212e+02
0.0 0.0 1.085e+02 0.0 0.0 8.226e+02
0.0 0.0 1.090e+02 0.0 0.0 8.235e+02
0.0 0.0 1.095e+02 0.0 0.0 8.241e+02
0.0 0.0 1.100e+02 0.0 0.0 8.251e+02
0.0 0.0 1.105e+02 0.0 0.0 8.273e+02
0.0 0.0 1.110e+02 0.0 0.0 8.305e+02
0.0 0.0 1.115e+02 0.0 0.0 8.347e+02
0.0 0.0 1.120e+02 0.0 0.0 8.399e+02
0.0 0.0 1.125e+02 0.0 0.0 8.458e+02
0.0 0.0 1.130e+02 0.0 0.0 8.523e+02
0.0 0.0 1.135e+02 0.0 0.0 8.595e+02
0.0 0.0 1.140e+02 0.0 0.0 8.670e+02
0.0 0.0 1.145e+02 0.0 0.0 8.749e+02
0.0 0.0 1.150e+02 0.0 0.0 8.831e+02
0.0 0.0 1.155e+02 0.0 0.0 8.913e+02
0.0 0.0 1.160e+02 0.0 0.0 8.995e+02
0.0 0.0 1.165e+02 0.0 0.0 9.076e+02
0.0 0.0 1.170e+02 0.0 0.0 9.155e+02
0.0 0.0 1.175e+02 0.0 0.0 9.230e+02
0.0 0.0 1.180e+02 0.0 0.0 9.301e+02
0.0 0.0 1.185e+02 0.0 0.0 9.366e+02
0.0 0.0 1.190e+02 0.0 0.0 9.430e+02
0.0 0.0 1.195e+02 0.0 0.0 9.499e+02
0.0 0.0 1.200e+02 0.0 0.0 9.583e+02
0.0 0.0 1.205e+02 0.0 0.0 9.679e+02
0.0 0.0 1.210e+02 0.0 0.0 9.788e+02
0.0 0.0 1.215e+02 0.0 0.0 9.907e+02
0.0 0.0 1.220e+02 0.0 0.0 1.004e+03
0.0 0.0 1.225e+02 0.0 0.0 1.017e+03
0.0 0.0 1.230e+02 0.0 0.0 1.031e+03
0.0 0.0 1.235e+02 0.0 0.0 1.046e+03
0.0 0.0 1.240e+02 0.0 0.0 1.061e+03
0.0 0.0 1.245e+02 0.0 0.0 1.076e+03
0.0 0.0 1.250e+02 0.0 0.0 1.091e+03
0.0 0.0 1.255e+02 0.0 0.0 1.106e+03
0.0 0.0 1.260e+02 0.0 0.0 1.121e+03
0.0 0.0 1.265e+02 0.0 0.0 1.135e+03
0.0 0.0 1.270e+02 0.0 0.0 1.149e+03
0.0 0.0 1.275e+02 0.0 0.0 1.162e+03
0.0 0.0 1.280e+02 0.0 0.0 1.175e+03
0.0 0.0 1.285e+02 0.0 0.0 1.189e+03
0.0 0.0 1.290e+02 0.0 0.0 1.205e+03
0.0 0.0 1.295e+02 0.0 0.0 1.222e+03
0.0 0.0 1.300e+02 0.0 0.0 1.241e+03
0.0 0.0 1.305e+02 0.0 0.0 1.261e+03
0.0 0.0 1.310e+02 0.0 0.0 1.282e+03
0.0 0.0 1.315e+02 0.0 0.0 1.304e+03
0.0 0.0 1.320e+02 0.0 0.0 1.326e+03
0.0 0.0 1.325e+02 0.0 0.0 1.349e+03
0.0 0.0 1.330e+02 0.0 0.0 1.372e+03
0.0 0.0 1.335e+02 0.0 0.0 1.395e+03
0.0 0.0 1.340e+02 0.0 0.0 1.418e+03
0.0 0.0 1.345e+02 0.0 0.0 1.440e+03
0.0 0.0 1.350e+02 0.0 0.0 1.462e+03
0.0 0.0 1.355e+02 0.0 0.0 1.483e+03
0.0 0.0 1.360e+02 0.0 0.0 1.504e+03
0.0 0.0 1.365e+02 0.0 0.0 1.525e+03
0.0 0.0 1.370e+02 0.0 0.0 1.548e+03
0.0 0.0 1.375e+02 0.0 0.0 1.572e+03
0.0 0.0 1.380e+02 0.0 0.0 1.598e+03
0.0 0.0 1.385e+02 0.0 0.0 1.624e+03
0.0 0.0 1.390e+02 0.0 0.0 1.652e+03
0.0 0.0 1.395e+02 0.0 0.0 1.681e+03
0.0 0.0 1.400e+02 0.0 0.0 1.711e+03
0.0 0.0 1.405e+02 0.0 0.0 1.741e+03
0.0 0.0 1.410e+02 0.0 0.0 1.771e+03
0.0 0.0 1.415e+02 0.0 0.0 1.801e+03
0.0 0.0 1.420e+02 0.0 0.0 1.831e+03
0.0 0.0 1.425e+02 0.0 0.0 1.861e+03
0.0 0.0 1.430e+02 0.0 0.0 1.890e+03
0.0 0.0 1.435e+02 0.0 0.0 1.918e+03
0.0 0.0 1.440e+02 0.0 0.0 1.946e+03
0.0 0.0 1.445e+02 0.0 0.0 1.975e+03
0.0 0.0 1.450e+02 0.0 0.0 2.005e+03
0.0 0.0 1.455e+02 0.0 0.0 2.036e+03
0.0 0.0 1.460e+02 0.0 0.0 2.069e+03
0.0 0.0 1.465e+02 0.0 0.0 2.102e+03
0.0 0.0 1.470e+02 0.0 0.0 2.136e+03
0.0 0.0 1.475e+02 0.0 0.0 2.170e+03
0.0 0.0 1.480e+02 0.0 0.0 2.205e+03
0.0 0.0 1.485e+02 0.0 0.0 2.240e+03
0.0 0.0 1.490e+02 0.0 0.0 2.275e+03
0.0 0.0 1.495e+02 0.0 0.0 2.309e+03
0.0 0.0 1.500e+02 0.0 0.0 2.344e+03
0.0 0.0 1.505e+02 0.0 0.0 2.378e+03
0.0 0.0 1.510e+02 0.0 0.0 2.411e+03
0.0 0.0 1.515e+02 0.0 0.0 2.445e+03
0.0 0.0 1.520e+02 0.0 0.0 2.479e+03
0.0 0.0 1.525e+02 0.0 0.0 2.514e+03
0.0 0.0 1.530e+02 0.0 0.0 2.550e+03
0.0 0.0 1.535e+02 0.0 0.0 2.586e+03
0.0 0.0 1.540e+02 0.0 0.0 2.622e+03
0.0 0.0 1.545e+02 0.0 0.0 2.659e+03
0.0 0.0 1.550e+02 0.0 0.0 2.696e+03
0.0 0.0 1.555e+02 0.0 0.0 2.733e+03
0.0 0.0 1.560e+02 0.0 0.0 2.771e+03
0.0 0.0 1.565e+02 0.0 0.0 2.808e+03
0.0 0.0 1.570e+02 0.0 0.0 2.845e+03
0.0 0.0 1.575e+02 0.0 0.0 2.881e+03
0.0 0.0 1.580e+02 0.0 0.0 2.917e+03
0.0 0.0 1.585e+02 0.0 0.0 2.954e+03
0.0 0.0 1.590e+02 0.0 0.0 2.991e+03
0.0 0.0 1.595e+02 0.0 0.0 3.028e+03
0.0 0.0 1.600e+02 0.0 0.0 3.065e+03
0.0 0.0 1.605e+02 0.0 0.0 3.103e+03
0.0 0.0 1.610e+02 0.0 0.0 3.141e+03
0.0 0.0 1.615e+02 0.0 0.0 3.179e+03
0.0 0.0 1.620e+02 0.0 0.0 3.217e+03
0.0 0.0 1.625e+02 0.0 0.0 3.255e+03
0.0 0.0 1.630e+02 0.0 0.0 3.293e+03
0.0 0.0 1.635e+02 0.0 0.0 3.331e+03
0.0 0.0 1.640e+02 0.0 0.0 3.369e+03
0.0 0.0 1.645e+02 0.0 0.0 3.406e+03
0.0 0.0 1.650e+02 0.0 0.0 3.444e+03
0.0 0.0 1.655e+02 0.0 0.0 3.482e+03
0.0 0.0 1.660e+02 0.0 0.0 3.520e+03
0.0 0.0 1.665e+02 0.0 0.0 3.558e+03
0.0 0.0 1.670e+02 0.0 0.0 3.596e+03
0.0 0.0 1.675e+02 0.0 0.0 3.635e+03
0.0 0.0 1.680e+02 0.0 0.0 3.673e+03
0.0 0.0 1.685e+02 0.0 0.0 3.711e+03
0.0 0.0 1.690e+02 0.0 0.0 3.750e+03
0.0 0.0 1.695e+02 0.0 0.0 3.788e+03
0.0 0.0 1.700e+02 0.0 0.0 3.826e+03
0.0 0.0 1.705e+02 0.0 0.0 3.864e+03
0.0 0.0 1.710e+02 0.0 0.0 3.903e+03
0.0 0.0 1.715e+02 0.0 0.0 3.941e+03
0.0 0.0 1.720e+02 0.0 0.0 3.979e+03
0.0 0.0 1.725e+02 0.0 0.0 4.018e+03
0.0 0.0 1.730e+02 0.0 0.0 4.056e+03
0.0 0.0 1.735e+02 0.0 0.0 4.095e+03
0.0 0.0 1.740e+02 0.0 0.0 4.133e+03
0.0 0.0 1.745e+02 0.0 0.0 4.172e+03
0.0 0.0 1.750e+02 0.0 0.0 4.210e+03
0.0 0.0 1.755e+02 0.0 0.0 4.249e+03
0.0 0.0 1.760e+02 0.0 0.0 4.287e+03
0.0 0.0 1.765e+02 0.0 0.0 4.326e+03
0.0 0.0 1.770e+02 0.0 0.0 4.364e+03
0.0 0.0 1.775e+02 0.0 0.0 4.403e+03
0.0 0.0 1.780e+02 0.0 0.0 4.442e+03
0.0 0.0 1.785e+02 0.0 0.0 4.481e+03
0.0 0.0 1.790e+02 0.0 0.0 4.519e+03
0.0 0.0 1.795e+02 0.0 0.0 4.558e+03
0.0 0.0 1.800e+02 0.0 0.0 4.597e+03
0.0 0.0 1.805e+02 0.0 0.0 4.635e+03
0.0 0.0 1.810e+02 0.0 0.0 4.674e+03
0.0 0.0 1.815e+02 0.0 0.0 4.713e+03
0.0 0.0 1.820e+02 0.0 0.0 4.752e+03
0.0 0.0 1.825e+02 0.0 0.0 4.791e+03
0.0 0.0 1.830e+02 0.0 0.0 4.830e+03
0.0 0.0 1.835e+02 0.0 0.0 4.869e+03
0.0 0.0 1.840e+02 0.0 0.0 4.908e+03
0.0 0.0 1.845e+02 0.0 0.0 4.947e+03
0.0 0.0 1.850e+02 0.0 0.0 4.986e+03
0.0 0.0 1.855e+02 0.0 0.0 5.025e+03
0.0 0.0 1.860e+02 0.0 0.0 5.064e+03
0.0 0.0 1.865e+02 0.0 0.0 5.103e+03
0.0 0.0 1.870e+02 0.0 0.0 5.142e+03
0.0 0.0 1.875e+02 0.0 0.0 5.181e+03
0.0 0.0 1.880e+02 0.0 0.0 5.220e+03
0.0 0.0 1.885e+02 0.0 0.0 5.260e+03
0.0 0.0 1.890e+02 0.0 0.0 5.299e+03
0.0 0.0 1.895e+02 0.0 0.0 5.338e+03
0.0 0.0 1.900e+02 0.0 0.0 5.378e+03
0.0 0.0 1.905e+02 0.0 0.0 5.417e+03
0.0 0.0 1.910e+02 0.0 0.0 5.456e+03
0.0 0.0 1.915e+02 0.0 0.0 5.496e+03
0.0 0.0 1.920e+02 0.0 0.0 5.536e+03
0.0 0.0 1.925e+02 0.0 0.0 5.575e+03
0.0 0.0 1.930e+02 0.0 0.0 5.615e+03
0.0 0.0 1.935e+02 0.0 0.0 5.655e+03
0.0 0.0 1.940e+02 0.0 0.0 5.695e+03
0.0 0.0 1.945e+02 0.0 0.0 5.734e+03
0.0 0.0 1.950e+02 0.0 0.0 5.774e+03
0.0 0.0 1.955e+02 0.0 0.0 5.814e+03
0.0 0.0 1.960e+02 0.0 0.0 5.854e+03
0.0 0.0 1.965e+02 0.0 0.0 5.894e+03
0.0 0.0 1.970e+02 0.0 0.0 5.934e+03
0.0 0.0 1.975e+02 0.0 0.0 5.974e+03
0.0 0.0 1.980e+02 0.0 0.0 6.014e+03
0.0 0.0 1.985e+02 0.0 0.0 6.054e+03
0.0 0.0 1.990e+02 0.0 0.0 6.095e+03
0.0 0.0 1.995e+02 0.0 0.0 6.135e+03
0.0 0.0 2.000e+02 0.0 0.0 6.176e+03
0.0 0.0 2.005e+02 0.0 0.0 6.216e+03
0.0 0.0 2.010e+02 0.0 0.0 6.257e+03
0.0 0.0 2.015e+02 0.0 0.0 6.298e+03
0.0 0.0 2.020e+02 0.0 0.0 6.338e+03
0.0 0.0 2.025e+02 0.0 0.0 6.379e+03
0.0 0.0 2.030e+02 0.0 0.0 6.419e+03
0.0 0.0 2.035e+02 0.0 0.0 6.460e+03
0.0 0.0 2.040e+02 0.0 0.0 6.502e+03
0.0 0.0 2.045e+02 0.0 0.0 6.543e+03
0.0 0.0 2.050e+02 0.0 0.0 6.584e+03
0.0 0.0 2.055e+02 0.0 0.0 6.625e+03
0.0 0.0 2.060e+02 0.0 0.0 6.666e+03
0.0 0.0 2.065e+02 0.0 0.0 6.707e+03
0.0 0.0 2.070e+02 0.0 0.0 6.749e+03
0.0 0.0 2.075e+02 0.0 0.0 6.790e+03
0.0 0.0 2.080e+02 0.0 0.0 6.832e+03
0.0 0.0 2.085e+02 0.0 0.0 6.873e+03
0.0 0.0 2.090e+02 0.0 0.0 6.915e+03
0.0 0.0 2.095e+02 0.0 0.0 6.956e+03
0.0 0.0 2.100e+02 0.0 0.0 6.998e+03
0.0 0.0 2.105e+02 0.0 0.0 7.040e+03
0.0 0.0 2.110e+02 0.0 0.0 7.082e+03
0.0 0.0 2.115e+02 0.0 0.0 7.124e+03
0.0 0.0 2.120e+02 0.0 0.0 7.166e+03
0.0 0.0 2.125e+02 0.0 0.0 7.208e+03
0.0 0.0 2.130e+02 0.0 0.0 7.251e+03
0.0 0.0 2.135e+02 0.0 0.0 7.293e+03
0.0 0.0 2.140e+02 0.0 0.0 7.336e+03
0.0 0.0 2.145e+02 0.0 0.0 7.378e+03
0.0 0.0 2.150e+02 0.0 0.0 7.421e+03
0.0 0.0 2.155e+02 0.0 0.0 7.464e+03
0.0 0.0 2.160e+02 0.0 0.0 7.506e+03
0.0 0.0 2.165e+02 0.0 0.0 7.549e+03
0.0 0.0 2.170e+02 0.0 0.0 7.592e+03
0.0 0.0 2.175e+02 0.0 0.0 7.635e+03
0.0 0.0 2.180e+02 0.0 0.0 7.678e+03
0.0 0.0 2.185e+02 0.0 0.0 7.722e+03
0.0 0.0 2.190e+02 0.0 0.0 7.765e+03
0.0 0.0 2.195e+02 0.0 0.0 7.808e+03
0.0 0.0 2.200e+02 0.0 0.0 7.852e+03
0.0 0.0 2.205e+02 0.0 0.0 7.896e+03
0.0 0.0 2.210e+02 0.0 0.0 7.939e+03
0.0 0.0 2.215e+02 0.0 0.0 7.983e+03
0.0 0.0 2.220e+02 0.0 0.0 8.027e+03
0.0 0.0 2.225e+02 0.0 0.0 8.071e+03
0.0 0.0 2.230e+02 0.0 0.0 8.115e+03
0.0 0.0 2.235e+02 0.0 0.0 8.159e+03
0.0 0.0 2.240e+02 0.0 0.0 8.204e+03
0.0 0.0 2.245e+02 0.0 0.0 8.248e+03
0.0 0.0 2.250e+02 0.0 0.0 8.293e+03
0.0 0.0 2.255e+02 0.0 0.0 8.337e+03
0.0 0.0 2.260e+02 0.0 0.0 8.382e+03
0.0 0.0 2.265e+02 0.0 0.0 8.427e+03
0.0 0.0 2.270e+02 0.0 0.0 8.472e+03
0.0 0.0 2.275e+02 0.0 0.0 8.517e+03
0.0 0.0 2.280e+02 0.0 0.0 8.562e+03
0.0 0.0 2.285e+02 0.0 0.0 8.607e+03
0.0 0.0 2.290e+02 0.0 0.0 8.652e+03
0.0 0.0 2.295e+02 0.0 0.0 8.698e+03
0.0 0.0 2.300e+02 0.0 0.0 8.743e+03
0.0 0.0 2.305e+02 0.0 0.0 8.789e+03
0.0 0.0 2.310e+02 0.0 0.0 8.834e+03
0.0 0.0 2.315e+02 0.0 0.0 8.880e+03
0.0 0.0 2.320e+02 0.0 0.0 8.926e+03
0.0 0.0 2.325e+02 0.0 0.0 8.972e+03
0.0 0.0 2.330e+02 0.0 0.0 9.018e+03
0.0 0.0 2.335e+02 0.0 0.0 9.065e+03
0.0 0.0 2.340e+02 0.0 0.0 9.111e+03
0.0 0.0 2.345e+02 0.0 0.0 9.158e+03
0.0 0.0 2.350e+02 0.0 0.0 9.204e+03
0.0 0.0 2.355e+02 0.0 0.0 9.251e+03
0.0 0.0 2.360e+02 0.0 0.0 9.298e+03
0.0 0.0 2.365e+02 0.0 0.0 9.345e+03
0.0 0.0 2.370e+02 0.0 0.0 9.392e+03
0.0 0.0 2.375e+02 0.0 0.0 9.439e+03
0.0 0.0 2.380e+02 0.0 0.0 9.486e+03
0.0 0.0 2.385e+02 0.0 0.0 9.534e+03
0.0 0.0 2.390e+02 0.0 0.0 9.581e+03
0.0 0.0 2.395e+02 0.0 0.0 9.629e+03
0.0 0.0 2.400e+02 0.0 0.0 9.678e+03
0.0 0.0 2.405e+02 0.0 0.0 9.725e+03
0.0 0.0 2.410e+02 0.0 0.0 9.771e+03
0.0 0.0 2.415e+02 0.0 0.0 9.820e+03
0.0 0.0 2.420e+02 0.0 0.0 9.868e+03
0.0 0.0 2.425e+02 0.0 0.0 9.917e+03
0.0 0.0 2.430e+02 0.0 0.0 9.965e+03
0.0 0.0 2.435e+02 0.0 0.0 1.001e+04
0.0 0.0 2.440e+02 0.0 0.0 1.006e+04
0.0 0.0 2.445e+02 0.0 0.0 1.011e+04
0.0 0.0 2.450e+02 0.0 0.0 1.016e+04
0.0 0.0 2.455e+02 0.0 0.0 1.021e+04
0.0 0.0 2.460e+02 0.0 0.0 1.026e+04
0.0 0.0 2.465e+02 0.0 0.0 1.031e+04
0.0 0.0 2.470e+02 0.0 0.0 1.036e+04
0.0 0.0 2.475e+02 0.0 0.0 1.041e+04
0.0 0.0 2.480e+02 0.0 0.0 1.046e+04
0.0 0.0 2.485e+02 0.0 0.0 1.092e+04
0.0 0.0 2.490e+02 0.0 0.0 1.633e+03
