1.000000e+00 1.190914e+04
2.000000e+00 1.926479e+04
3.000000e+00 1.906777e+04
4.000000e+00 1.883797e+04
5.000000e+00 1.862935e+04
6.000000e+00 1.842607e+04
7.000000e+00 1.824017e+04
8.000000e+00 1.806628e+04
9.000000e+00 1.789615e+04
1.000000e+01 1.773734e+04
1.100000e+01 1.759007e+04
1.200000e+01 1.744701e+04
1.300000e+01 1.731144e+04
1.400000e+01 1.717846e+04
1.500000e+01 1.705186e+04
1.600000e+01 1.692591e+04
1.700000e+01 1.680572e+04
1.800000e+01 1.668500e+04
1.900000e+01 1.656926e+04
2.000000e+01 1.645313e+04
2.100000e+01 1.633953e+04
2.200000e+01 1.622802e+04
2.300000e+01 1.611631e+04
2.400000e+01 1.600737e+04
2.500000e+01 1.589888e+04
2.600000e+01 1.579082e+04
2.700000e+01 1.568465e+04
2.800000e+01 1.557907e+04
2.900000e+01 1.547389e+04
3.000000e+01 1.536974e+04
3.100000e+01 1.526653e+04
3.200000e+01 1.516386e+04
3.300000e+01 1.506172e+04
3.400000e+01 1.496015e+04
3.500000e+01 1.485947e+04
3.600000e+01 1.475948e+04
3.700000e+01 1.465985e+04
3.800000e+01 1.456038e+04
3.900000e+01 1.446191e+04
4.000000e+01 1.436430e+04
4.100000e+01 1.426709e+04
4.200000e+01 1.416979e+04
4.300000e+01 1.407296e+04
4.400000e+01 1.397737e+04
4.500000e+01 1.388251e+04
4.600000e+01 1.378785e+04
4.700000e+01 1.369288e+04
4.800000e+01 1.359849e+04
4.900000e+01 1.350545e+04
5.000000e+01 1.341323e+04
5.100000e+01 1.332130e+04
5.200000e+01 1.322911e+04
5.300000e+01 1.313674e+04
5.400000e+01 1.304578e+04
5.500000e+01 1.295601e+04
5.600000e+01 1.286691e+04
5.700000e+01 1.277796e+04
5.800000e+01 1.268863e+04
5.900000e+01 1.259908e+04
6.000000e+01 1.251102e+04
6.100000e+01 1.242428e+04
6.200000e+01 1.233835e+04
6.300000e+01 1.225276e+04
6.400000e+01 1.216700e+04
6.500000e+01 1.208063e+04
6.600000e+01 1.199474e+04
6.700000e+01 1.191053e+04
6.800000e+01 1.182761e+04
6.900000e+01 1.174549e+04
7.000000e+01 1.166371e+04
7.100000e+01 1.158180e+04
7.200000e+01 1.149931e+04
7.300000e+01 1.141664e+04
7.400000e+01 1.133565e+04
7.500000e+01 1.125623e+04
7.600000e+01 1.117793e+04
7.700000e+01 1.110032e+04
7.800000e+01 1.102295e+04
7.900000e+01 1.094538e+04
8.000000e+01 1.086717e+04
8.100000e+01 1.078861e+04
8.200000e+01 1.071174e+04
8.300000e+01 1.063663e+04
8.400000e+01 1.056287e+04
8.500000e+01 1.049002e+04
8.600000e+01 1.041766e+04
8.700000e+01 1.034536e+04
8.800000e+01 1.027269e+04
8.900000e+01 1.019924e+04
9.000000e+01 1.012562e+04
9.100000e+01 1.005423e+04
9.200000e+01 9.985172e+03
9.300000e+01 9.917948e+03
9.400000e+01 9.852079e+03
9.500000e+01 9.787080e+03
9.600000e+01 9.722468e+03
9.700000e+01 9.657758e+03
9.800000e+01 9.592466e+03
9.900000e+01 9.526132e+03
1.000000e+02 9.459602e+03
1.010000e+02 9.394954e+03
1.020000e+02 9.332206e+03
1.030000e+02 9.270964e+03
1.040000e+02 9.210835e+03
1.050000e+02 9.151426e+03
1.060000e+02 9.092344e+03
1.070000e+02 9.033195e+03
1.080000e+02 8.973586e+03
1.090000e+02 8.913132e+03
1.100000e+02 8.852368e+03
1.110000e+02 8.793154e+03
1.120000e+02 8.735616e+03
1.130000e+02 8.679379e+03
1.140000e+02 8.624065e+03
1.150000e+02 8.569298e+03
1.160000e+02 8.514702e+03
1.170000e+02 8.459900e+03
1.180000e+02 8.404516e+03
1.190000e+02 8.348392e+03
1.200000e+02 8.293417e+03
1.210000e+02 8.240810e+03
1.220000e+02 8.190104e+03
1.230000e+02 8.140773e+03
1.240000e+02 8.092289e+03
1.250000e+02 8.044124e+03
1.260000e+02 7.995752e+03
1.270000e+02 7.946645e+03
1.280000e+02 7.896657e+03
1.290000e+02 7.848130e+03
1.300000e+02 7.801999e+03
1.310000e+02 7.757696e+03
1.320000e+02 7.714632e+03
1.330000e+02 7.672217e+03
1.340000e+02 7.629863e+03
1.350000e+02 7.586983e+03
1.360000e+02 7.543076e+03
1.370000e+02 7.499815e+03
1.380000e+02 7.459039e+03
1.390000e+02 7.420232e+03
1.400000e+02 7.382747e+03
1.410000e+02 7.345939e+03
1.420000e+02 7.309158e+03
1.430000e+02 7.271759e+03
1.440000e+02 7.233398e+03
1.450000e+02 7.196472e+03
1.460000e+02 7.161972e+03
1.470000e+02 7.129209e+03
1.480000e+02 7.097478e+03
1.490000e+02 7.066073e+03
1.500000e+02 7.034290e+03
1.510000e+02 7.001501e+03
1.520000e+02 6.969408e+03
1.530000e+02 6.939804e+03
1.540000e+02 6.912025e+03
1.550000e+02 6.885310e+03
1.560000e+02 6.858897e+03
1.570000e+02 6.832025e+03
1.580000e+02 6.804198e+03
1.590000e+02 6.777811e+03
1.600000e+02 6.753762e+03
1.610000e+02 6.731243e+03
1.620000e+02 6.709440e+03
1.630000e+02 6.687536e+03
1.640000e+02 6.664742e+03
1.650000e+02 6.642346e+03
1.660000e+02 6.622358e+03
1.670000e+02 6.604047e+03
1.680000e+02 6.586543e+03
1.690000e+02 6.568981e+03
1.700000e+02 6.550543e+03
1.710000e+02 6.532789e+03
1.720000e+02 6.517347e+03
1.730000e+02 6.503364e+03
1.740000e+02 6.489921e+03
1.750000e+02 6.476102e+03
1.760000e+02 6.461630e+03
1.770000e+02 6.449118e+03
1.780000e+02 6.438417e+03
1.790000e+02 6.428563e+03
1.800000e+02 6.418590e+03
1.810000e+02 6.407847e+03
1.820000e+02 6.398683e+03
1.830000e+02 6.391356e+03
1.840000e+02 6.384855e+03
1.850000e+02 6.378172e+03
1.860000e+02 6.370927e+03
1.870000e+02 6.365540e+03
1.880000e+02 6.361669e+03
1.890000e+02 6.358257e+03
1.900000e+02 6.354275e+03
1.910000e+02 6.350882e+03
1.920000e+02 6.349376e+03
1.930000e+02 6.348694e+03
1.940000e+02 6.347740e+03
1.950000e+02 6.346797e+03
1.960000e+02 6.347718e+03
1.970000e+02 6.349534e+03
1.980000e+02 6.351103e+03
1.990000e+02 6.352847e+03
2.000000e+02 6.356328e+03
2.010000e+02 6.360465e+03
2.020000e+02 6.364156e+03
2.030000e+02 6.368832e+03
2.040000e+02 6.374833e+03
2.050000e+02 6.380924e+03
2.060000e+02 6.386970e+03
2.070000e+02 6.394568e+03
2.080000e+02 6.402634e+03
2.090000e+02 6.410426e+03
2.100000e+02 6.419616e+03
2.110000e+02 6.429393e+03
2.120000e+02 6.438942e+03
2.130000e+02 6.449808e+03
2.140000e+02 6.461110e+03
2.150000e+02 6.472409e+03
2.160000e+02 6.484961e+03
2.170000e+02 6.497538e+03
2.180000e+02 6.510784e+03
2.190000e+02 6.524797e+03
2.200000e+02 6.538799e+03
2.210000e+02 6.553880e+03
2.220000e+02 6.568949e+03
2.230000e+02 6.584949e+03
2.240000e+02 6.601107e+03
2.250000e+02 6.618022e+03
2.260000e+02 6.635179e+03
2.270000e+02 6.653055e+03
2.280000e+02 6.671141e+03
2.290000e+02 6.689983e+03
2.300000e+02 6.709009e+03
2.310000e+02 6.728684e+03
2.320000e+02 6.748756e+03
2.330000e+02 6.769185e+03
2.340000e+02 6.790178e+03
2.350000e+02 6.811602e+03
2.360000e+02 6.833384e+03
2.370000e+02 6.855601e+03
2.380000e+02 6.878263e+03
2.390000e+02 6.901359e+03
2.400000e+02 6.925081e+03
2.410000e+02 6.948453e+03
2.420000e+02 6.972851e+03
2.430000e+02 6.997629e+03
2.440000e+02 7.022775e+03
2.450000e+02 7.048673e+03
2.460000e+02 7.074171e+03
2.470000e+02 7.100549e+03
2.480000e+02 7.127326e+03
2.490000e+02 1.627296e+03
