1.000000e+00 6.433373e+03
2.000000e+00 1.255098e+04
3.000000e+00 1.249716e+04
4.000000e+00 1.242726e+04
5.000000e+00 1.236315e+04
6.000000e+00 1.230698e+04
7.000000e+00 1.226298e+04
8.000000e+00 1.222766e+04
9.000000e+00 1.219576e+04
1.000000e+01 1.217089e+04
1.100000e+01 1.215321e+04
1.200000e+01 1.213824e+04
1.300000e+01 1.212758e+04
1.400000e+01 1.211881e+04
1.500000e+01 1.211312e+04
1.600000e+01 1.210835e+04
1.700000e+01 1.210626e+04
1.800000e+01 1.210420e+04
1.900000e+01 1.210460e+04
2.000000e+01 1.210468e+04
2.100000e+01 1.210634e+04
2.200000e+01 1.210898e+04
2.300000e+01 1.211109e+04
2.400000e+01 1.211471e+04
2.500000e+01 1.211837e+04
2.600000e+01 1.212208e+04
2.700000e+01 1.212687e+04
2.800000e+01 1.213166e+04
2.900000e+01 1.213638e+04
3.000000e+01 1.214162e+04
3.100000e+01 1.214714e+04
3.200000e+01 1.215260e+04
3.300000e+01 1.215826e+04
3.400000e+01 1.216433e+04
3.500000e+01 1.217035e+04
3.600000e+01 1.217636e+04
3.700000e+01 1.218254e+04
3.800000e+01 1.218903e+04
3.900000e+01 1.219546e+04
4.000000e+01 1.220184e+04
4.100000e+01 1.220830e+04
4.200000e+01 1.221498e+04
4.300000e+01 1.222176e+04
4.400000e+01 1.222845e+04
4.500000e+01 1.223511e+04
4.600000e+01 1.224186e+04
4.700000e+01 1.224876e+04
4.800000e+01 1.225573e+04
4.900000e+01 1.226264e+04
5.000000e+01 1.226953e+04
5.100000e+01 1.227645e+04
5.200000e+01 1.228342e+04
5.300000e+01 1.229048e+04
5.400000e+01 1.229756e+04
5.500000e+01 1.230466e+04
5.600000e+01 1.231176e+04
5.700000e+01 1.231885e+04
5.800000e+01 1.232590e+04
5.900000e+01 1.233295e+04
6.000000e+01 1.234008e+04
6.100000e+01 1.234728e+04
6.200000e+01 1.235453e+04
6.300000e+01 1.236180e+04
6.400000e+01 1.236905e+04
6.500000e+01 1.237627e+04
6.600000e+01 1.238350e+04
6.700000e+01 1.239077e+04
6.800000e+01 1.239808e+04
6.900000e+01 1.240543e+04
7.000000e+01 1.241279e+04
7.100000e+01 1.242018e+04
7.200000e+01 1.242757e+04
7.300000e+01 1.243496e+04
7.400000e+01 1.244238e+04
7.500000e+01 1.244981e+04
7.600000e+01 1.245726e+04
7.700000e+01 1.246472e+04
7.800000e+01 1.247218e+04
7.900000e+01 1.247965e+04
8.000000e+01 1.248712e+04
8.100000e+01 1.249460e+04
8.200000e+01 1.250211e+04
8.300000e+01 1.250968e+04
8.400000e+01 1.251727e+04
8.500000e+01 1.252488e+04
8.600000e+01 1.253250e+04
8.700000e+01 1.254012e+04
8.800000e+01 1.254773e+04
8.900000e+01 1.255532e+04
9.000000e+01 1.256288e+04
9.100000e+01 1.257042e+04
9.200000e+01 1.257793e+04
9.300000e+01 1.258543e+04
9.400000e+01 1.259291e+04
9.500000e+01 1.260039e+04
9.600000e+01 1.260786e+04
9.700000e+01 1.261532e+04
9.800000e+01 1.262279e+04
9.900000e+01 1.263026e+04
1.000000e+02 1.263775e+04
1.010000e+02 1.264531e+04
1.020000e+02 1.265292e+04
1.030000e+02 1.266058e+04
1.040000e+02 1.266826e+04
1.050000e+02 1.267597e+04
1.060000e+02 1.268368e+04
1.070000e+02 1.269138e+04
1.080000e+02 1.269906e+04
1.090000e+02 1.270671e+04
1.100000e+02 1.271440e+04
1.110000e+02 1.272221e+04
1.120000e+02 1.273014e+04
1.130000e+02 1.273814e+04
1.140000e+02 1.274620e+04
1.150000e+02 1.275428e+04
1.160000e+02 1.276236e+04
1.170000e+02 1.277040e+04
1.180000e+02 1.277837e+04
1.190000e+02 1.278635e+04
1.200000e+02 1.279441e+04
1.210000e+02 1.280252e+04
1.220000e+02 1.281067e+04
1.230000e+02 1.281884e+04
1.240000e+02 1.282698e+04
1.250000e+02 1.283510e+04
1.260000e+02 1.284315e+04
1.270000e+02 1.285121e+04
1.280000e+02 1.285934e+04
1.290000e+02 1.286752e+04
1.300000e+02 1.287575e+04
1.310000e+02 1.288401e+04
1.320000e+02 1.289228e+04
1.330000e+02 1.290055e+04
1.340000e+02 1.290881e+04
1.350000e+02 1.291709e+04
1.360000e+02 1.292540e+04
1.370000e+02 1.293371e+04
1.380000e+02 1.294203e+04
1.390000e+02 1.295034e+04
1.400000e+02 1.295864e+04
1.410000e+02 1.296697e+04
1.420000e+02 1.297536e+04
1.430000e+02 1.298377e+04
1.440000e+02 1.299219e+04
1.450000e+02 1.300061e+04
1.460000e+02 1.300900e+04
1.470000e+02 1.301741e+04
1.480000e+02 1.302586e+04
1.490000e+02 1.303434e+04
1.500000e+02 1.304286e+04
1.510000e+02 1.305140e+04
1.520000e+02 1.305993e+04
1.530000e+02 1.306844e+04
1.540000e+02 1.307696e+04
1.550000e+02 1.308553e+04
1.560000e+02 1.309416e+04
1.570000e+02 1.310276e+04
1.580000e+02 1.311133e+04
1.590000e+02 1.311992e+04
1.600000e+02 1.312855e+04
1.610000e+02 1.313719e+04
1.620000e+02 1.314580e+04
1.630000e+02 1.315445e+04
1.640000e+02 1.316321e+04
1.650000e+02 1.317193e+04
1.660000e+02 1.318059e+04
1.670000e+02 1.318932e+04
1.680000e+02 1.319814e+04
1.690000e+02 1.320689e+04
1.700000e+02 1.321561e+04
1.710000e+02 1.322439e+04
1.720000e+02 1.323327e+04
1.730000e+02 1.324204e+04
1.740000e+02 1.325069e+04
1.750000e+02 1.325956e+04
1.760000e+02 1.326846e+04
1.770000e+02 1.327739e+04
1.780000e+02 1.328628e+04
1.790000e+02 1.329511e+04
1.800000e+02 1.330403e+04
1.810000e+02 1.331305e+04
1.820000e+02 1.332189e+04
1.830000e+02 1.333073e+04
1.840000e+02 1.333984e+04
1.850000e+02 1.334876e+04
1.860000e+02 1.335781e+04
1.870000e+02 1.336682e+04
1.880000e+02 1.337571e+04
1.890000e+02 1.338488e+04
1.900000e+02 1.339414e+04
1.910000e+02 1.340285e+04
1.920000e+02 1.341198e+04
1.930000e+02 1.342103e+04
1.940000e+02 1.343008e+04
1.950000e+02 1.343945e+04
1.960000e+02 1.344840e+04
1.970000e+02 1.345751e+04
1.980000e+02 1.346669e+04
1.990000e+02 1.616233e+03
