1.000000e+00 4.361300e+03
2.000000e+00 7.245398e+03
3.000000e+00 7.217465e+03
4.000000e+00 7.179654e+03
5.000000e+00 7.144492e+03
6.000000e+00 7.114022e+03
7.000000e+00 7.090569e+03
8.000000e+00 7.072292e+03
9.000000e+00 7.055950e+03
1.000000e+01 7.043671e+03
1.100000e+01 7.035755e+03
1.200000e+01 7.029467e+03
1.300000e+01 7.025591e+03
1.400000e+01 7.022941e+03
1.500000e+01 7.022172e+03
1.600000e+01 7.021846e+03
1.700000e+01 7.023233e+03
1.800000e+01 7.024551e+03
1.900000e+01 7.027388e+03
2.000000e+01 7.030078e+03
2.100000e+01 7.033553e+03
2.200000e+01 7.037607e+03
2.300000e+01 7.041523e+03
2.400000e+01 7.046324e+03
2.500000e+01 7.051115e+03
2.600000e+01 7.055944e+03
2.700000e+01 7.061417e+03
2.800000e+01 7.066884e+03
2.900000e+01 7.072332e+03
3.000000e+01 7.078138e+03
3.100000e+01 7.084127e+03
3.200000e+01 7.090053e+03
3.300000e+01 7.096095e+03
3.400000e+01 7.102385e+03
3.500000e+01 7.108689e+03
3.600000e+01 7.114998e+03
3.700000e+01 7.121399e+03
3.800000e+01 7.127955e+03
3.900000e+01 7.134538e+03
4.000000e+01 7.141127e+03
4.100000e+01 7.147755e+03
4.200000e+01 7.154453e+03
4.300000e+01 7.161216e+03
4.400000e+01 7.168012e+03
4.500000e+01 7.174838e+03
4.600000e+01 7.181693e+03
4.700000e+01 7.188574e+03
4.800000e+01 7.195497e+03
4.900000e+01 7.202467e+03
5.000000e+01 7.209469e+03
5.100000e+01 7.216487e+03
5.200000e+01 7.223505e+03
5.300000e+01 7.230528e+03
5.400000e+01 7.237610e+03
5.500000e+01 7.244741e+03
5.600000e+01 7.251903e+03
5.700000e+01 7.259077e+03
5.800000e+01 7.266243e+03
5.900000e+01 7.273406e+03
6.000000e+01 7.280626e+03
6.100000e+01 7.287895e+03
6.200000e+01 7.295195e+03
6.300000e+01 7.302508e+03
6.400000e+01 7.309816e+03
6.500000e+01 7.317102e+03
6.600000e+01 7.324405e+03
6.700000e+01 7.331772e+03
6.800000e+01 7.339185e+03
6.900000e+01 7.346630e+03
7.000000e+01 7.354089e+03
7.100000e+01 7.361545e+03
7.200000e+01 7.368982e+03
7.300000e+01 7.376412e+03
7.400000e+01 7.383897e+03
7.500000e+01 7.391435e+03
7.600000e+01 7.399010e+03
7.700000e+01 7.406609e+03
7.800000e+01 7.414217e+03
7.900000e+01 7.421821e+03
8.000000e+01 7.429406e+03
8.100000e+01 7.436981e+03
8.200000e+01 7.444606e+03
8.300000e+01 7.452285e+03
8.400000e+01 7.460005e+03
8.500000e+01 7.467755e+03
8.600000e+01 7.475522e+03
8.700000e+01 7.483295e+03
8.800000e+01 7.491060e+03
8.900000e+01 7.498807e+03
9.000000e+01 7.506528e+03
9.100000e+01 7.514230e+03
9.200000e+01 7.521917e+03
9.300000e+01 7.529591e+03
9.400000e+01 7.537255e+03
9.500000e+01 7.544910e+03
9.600000e+01 7.552560e+03
9.700000e+01 7.560205e+03
9.800000e+01 7.567850e+03
9.900000e+01 7.575496e+03
1.000000e+02 7.583170e+03
1.010000e+02 7.590916e+03
1.020000e+02 7.598728e+03
1.030000e+02 7.606591e+03
1.040000e+02 7.614490e+03
1.050000e+02 7.622410e+03
1.060000e+02 7.630335e+03
1.070000e+02 7.638251e+03
1.080000e+02 7.646143e+03
1.090000e+02 7.653998e+03
1.100000e+02 7.661892e+03
1.110000e+02 7.669920e+03
1.120000e+02 7.678067e+03
1.130000e+02 7.686302e+03
1.140000e+02 7.694597e+03
1.150000e+02 7.702921e+03
1.160000e+02 7.711245e+03
1.170000e+02 7.719540e+03
1.180000e+02 7.727781e+03
1.190000e+02 7.736019e+03
1.200000e+02 7.744321e+03
1.210000e+02 7.752676e+03
1.220000e+02 7.761067e+03
1.230000e+02 7.769480e+03
1.240000e+02 7.777899e+03
1.250000e+02 7.786308e+03
1.260000e+02 7.794693e+03
1.270000e+02 7.803091e+03
1.280000e+02 7.811546e+03
1.290000e+02 7.820047e+03
1.300000e+02 7.828575e+03
1.310000e+02 7.837115e+03
1.320000e+02 7.845651e+03
1.330000e+02 7.854166e+03
1.340000e+02 7.862677e+03
1.350000e+02 7.871243e+03
1.360000e+02 7.879855e+03
1.370000e+02 7.888497e+03
1.380000e+02 7.897152e+03
1.390000e+02 7.905804e+03
1.400000e+02 7.914441e+03
1.410000e+02 7.923107e+03
1.420000e+02 7.931817e+03
1.430000e+02 7.940556e+03
1.440000e+02 7.949308e+03
1.450000e+02 7.958055e+03
1.460000e+02 7.966790e+03
1.470000e+02 7.975566e+03
1.480000e+02 7.984386e+03
1.490000e+02 7.993231e+03
1.500000e+02 8.002077e+03
1.510000e+02 8.010905e+03
1.520000e+02 8.019757e+03
1.530000e+02 8.028660e+03
1.540000e+02 8.037587e+03
1.550000e+02 8.046511e+03
1.560000e+02 8.055412e+03
1.570000e+02 8.064356e+03
1.580000e+02 8.073345e+03
1.590000e+02 8.082351e+03
1.600000e+02 8.091342e+03
1.610000e+02 8.100347e+03
1.620000e+02 8.109396e+03
1.630000e+02 8.118463e+03
1.640000e+02 8.127524e+03
1.650000e+02 8.136609e+03
1.660000e+02 8.145726e+03
1.670000e+02 8.154848e+03
1.680000e+02 8.163975e+03
1.690000e+02 8.173141e+03
1.700000e+02 8.182312e+03
1.710000e+02 8.191473e+03
1.720000e+02 8.200693e+03
1.730000e+02 8.209920e+03
1.740000e+02 8.219141e+03
1.750000e+02 8.228415e+03
1.760000e+02 8.237669e+03
1.770000e+02 8.246954e+03
1.780000e+02 8.256262e+03
1.790000e+02 8.265567e+03
1.800000e+02 8.274912e+03
1.810000e+02 8.284281e+03
1.820000e+02 8.293636e+03
1.830000e+02 8.303007e+03
1.840000e+02 8.312422e+03
1.850000e+02 8.321842e+03
1.860000e+02 8.331264e+03
1.870000e+02 8.340700e+03
1.880000e+02 8.350170e+03
1.890000e+02 8.359664e+03
1.900000e+02 8.369383e+03
1.910000e+02 8.378592e+03
1.920000e+02 8.388153e+03
1.930000e+02 8.397687e+03
1.940000e+02 8.407271e+03
1.950000e+02 8.416983e+03
1.960000e+02 8.426411e+03
1.970000e+02 8.436037e+03
1.980000e+02 8.445681e+03
1.990000e+02 1.616245e+03
