1.000000e+00 1.303437e+04
2.000000e+00 1.067248e+04
3.000000e+00 1.037120e+04
4.000000e+00 1.003422e+04
5.000000e+00 9.736106e+03
6.000000e+00 9.433521e+03
7.000000e+00 9.145320e+03
8.000000e+00 8.867392e+03
9.000000e+00 8.595625e+03
1.000000e+01 8.332109e+03
1.100000e+01 8.076597e+03
1.200000e+01 7.825975e+03
1.300000e+01 7.580437e+03
1.400000e+01 7.339180e+03
1.500000e+01 7.101771e+03
1.600000e+01 6.867730e+03
1.700000e+01 6.636758e+03
1.800000e+01 6.408734e+03
1.900000e+01 6.182918e+03
2.000000e+01 5.959967e+03
2.100000e+01 5.738746e+03
2.200000e+01 5.519609e+03
2.300000e+01 5.302835e+03
2.400000e+01 5.086790e+03
2.500000e+01 4.873115e+03
2.600000e+01 4.661203e+03
2.700000e+01 4.449482e+03
2.800000e+01 4.240005e+03
2.900000e+01 4.032278e+03
3.000000e+01 3.824534e+03
3.100000e+01 3.618422e+03
3.200000e+01 3.415055e+03
3.300000e+01 3.212353e+03
3.400000e+01 3.009259e+03
3.500000e+01 2.811830e+03
3.600000e+01 2.618620e+03
3.700000e+01 2.425730e+03
3.800000e+01 2.231648e+03
3.900000e+01 2.052034e+03
4.000000e+01 1.884647e+03
4.100000e+01 1.720820e+03
4.200000e+01 1.552058e+03
4.300000e+01 1.394231e+03
4.400000e+01 1.265826e+03
4.500000e+01 1.154000e+03
4.600000e+01 1.045219e+03
4.700000e+01 9.266560e+02
4.800000e+01 8.195549e+02
4.900000e+01 7.427868e+02
5.000000e+01 6.845232e+02
5.100000e+01 6.325511e+02
5.200000e+01 5.746575e+02
5.300000e+01 5.090487e+02
5.400000e+01 4.612189e+02
5.500000e+01 4.290666e+02
5.600000e+01 4.058795e+02
5.700000e+01 3.849453e+02
5.800000e+01 3.595516e+02
5.900000e+01 3.286759e+02
6.000000e+01 3.055527e+02
6.100000e+01 2.898775e+02
6.200000e+01 2.789444e+02
6.300000e+01 2.700474e+02
6.400000e+01 2.604805e+02
6.500000e+01 2.476853e+02
6.600000e+01 2.345098e+02
6.700000e+01 2.249709e+02
6.800000e+01 2.182441e+02
6.900000e+01 2.133388e+02
7.000000e+01 2.092642e+02
7.100000e+01 2.050296e+02
7.200000e+01 1.996457e+02
7.300000e+01 1.933022e+02
7.400000e+01 1.882716e+02
7.500000e+01 1.845765e+02
7.600000e+01 1.818530e+02
7.700000e+01 1.797373e+02
7.800000e+01 1.778653e+02
7.900000e+01 1.758732e+02
8.000000e+01 1.733970e+02
8.100000e+01 1.704592e+02
8.200000e+01 1.680135e+02
8.300000e+01 1.661594e+02
8.400000e+01 1.647604e+02
8.500000e+01 1.636796e+02
8.600000e+01 1.627802e+02
8.700000e+01 1.619256e+02
8.800000e+01 1.609789e+02
8.900000e+01 1.598040e+02
9.000000e+01 1.584554e+02
9.100000e+01 1.573234e+02
9.200000e+01 1.564461e+02
9.300000e+01 1.557714e+02
9.400000e+01 1.552474e+02
9.500000e+01 1.548221e+02
9.600000e+01 1.544434e+02
9.700000e+01 1.540593e+02
9.800000e+01 1.536179e+02
9.900000e+01 1.530689e+02
1.000000e+02 1.524645e+02
1.010000e+02 1.519585e+02
1.020000e+02 1.515587e+02
1.030000e+02 1.512435e+02
1.040000e+02 1.509915e+02
1.050000e+02 1.507810e+02
1.060000e+02 1.505906e+02
1.070000e+02 1.503987e+02
1.080000e+02 1.501837e+02
1.090000e+02 1.499244e+02
1.100000e+02 1.496371e+02
1.110000e+02 1.493930e+02
1.120000e+02 1.491998e+02
1.130000e+02 1.490466e+02
1.140000e+02 1.489222e+02
1.150000e+02 1.488158e+02
1.160000e+02 1.487163e+02
1.170000e+02 1.486126e+02
1.180000e+02 1.484938e+02
1.190000e+02 1.483529e+02
1.200000e+02 1.482206e+02
1.210000e+02 1.481189e+02
1.220000e+02 1.480421e+02
1.230000e+02 1.479835e+02
1.240000e+02 1.479362e+02
1.250000e+02 1.478935e+02
1.260000e+02 1.478487e+02
1.270000e+02 1.477951e+02
1.280000e+02 1.477297e+02
1.290000e+02 1.476747e+02
1.300000e+02 1.476395e+02
1.310000e+02 1.476196e+02
1.320000e+02 1.476100e+02
1.330000e+02 1.476058e+02
1.340000e+02 1.476023e+02
1.350000e+02 1.475945e+02
1.360000e+02 1.475783e+02
1.370000e+02 1.475664e+02
1.380000e+02 1.475730e+02
1.390000e+02 1.475944e+02
1.400000e+02 1.476255e+02
1.410000e+02 1.476615e+02
1.420000e+02 1.476973e+02
1.430000e+02 1.477281e+02
1.440000e+02 1.477518e+02
1.450000e+02 1.477908e+02
1.460000e+02 1.478540e+02
1.470000e+02 1.479341e+02
1.480000e+02 1.480241e+02
1.490000e+02 1.481165e+02
1.500000e+02 1.482042e+02
1.510000e+02 1.482810e+02
1.520000e+02 1.483738e+02
1.530000e+02 1.485085e+02
1.540000e+02 1.486732e+02
1.550000e+02 1.488546e+02
1.560000e+02 1.490396e+02
1.570000e+02 1.492148e+02
1.580000e+02 1.493738e+02
1.590000e+02 1.495831e+02
1.600000e+02 1.498639e+02
1.610000e+02 1.501902e+02
1.620000e+02 1.505360e+02
1.630000e+02 1.508753e+02
1.640000e+02 1.511831e+02
1.650000e+02 1.515334e+02
1.660000e+02 1.520231e+02
1.670000e+02 1.526072e+02
1.680000e+02 1.532335e+02
1.690000e+02 1.538499e+02
1.700000e+02 1.544089e+02
1.710000e+02 1.550752e+02
1.720000e+02 1.559935e+02
1.730000e+02 1.570656e+02
1.740000e+02 1.581872e+02
1.750000e+02 1.592540e+02
1.760000e+02 1.602714e+02
1.770000e+02 1.617176e+02
1.780000e+02 1.635338e+02
1.790000e+02 1.655107e+02
1.800000e+02 1.674387e+02
1.810000e+02 1.692121e+02
1.820000e+02 1.716843e+02
1.830000e+02 1.748847e+02
1.840000e+02 1.783875e+02
1.850000e+02 1.817670e+02
1.860000e+02 1.850096e+02
1.870000e+02 1.898103e+02
1.880000e+02 1.957869e+02
1.890000e+02 2.020544e+02
1.900000e+02 2.077594e+02
1.910000e+02 2.149075e+02
1.920000e+02 2.251212e+02
1.930000e+02 2.365579e+02
1.940000e+02 2.473201e+02
1.950000e+02 2.593371e+02
1.960000e+02 2.778724e+02
1.970000e+02 2.992644e+02
1.980000e+02 3.193207e+02
1.990000e+02 3.430960e+02
2.000000e+02 3.799141e+02
2.010000e+02 4.210797e+02
2.020000e+02 4.583013e+02
2.030000e+02 5.138274e+02
2.040000e+02 5.896124e+02
2.050000e+02 6.657311e+02
2.060000e+02 7.468635e+02
2.070000e+02 8.702899e+02
2.080000e+02 1.005916e+03
2.090000e+02 1.135193e+03
2.100000e+02 1.310242e+03
2.110000e+02 1.504728e+03
2.120000e+02 1.690362e+03
2.130000e+02 1.906755e+03
2.140000e+02 2.134545e+03
2.150000e+02 2.356763e+03
2.160000e+02 2.592289e+03
2.170000e+02 2.828681e+03
2.180000e+02 3.064589e+03
2.190000e+02 3.302948e+03
2.200000e+02 3.540310e+03
2.210000e+02 3.777309e+03
2.220000e+02 4.014278e+03
2.230000e+02 4.250097e+03
2.240000e+02 4.485749e+03
2.250000e+02 4.720538e+03
2.260000e+02 4.955049e+03
2.270000e+02 5.188980e+03
2.280000e+02 5.422745e+03
2.290000e+02 5.656161e+03
2.300000e+02 5.889565e+03
2.310000e+02 6.122884e+03
2.320000e+02 6.356346e+03
2.330000e+02 6.589916e+03
2.340000e+02 6.823814e+03
2.350000e+02 7.058112e+03
2.360000e+02 7.292787e+03
2.370000e+02 7.527985e+03
2.380000e+02 7.763827e+03
2.390000e+02 8.000448e+03
2.400000e+02 8.239940e+03
2.410000e+02 8.472729e+03
2.420000e+02 8.712693e+03
2.430000e+02 8.953434e+03
2.440000e+02 9.195220e+03
2.450000e+02 9.441468e+03
2.460000e+02 9.681439e+03
2.470000e+02 9.927448e+03
2.480000e+02 1.017499e+04
2.490000e+02 2.587955e+03
