2 459.123152069
3 253.363412632
4 204.704887412
5 200.036261464
6 212.307077264
7 232.086925625
8 254.908661119
9 278.650151997
10 303.054230524
11 327.844450954
12 352.665389157
13 377.564347356
14 402.527776543
15 427.521896117
16 452.550699951
17 477.616541707
18 502.689134395
19 527.794946665
20 552.901928099
21 578.031757483
22 603.17579704
23 628.317180517
24 653.481419685
25 678.645059981
26 703.809218801
27 728.989509145
28 754.171275924
29 779.352481071
30 804.539858446
31 829.730536941
32 854.921140395
33 880.116183705
34 905.318715884
35 930.520269612
36 955.720087637
37 980.920485459
38 1006.12323239
39 1031.32592546
40 1056.52958778
41 1081.73659804
42 1106.9492782
43 1132.16188905
44 1157.36805361
45 1182.57194143
46 1207.77795324
47 1232.99028402
48 1258.20318751
49 1283.41128171
50 1308.61793357
51 1333.82662003
52 1359.04081802
53 1384.26079179
54 1409.47800773
55 1434.69169178
56 1459.90240887
57 1485.11072395
58 1510.31720195
59 1535.52329895
60 1560.73206699
61 1585.94310869
62 1611.15548859
63 1636.36827122
64 1661.58052112
65 1686.79135948
66 1712.00198002
67 1737.21394597
68 1762.42689351
69 1787.64039289
70 1812.85401432
71 1838.06732804
72 1863.27990499
73 1888.49193415
74 1913.70463757
75 1938.91792383
76 1964.13148049
77 1989.34499509
78 2014.55815519
79 2039.77064832
80 2064.98216161
81 2090.19084586
82 2115.39219425
83 2140.58866968
84 2165.78443796
85 2190.98366491
86 2216.19051634
87 2241.40915807
88 2266.6437559
89 2291.89823284
90 2317.10301843
91 2342.07354339
92 2366.8106406
93 2391.36056399
94 2415.76956744
95 2440.08390486
96 2464.34983016
97 2488.61359724
98 2512.92146
99 2537.3189716
100 2561.8121843
101 2586.35810405
102 2610.94077505
103 2635.55016195
104 2660.17622938
105 2684.80894198
106 2709.4382644
107 2734.05416128
108 2758.64659726
109 2783.2107425
110 2807.86166099
111 2832.74020818
112 2857.81708492
113 2883.04420624
114 2908.37348717
115 2933.75684274
116 2959.14618796
117 2984.49343788
118 3009.75429878
119 3034.96121099
120 3060.17218762
121 3085.38902319
122 3110.60985514
123 3135.83282092
124 3161.05605796
125 3186.27770371
126 3211.49594891
127 3236.71062131
128 3261.92344105
129 3287.13622082
130 3312.3507725
131 3337.56890796
132 3362.79243909
133 3388.02316008
134 3413.25659812
135 3438.48093876
136 3463.6975171
137 3488.90935482
138 3514.11947358
139 3539.33089503
140 3564.54639623
141 3589.76537119
142 3614.9858362
143 3640.20632976
144 3665.42539317
145 3690.6415677
146 3715.85482963
147 3741.07526146
148 3766.3019491
149 3791.52882767
150 3816.74983225
151 3841.95944723
152 3867.17147917
153 3892.39475542
154 3917.62062886
155 3942.8402574
156 3968.04641512
157 3993.25061552
158 4018.46090735
159 4043.68034009
160 4068.91171404
161 4094.14085505
162 4119.35949639
163 4144.57853818
164 4169.80726697
165 4195.01167382
166 4220.2037956
167 4245.43311621
168 4270.69696295
169 4295.89968607
170 4321.09127276
171 4346.32244085
172 4371.56417765
173 4396.77432645
174 4421.96188245
175 4447.19396998
176 4472.41327655
177 4497.61711098
178 4522.85436892
179 4548.08268057
180 4573.2903043
181 4598.52156814
182 4623.72463618
183 4648.93961407
184 4674.15869616
185 4699.38774981
186 4724.59399787
187 4749.80463359
188 4775.0316102
189 4800.26968525
190 4826.10230065
191 4850.50442471
192 4875.81103617
193 4900.99296285
194 4926.27281569
195 4951.84633133
196 4976.64377143
197 5001.9255987
198 5027.20599918
