1.000000e+00 2.176649e+04
2.000000e+00 3.112091e+04
3.000000e+00 3.091099e+04
4.000000e+00 3.065851e+04
5.000000e+00 3.043222e+04
6.000000e+00 3.022275e+04
7.000000e+00 3.004365e+04
8.000000e+00 2.988623e+04
9.000000e+00 2.973781e+04
1.000000e+01 2.960658e+04
1.100000e+01 2.949246e+04
1.200000e+01 2.938529e+04
1.300000e+01 2.928840e+04
1.400000e+01 2.919607e+04
1.500000e+01 2.911208e+04
1.600000e+01 2.902949e+04
1.700000e+01 2.895417e+04
1.800000e+01 2.887855e+04
1.900000e+01 2.880924e+04
2.000000e+01 2.873938e+04
2.100000e+01 2.867278e+04
2.200000e+01 2.860861e+04
2.300000e+01 2.854394e+04
2.400000e+01 2.848298e+04
2.500000e+01 2.842211e+04
2.600000e+01 2.836139e+04
2.700000e+01 2.830317e+04
2.800000e+01 2.824517e+04
2.900000e+01 2.818728e+04
3.000000e+01 2.813076e+04
3.100000e+01 2.807502e+04
3.200000e+01 2.801924e+04
3.300000e+01 2.796399e+04
3.400000e+01 2.790971e+04
3.500000e+01 2.785563e+04
3.600000e+01 2.780169e+04
3.700000e+01 2.774811e+04
3.800000e+01 2.769511e+04
3.900000e+01 2.764237e+04
4.000000e+01 2.758983e+04
4.100000e+01 2.753753e+04
4.200000e+01 2.748553e+04
4.300000e+01 2.743383e+04
4.400000e+01 2.738242e+04
4.500000e+01 2.733121e+04
4.600000e+01 2.728013e+04
4.700000e+01 2.722913e+04
4.800000e+01 2.717838e+04
4.900000e+01 2.712799e+04
5.000000e+01 2.707787e+04
5.100000e+01 2.702790e+04
5.200000e+01 2.697797e+04
5.300000e+01 2.692810e+04
5.400000e+01 2.687862e+04
5.500000e+01 2.682946e+04
5.600000e+01 2.678047e+04
5.700000e+01 2.673152e+04
5.800000e+01 2.668247e+04
5.900000e+01 2.663338e+04
6.000000e+01 2.658479e+04
6.100000e+01 2.653663e+04
6.200000e+01 2.648875e+04
6.300000e+01 2.644098e+04
6.400000e+01 2.639315e+04
6.500000e+01 2.634512e+04
6.600000e+01 2.629724e+04
6.700000e+01 2.624987e+04
6.800000e+01 2.620289e+04
6.900000e+01 2.615615e+04
7.000000e+01 2.610952e+04
7.100000e+01 2.606285e+04
7.200000e+01 2.601598e+04
7.300000e+01 2.596906e+04
7.400000e+01 2.592263e+04
7.500000e+01 2.587667e+04
7.600000e+01 2.583104e+04
7.700000e+01 2.578561e+04
7.800000e+01 2.574026e+04
7.900000e+01 2.569484e+04
8.000000e+01 2.564922e+04
8.100000e+01 2.560349e+04
8.200000e+01 2.555824e+04
8.300000e+01 2.551347e+04
8.400000e+01 2.546909e+04
8.500000e+01 2.542496e+04
8.600000e+01 2.538098e+04
8.700000e+01 2.533701e+04
8.800000e+01 2.529295e+04
8.900000e+01 2.524867e+04
9.000000e+01 2.520439e+04
9.100000e+01 2.516086e+04
9.200000e+01 2.511810e+04
9.300000e+01 2.507596e+04
9.400000e+01 2.503427e+04
9.500000e+01 2.499288e+04
9.600000e+01 2.495162e+04
9.700000e+01 2.491034e+04
9.800000e+01 2.486886e+04
9.900000e+01 2.482705e+04
1.000000e+02 2.478512e+04
1.010000e+02 2.474368e+04
1.020000e+02 2.470274e+04
1.030000e+02 2.466220e+04
1.040000e+02 2.462195e+04
1.050000e+02 2.458190e+04
1.060000e+02 2.454194e+04
1.070000e+02 2.450197e+04
1.080000e+02 2.446189e+04
1.090000e+02 2.442160e+04
1.100000e+02 2.438118e+04
1.110000e+02 2.434098e+04
1.120000e+02 2.430102e+04
1.130000e+02 2.426125e+04
1.140000e+02 2.422162e+04
1.150000e+02 2.418205e+04
1.160000e+02 2.414249e+04
1.170000e+02 2.410288e+04
1.180000e+02 2.406317e+04
1.190000e+02 2.402333e+04
1.200000e+02 2.398381e+04
1.210000e+02 2.394487e+04
1.220000e+02 2.390639e+04
1.230000e+02 2.386825e+04
1.240000e+02 2.383032e+04
1.250000e+02 2.379247e+04
1.260000e+02 2.375457e+04
1.270000e+02 2.371650e+04
1.280000e+02 2.367822e+04
1.290000e+02 2.364028e+04
1.300000e+02 2.360290e+04
1.310000e+02 2.356594e+04
1.320000e+02 2.352928e+04
1.330000e+02 2.349276e+04
1.340000e+02 2.345626e+04
1.350000e+02 2.341963e+04
1.360000e+02 2.338276e+04
1.370000e+02 2.334603e+04
1.380000e+02 2.330989e+04
1.390000e+02 2.327420e+04
1.400000e+02 2.323882e+04
1.410000e+02 2.320359e+04
1.420000e+02 2.316835e+04
1.430000e+02 2.313296e+04
1.440000e+02 2.309734e+04
1.450000e+02 2.306205e+04
1.460000e+02 2.302733e+04
1.470000e+02 2.299302e+04
1.480000e+02 2.295895e+04
1.490000e+02 2.292496e+04
1.500000e+02 2.289087e+04
1.510000e+02 2.285654e+04
1.520000e+02 2.282235e+04
1.530000e+02 2.278872e+04
1.540000e+02 2.275551e+04
1.550000e+02 2.272255e+04
1.560000e+02 2.268966e+04
1.570000e+02 2.265669e+04
1.580000e+02 2.262352e+04
1.590000e+02 2.259065e+04
1.600000e+02 2.255829e+04
1.610000e+02 2.252625e+04
1.620000e+02 2.249438e+04
1.630000e+02 2.246250e+04
1.640000e+02 2.243044e+04
1.650000e+02 2.239851e+04
1.660000e+02 2.236712e+04
1.670000e+02 2.233611e+04
1.680000e+02 2.230527e+04
1.690000e+02 2.227438e+04
1.700000e+02 2.224324e+04
1.710000e+02 2.221227e+04
1.720000e+02 2.218187e+04
1.730000e+02 2.215184e+04
1.740000e+02 2.212194e+04
1.750000e+02 2.209196e+04
1.760000e+02 2.206181e+04
1.770000e+02 2.203213e+04
1.780000e+02 2.200288e+04
1.790000e+02 2.197382e+04
1.800000e+02 2.194471e+04
1.810000e+02 2.191541e+04
1.820000e+02 2.188648e+04
1.830000e+02 2.185802e+04
1.840000e+02 2.182977e+04
1.850000e+02 2.180152e+04
1.860000e+02 2.177318e+04
1.870000e+02 2.174525e+04
1.880000e+02 2.171766e+04
1.890000e+02 2.169017e+04
1.900000e+02 2.166255e+04
1.910000e+02 2.163509e+04
1.920000e+02 2.160810e+04
1.930000e+02 2.158133e+04
1.940000e+02 2.155452e+04
1.950000e+02 2.152774e+04
1.960000e+02 2.150144e+04
1.970000e+02 2.147533e+04
1.980000e+02 2.144909e+04
1.990000e+02 2.142290e+04
2.000000e+02 2.139726e+04
2.010000e+02 2.137184e+04
2.020000e+02 2.134629e+04
2.030000e+02 2.132100e+04
2.040000e+02 2.129606e+04
2.050000e+02 2.127113e+04
2.060000e+02 2.124620e+04
2.070000e+02 2.122176e+04
2.080000e+02 2.119742e+04
2.090000e+02 2.117294e+04
2.100000e+02 2.114888e+04
2.110000e+02 2.112507e+04
2.120000e+02 2.110126e+04
2.130000e+02 2.107780e+04
2.140000e+02 2.105439e+04
2.150000e+02 2.103098e+04
2.160000e+02 2.100807e+04
2.170000e+02 2.098515e+04
2.180000e+02 2.096246e+04
2.190000e+02 2.093998e+04
2.200000e+02 2.091741e+04
2.210000e+02 2.089527e+04
2.220000e+02 2.087315e+04
2.230000e+02 2.085138e+04
2.240000e+02 2.082964e+04
2.250000e+02 2.080820e+04
2.260000e+02 2.078666e+04
2.270000e+02 2.076550e+04
2.280000e+02 2.074446e+04
2.290000e+02 2.072363e+04
2.300000e+02 2.070297e+04
2.310000e+02 2.068244e+04
2.320000e+02 2.066199e+04
2.330000e+02 2.064186e+04
2.340000e+02 2.062186e+04
2.350000e+02 2.060205e+04
2.360000e+02 2.058239e+04
2.370000e+02 2.056271e+04
2.380000e+02 2.054348e+04
2.390000e+02 2.052426e+04
2.400000e+02 2.050512e+04
2.410000e+02 2.048662e+04
2.420000e+02 2.046795e+04
2.430000e+02 2.044939e+04
2.440000e+02 2.043100e+04
2.450000e+02 2.041254e+04
2.460000e+02 2.039486e+04
2.470000e+02 2.037682e+04
2.480000e+02 2.035902e+04
2.490000e+02 1.620489e+03
