1.000000e+00 9.334402e+03
2.000000e+00 1.071520e+04
3.000000e+00 1.056768e+04
4.000000e+00 1.041797e+04
5.000000e+00 1.028432e+04
6.000000e+00 1.015417e+04
7.000000e+00 1.003561e+04
8.000000e+00 9.925431e+03
9.000000e+00 9.819110e+03
1.000000e+01 9.719502e+03
1.100000e+01 9.626835e+03
1.200000e+01 9.537478e+03
1.300000e+01 9.452244e+03
1.400000e+01 9.369849e+03
1.500000e+01 9.290661e+03
1.600000e+01 9.213351e+03
1.700000e+01 9.138775e+03
1.800000e+01 9.065603e+03
1.900000e+01 8.994664e+03
2.000000e+01 8.925115e+03
2.100000e+01 8.857026e+03
2.200000e+01 8.790569e+03
2.300000e+01 8.725402e+03
2.400000e+01 8.661259e+03
2.500000e+01 8.598737e+03
2.600000e+01 8.537410e+03
2.700000e+01 8.476583e+03
2.800000e+01 8.417513e+03
2.900000e+01 8.359791e+03
3.000000e+01 8.302255e+03
3.100000e+01 8.245949e+03
3.200000e+01 8.191600e+03
3.300000e+01 8.137887e+03
3.400000e+01 8.083929e+03
3.500000e+01 8.032103e+03
3.600000e+01 7.982031e+03
3.700000e+01 7.932347e+03
3.800000e+01 7.882159e+03
3.900000e+01 7.834186e+03
4.000000e+01 7.788251e+03
4.100000e+01 7.743018e+03
4.200000e+01 7.697171e+03
4.300000e+01 7.652107e+03
4.400000e+01 7.609849e+03
4.500000e+01 7.569184e+03
4.600000e+01 7.528826e+03
4.700000e+01 7.487558e+03
4.800000e+01 7.447449e+03
4.900000e+01 7.410302e+03
5.000000e+01 7.374942e+03
5.100000e+01 7.340152e+03
5.200000e+01 7.304717e+03
5.300000e+01 7.268796e+03
5.400000e+01 7.235933e+03
5.500000e+01 7.205640e+03
5.600000e+01 7.176777e+03
5.700000e+01 7.148204e+03
5.800000e+01 7.118781e+03
5.900000e+01 7.088837e+03
6.000000e+01 7.062093e+03
6.100000e+01 7.038177e+03
6.200000e+01 7.016025e+03
6.300000e+01 6.994571e+03
6.400000e+01 6.972751e+03
6.500000e+01 6.949592e+03
6.600000e+01 6.927445e+03
6.700000e+01 6.908876e+03
6.800000e+01 6.893010e+03
6.900000e+01 6.878858e+03
7.000000e+01 6.865429e+03
7.100000e+01 6.851732e+03
7.200000e+01 6.836779e+03
7.300000e+01 6.821431e+03
7.400000e+01 6.809560e+03
7.500000e+01 6.800939e+03
7.600000e+01 6.794652e+03
7.700000e+01 6.789787e+03
7.800000e+01 6.785428e+03
7.900000e+01 6.780662e+03
8.000000e+01 6.774576e+03
8.100000e+01 6.767751e+03
8.200000e+01 6.764220e+03
8.300000e+01 6.764182e+03
8.400000e+01 6.766809e+03
8.500000e+01 6.771270e+03
8.600000e+01 6.776738e+03
8.700000e+01 6.782383e+03
8.800000e+01 6.787376e+03
8.900000e+01 6.790894e+03
9.000000e+01 6.793814e+03
9.100000e+01 6.799888e+03
9.200000e+01 6.809304e+03
9.300000e+01 6.821359e+03
9.400000e+01 6.835349e+03
9.500000e+01 6.850570e+03
9.600000e+01 6.866316e+03
9.700000e+01 6.881884e+03
9.800000e+01 6.896570e+03
9.900000e+01 6.909707e+03
1.000000e+02 6.922785e+03
1.010000e+02 6.939286e+03
1.020000e+02 6.959174e+03
1.030000e+02 6.981715e+03
1.040000e+02 7.006172e+03
1.050000e+02 7.031812e+03
1.060000e+02 7.057898e+03
1.070000e+02 7.083696e+03
1.080000e+02 7.108470e+03
1.090000e+02 7.131615e+03
1.100000e+02 7.155508e+03
1.110000e+02 7.183423e+03
1.120000e+02 7.214871e+03
1.130000e+02 7.248948e+03
1.140000e+02 7.284749e+03
1.150000e+02 7.321369e+03
1.160000e+02 7.357905e+03
1.170000e+02 7.393450e+03
1.180000e+02 7.427269e+03
1.190000e+02 7.461999e+03
1.200000e+02 7.500517e+03
1.210000e+02 7.542105e+03
1.220000e+02 7.585818e+03
1.230000e+02 7.630706e+03
1.240000e+02 7.675822e+03
1.250000e+02 7.720220e+03
1.260000e+02 7.763057e+03
1.270000e+02 7.806643e+03
1.280000e+02 7.853773e+03
1.290000e+02 7.903657e+03
1.300000e+02 7.955294e+03
1.310000e+02 8.007686e+03
1.320000e+02 8.059831e+03
1.330000e+02 8.110735e+03
1.340000e+02 8.161395e+03
1.350000e+02 8.215242e+03
1.360000e+02 8.271739e+03
1.370000e+02 8.329835e+03
1.380000e+02 8.388478e+03
1.390000e+02 8.446618e+03
1.400000e+02 8.503509e+03
1.410000e+02 8.562149e+03
1.420000e+02 8.623684e+03
1.430000e+02 8.687008e+03
1.440000e+02 8.751001e+03
1.450000e+02 8.814548e+03
1.460000e+02 8.877037e+03
1.470000e+02 8.941679e+03
1.480000e+02 9.008820e+03
1.490000e+02 9.077256e+03
1.500000e+02 9.145786e+03
1.510000e+02 9.213297e+03
1.520000e+02 9.281886e+03
1.530000e+02 9.353052e+03
1.540000e+02 9.425532e+03
1.550000e+02 9.498031e+03
1.560000e+02 9.569614e+03
1.570000e+02 9.643049e+03
1.580000e+02 9.718521e+03
1.590000e+02 9.794661e+03
1.600000e+02 9.870139e+03
1.610000e+02 9.946509e+03
1.620000e+02 1.002506e+04
1.630000e+02 1.010429e+04
1.640000e+02 1.018280e+04
1.650000e+02 1.026257e+04
1.660000e+02 1.034417e+04
1.670000e+02 1.042605e+04
1.680000e+02 1.050787e+04
1.690000e+02 1.059147e+04
1.700000e+02 1.067565e+04
1.710000e+02 1.075974e+04
1.720000e+02 1.084570e+04
1.730000e+02 1.093205e+04
1.740000e+02 1.101836e+04
1.750000e+02 1.110647e+04
1.760000e+02 1.119462e+04
1.770000e+02 1.128388e+04
1.780000e+02 1.137384e+04
1.790000e+02 1.146439e+04
1.800000e+02 1.155577e+04
1.810000e+02 1.164767e+04
1.820000e+02 1.174040e+04
1.830000e+02 1.183384e+04
1.840000e+02 1.192790e+04
1.850000e+02 1.202293e+04
1.860000e+02 1.211841e+04
1.870000e+02 1.221455e+04
1.880000e+02 1.231166e+04
1.890000e+02 1.240939e+04
1.900000e+02 1.251012e+04
1.910000e+02 1.260590e+04
1.920000e+02 1.270595e+04
1.930000e+02 1.280634e+04
1.940000e+02 1.290753e+04
1.950000e+02 1.301090e+04
1.960000e+02 1.311151e+04
1.970000e+02 1.321490e+04
1.980000e+02 1.331891e+04
1.990000e+02 2.537113e+03
