2 111196.332198
3 109143.929383
4 106071.024785
5 103378.149427
6 100522.064782
7 97737.9768429
8 94986.102424
9 92247.9203227
10 89533.3366491
11 86833.9168528
12 84165.9846126
13 81503.1135908
14 78883.5798012
15 76267.8859225
16 73675.1753956
17 71126.1104548
18 68575.427239
19 66039.168175
20 63558.5276991
21 61095.9761319
22 58616.6637149
23 56175.6887481
24 53793.3332038
25 51434.4329551
26 49063.6397997
27 46687.8517984
28 44389.4535233
29 42149.4169828
30 39933.5245251
31 37707.5584987
32 35451.1796518
33 33269.3081032
34 31201.2821618
35 29205.7932317
36 27240.6668468
37 25263.7285407
38 23233.701877
39 21222.5087026
40 19447.1296423
41 17893.5763364
42 16494.5806267
43 15182.8743551
44 13891.1893634
45 12552.2574936
46 11105.3677421
47 9676.35976678
48 8525.7844566
49 7653.35877037
50 6996.51603646
51 6492.68958321
52 6079.312739
53 5693.81883217
54 5273.64119107
55 4756.22391231
56 4129.3306921
57 3545.74710089
58 3112.24293836
59 2813.84043006
60 2625.41479704
61 2521.84126038
62 2477.99504114
63 2468.7513604
64 2468.98543922
65 2453.57249867
66 2397.38775983
67 2280.42504434
68 2129.30944424
69 1992.89548992
70 1888.24273387
71 1811.39227951
72 1758.01866505
73 1723.79642869
74 1704.40010865
75 1695.50424313
76 1692.78337034
77 1691.91202849
78 1688.56475578
79 1678.41609042
80 1657.14160717
81 1623.25940461
82 1584.32721546
83 1549.37495777
84 1522.0869435
85 1501.7335742
86 1487.4530161
87 1478.38343541
88 1473.66299835
89 1472.42987114
90 1473.82221999
91 1476.97821113
92 1481.03601077
93 1485.13378513
94 1488.40970042
95 1490.00192288
96 1489.04861871
97 1484.81211372
98 1478.3783836
99 1472.219992
100 1468.74840929
101 1468.85694565
102 1472.22515149
103 1478.49863639
104 1487.32300992
105 1498.34388167
106 1511.2068612
107 1525.55755809
108 1541.04158191
109 1557.30454223
110 1573.99204863
111 1590.74971069
112 1607.22313797
113 1623.05794005
114 1637.89972651
115 1651.39410692
116 1663.18669085
117 1673.10796332
118 1682.64675157
119 1694.16708464
120 1710.04037908
121 1731.96532743
122 1759.64171425
123 1792.39975683
124 1829.56967243
125 1870.48167832
126 1914.46599176
127 1960.85283003
128 2008.9724104
129 2058.15495014
130 2107.73066651
131 2157.02977678
132 2205.38249823
133 2252.11904812
134 2296.56964372
135 2338.0645023
136 2375.93384113
137 2409.64081037
138 2442.36710833
139 2481.42217047
140 2534.33048263
141 2607.52660742
142 2700.86038899
143 2811.72131152
144 2937.49460838
145 3075.56551295
146 3223.3192586
147 3378.14107872
148 3537.41620667
149 3698.52987584
150 3858.86731959
151 4015.81377131
152 4166.75446436
153 4309.07463214
154 4440.159508
155 4560.61565272
156 4687.8477428
157 4844.71824539
158 5050.48491902
159 5304.71323529
160 5600.28290236
161 5930.06816641
162 6286.94327359
163 6663.78247008
164 7053.46000203
165 7448.8501156
166 7842.82705697
167 8228.2650723
168 8598.03840774
169 8945.08090562
170 9274.96079259
171 9621.43527548
172 10019.6816605
173 10477.4795254
174 10985.1360221
175 11532.6761041
176 12110.1247253
177 12707.5068391
178 13314.8473995
179 13922.1713599
180 14519.5036741
181 15096.8692958
182 15649.1941194
183 16201.0128352
184 16784.9296652
185 17406.983424
186 18059.2975555
187 18733.8735455
188 19422.7128797
189 20117.8170439
190 20811.1875241
191 21494.8258059
192 22161.7189623
193 22825.4344841
194 23516.1206487
195 24238.9181814
196 24985.4769668
197 25747.3286522
198 26516.0048852
199 27283.037313
200 28039.9575831
201 28783.6305756
202 29544.1428531
203 30343.1589515
204 31171.3129772
205 32016.817492
206 32867.8850578
207 33712.7282363
208 34541.8617385
209 35382.8332264
210 36265.9833402
211 37179.2210315
212 38106.6838249
213 39032.5092453
214 39942.5889294
215 40865.2177692
216 41831.4712596
217 42823.7988531
218 43821.7190011
219 44805.7714525
220 45801.1495827
221 46839.8792674
222 47898.8519316
223 48952.2902617
224 50004.855964
225 51099.921039
226 52212.8357347
227 53315.6264534
228 54445.6654717
229 55603.744498
230 56754.0334608
231 57933.3418717
232 59131.2469909
233 60332.0985573
234 61563.5056555
235 62796.9776048
236 64055.8875631
237 65326.2980339
238 66613.981595
239 67919.5700039
240 69283.6696699
241 70580.1681018
242 71928.9204942
243 73291.4924842
244 74670.301534
245 76083.6464738
246 77469.803748
247 78900.4666614
248 80347.2934725
