1.000000e+00 4.582040e+04
2.000000e+00 5.424671e+04
3.000000e+00 5.291343e+04
4.000000e+00 5.164248e+04
5.000000e+00 5.055088e+04
6.000000e+00 4.947533e+04
7.000000e+00 4.847570e+04
8.000000e+00 4.752881e+04
9.000000e+00 4.661635e+04
1.000000e+01 4.574489e+04
1.100000e+01 4.490914e+04
1.200000e+01 4.409700e+04
1.300000e+01 4.330962e+04
1.400000e+01 4.254032e+04
1.500000e+01 4.179016e+04
1.600000e+01 4.105425e+04
1.700000e+01 4.033309e+04
1.800000e+01 3.962518e+04
1.900000e+01 3.892729e+04
2.000000e+01 3.824354e+04
2.100000e+01 3.756739e+04
2.200000e+01 3.690189e+04
2.300000e+01 3.624898e+04
2.400000e+01 3.559849e+04
2.500000e+01 3.496234e+04
2.600000e+01 3.433641e+04
2.700000e+01 3.371004e+04
2.800000e+01 3.309862e+04
2.900000e+01 3.249875e+04
3.000000e+01 3.189768e+04
3.100000e+01 3.130532e+04
3.200000e+01 3.072971e+04
3.300000e+01 3.015854e+04
3.400000e+01 2.958340e+04
3.500000e+01 2.902517e+04
3.600000e+01 2.848097e+04
3.700000e+01 2.793925e+04
3.800000e+01 2.739234e+04
3.900000e+01 2.686245e+04
4.000000e+01 2.634841e+04
4.100000e+01 2.583958e+04
4.200000e+01 2.532550e+04
4.300000e+01 2.481679e+04
4.400000e+01 2.432922e+04
4.500000e+01 2.385361e+04
4.600000e+01 2.338018e+04
4.700000e+01 2.289970e+04
4.800000e+01 2.242752e+04
4.900000e+01 2.197715e+04
5.000000e+01 2.153990e+04
5.100000e+01 2.110678e+04
5.200000e+01 2.066882e+04
5.300000e+01 2.022712e+04
5.400000e+01 1.980767e+04
5.500000e+01 1.940694e+04
5.600000e+01 1.901661e+04
5.700000e+01 1.862836e+04
5.800000e+01 1.823388e+04
5.900000e+01 1.783554e+04
6.000000e+01 1.746048e+04
6.100000e+01 1.710599e+04
6.200000e+01 1.676431e+04
6.300000e+01 1.642769e+04
6.400000e+01 1.608835e+04
6.500000e+01 1.573921e+04
6.600000e+01 1.539753e+04
6.700000e+01 1.508205e+04
6.800000e+01 1.478639e+04
6.900000e+01 1.450328e+04
7.000000e+01 1.422546e+04
7.100000e+01 1.394566e+04
7.200000e+01 1.365665e+04
7.300000e+01 1.336476e+04
7.400000e+01 1.309849e+04
7.500000e+01 1.285613e+04
7.600000e+01 1.263097e+04
7.700000e+01 1.241628e+04
7.800000e+01 1.220533e+04
7.900000e+01 1.199139e+04
8.000000e+01 1.176774e+04
8.100000e+01 1.153859e+04
8.200000e+01 1.133338e+04
8.300000e+01 1.115359e+04
8.400000e+01 1.099319e+04
8.500000e+01 1.084614e+04
8.600000e+01 1.070640e+04
8.700000e+01 1.056794e+04
8.800000e+01 1.042473e+04
8.900000e+01 1.027078e+04
9.000000e+01 1.011253e+04
9.100000e+01 9.977460e+03
9.200000e+01 9.866968e+03
9.300000e+01 9.775924e+03
9.400000e+01 9.699190e+03
9.500000e+01 9.631632e+03
9.600000e+01 9.568115e+03
9.700000e+01 9.503502e+03
9.800000e+01 9.432658e+03
9.900000e+01 9.350702e+03
1.000000e+02 9.267057e+03
1.010000e+02 9.204534e+03
1.020000e+02 9.163128e+03
1.030000e+02 9.138286e+03
1.040000e+02 9.125451e+03
1.050000e+02 9.120067e+03
1.060000e+02 9.117581e+03
1.070000e+02 9.113435e+03
1.080000e+02 9.103075e+03
1.090000e+02 9.082696e+03
1.100000e+02 9.065768e+03
1.110000e+02 9.071106e+03
1.120000e+02 9.096060e+03
1.130000e+02 9.135600e+03
1.140000e+02 9.184698e+03
1.150000e+02 9.238327e+03
1.160000e+02 9.291456e+03
1.170000e+02 9.339059e+03
1.180000e+02 9.377054e+03
1.190000e+02 9.420384e+03
1.200000e+02 9.485278e+03
1.210000e+02 9.567652e+03
1.220000e+02 9.662120e+03
1.230000e+02 9.763298e+03
1.240000e+02 9.865802e+03
1.250000e+02 9.964247e+03
1.260000e+02 1.005384e+04
1.270000e+02 1.014746e+04
1.280000e+02 1.026075e+04
1.290000e+02 1.038934e+04
1.300000e+02 1.052766e+04
1.310000e+02 1.067018e+04
1.320000e+02 1.081135e+04
1.330000e+02 1.094564e+04
1.340000e+02 1.107841e+04
1.350000e+02 1.122842e+04
1.360000e+02 1.139275e+04
1.370000e+02 1.156572e+04
1.380000e+02 1.174163e+04
1.390000e+02 1.191480e+04
1.400000e+02 1.208115e+04
1.410000e+02 1.225665e+04
1.420000e+02 1.244745e+04
1.430000e+02 1.264770e+04
1.440000e+02 1.285152e+04
1.450000e+02 1.305301e+04
1.460000e+02 1.324894e+04
1.470000e+02 1.345600e+04
1.480000e+02 1.367602e+04
1.490000e+02 1.390281e+04
1.500000e+02 1.413014e+04
1.510000e+02 1.435228e+04
1.520000e+02 1.458005e+04
1.530000e+02 1.482119e+04
1.540000e+02 1.506918e+04
1.550000e+02 1.531735e+04
1.560000e+02 1.556091e+04
1.570000e+02 1.581436e+04
1.580000e+02 1.607857e+04
1.590000e+02 1.634625e+04
1.600000e+02 1.661033e+04
1.610000e+02 1.687920e+04
1.620000e+02 1.715988e+04
1.630000e+02 1.744446e+04
1.640000e+02 1.772555e+04
1.650000e+02 1.801405e+04
1.660000e+02 1.831236e+04
1.670000e+02 1.861151e+04
1.680000e+02 1.891003e+04
1.690000e+02 1.922027e+04
1.700000e+02 1.953397e+04
1.710000e+02 1.984611e+04
1.720000e+02 2.016926e+04
1.730000e+02 2.049549e+04
1.740000e+02 2.082225e+04
1.750000e+02 2.115930e+04
1.760000e+02 2.149594e+04
1.770000e+02 2.184021e+04
1.780000e+02 2.218854e+04
1.790000e+02 2.254020e+04
1.800000e+02 2.289844e+04
1.810000e+02 2.325941e+04
1.820000e+02 2.362629e+04
1.830000e+02 2.399787e+04
1.840000e+02 2.437302e+04
1.850000e+02 2.475502e+04
1.860000e+02 2.514049e+04
1.870000e+02 2.553059e+04
1.880000e+02 2.592602e+04
1.890000e+02 2.632677e+04
1.900000e+02 2.674223e+04
1.910000e+02 2.713935e+04
1.920000e+02 2.755568e+04
1.930000e+02 2.797652e+04
1.940000e+02 2.840207e+04
1.950000e+02 2.883878e+04
1.960000e+02 2.926738e+04
1.970000e+02 2.970961e+04
1.980000e+02 3.015746e+04
1.990000e+02 2.620841e+03
