1.000000e+00 4.196324e+04
2.000000e+00 4.975390e+04
3.000000e+00 4.848784e+04
4.000000e+00 4.728061e+04
5.000000e+00 4.624143e+04
6.000000e+00 4.521434e+04
7.000000e+00 4.425695e+04
8.000000e+00 4.334796e+04
9.000000e+00 4.247054e+04
1.000000e+01 4.163088e+04
1.100000e+01 4.082438e+04
1.200000e+01 4.003987e+04
1.300000e+01 3.927826e+04
1.400000e+01 3.853382e+04
1.500000e+01 3.780708e+04
1.600000e+01 3.709403e+04
1.700000e+01 3.639464e+04
1.800000e+01 3.570810e+04
1.900000e+01 3.503081e+04
2.000000e+01 3.436724e+04
2.100000e+01 3.371082e+04
2.200000e+01 3.306457e+04
2.300000e+01 3.243056e+04
2.400000e+01 3.179870e+04
2.500000e+01 3.118076e+04
2.600000e+01 3.057276e+04
2.700000e+01 2.996419e+04
2.800000e+01 2.937019e+04
2.900000e+01 2.878743e+04
3.000000e+01 2.820343e+04
3.100000e+01 2.762794e+04
3.200000e+01 2.706880e+04
3.300000e+01 2.651397e+04
3.400000e+01 2.595523e+04
3.500000e+01 2.541308e+04
3.600000e+01 2.488467e+04
3.700000e+01 2.435868e+04
3.800000e+01 2.382758e+04
3.900000e+01 2.331326e+04
4.000000e+01 2.281454e+04
4.100000e+01 2.232095e+04
4.200000e+01 2.182215e+04
4.300000e+01 2.132872e+04
4.400000e+01 2.085626e+04
4.500000e+01 2.039563e+04
4.600000e+01 1.993717e+04
4.700000e+01 1.947169e+04
4.800000e+01 1.901456e+04
4.900000e+01 1.857926e+04
5.000000e+01 1.815708e+04
5.100000e+01 1.773903e+04
5.200000e+01 1.731611e+04
5.300000e+01 1.688949e+04
5.400000e+01 1.648544e+04
5.500000e+01 1.610036e+04
5.600000e+01 1.572581e+04
5.700000e+01 1.535335e+04
5.800000e+01 1.497453e+04
5.900000e+01 1.459189e+04
6.000000e+01 1.423323e+04
6.100000e+01 1.389573e+04
6.200000e+01 1.357142e+04
6.300000e+01 1.325228e+04
6.400000e+01 1.293033e+04
6.500000e+01 1.259828e+04
6.600000e+01 1.227410e+04
6.700000e+01 1.197729e+04
6.800000e+01 1.170117e+04
6.900000e+01 1.143815e+04
7.000000e+01 1.118065e+04
7.100000e+01 1.092109e+04
7.200000e+01 1.065190e+04
7.300000e+01 1.037973e+04
7.400000e+01 1.013440e+04
7.500000e+01 9.914129e+03
7.600000e+01 9.711885e+03
7.700000e+01 9.520626e+03
7.800000e+01 9.333313e+03
7.900000e+01 9.142904e+03
8.000000e+01 8.942364e+03
8.100000e+01 8.735958e+03
8.200000e+01 8.554075e+03
8.300000e+01 8.398279e+03
8.400000e+01 8.262392e+03
8.500000e+01 8.140238e+03
8.600000e+01 8.025640e+03
8.700000e+01 7.912420e+03
8.800000e+01 7.794403e+03
8.900000e+01 7.665451e+03
9.000000e+01 7.531798e+03
9.100000e+01 7.420628e+03
9.200000e+01 7.333407e+03
9.300000e+01 7.265136e+03
9.400000e+01 7.210819e+03
9.500000e+01 7.165456e+03
9.600000e+01 7.124051e+03
9.700000e+01 7.081605e+03
9.800000e+01 7.033120e+03
9.900000e+01 6.973842e+03
1.000000e+02 6.912759e+03
1.010000e+02 6.871739e+03
1.020000e+02 6.850807e+03
1.030000e+02 6.845627e+03
1.040000e+02 6.851861e+03
1.050000e+02 6.865174e+03
1.060000e+02 6.881229e+03
1.070000e+02 6.895691e+03
1.080000e+02 6.904223e+03
1.090000e+02 6.903208e+03
1.100000e+02 6.905607e+03
1.110000e+02 6.929487e+03
1.120000e+02 6.972281e+03
1.130000e+02 7.029135e+03
1.140000e+02 7.095196e+03
1.150000e+02 7.165611e+03
1.160000e+02 7.235527e+03
1.170000e+02 7.300090e+03
1.180000e+02 7.355372e+03
1.190000e+02 7.415983e+03
1.200000e+02 7.497752e+03
1.210000e+02 7.596667e+03
1.220000e+02 7.707445e+03
1.230000e+02 7.824804e+03
1.240000e+02 7.943460e+03
1.250000e+02 8.058132e+03
1.260000e+02 8.164121e+03
1.270000e+02 8.274075e+03
1.280000e+02 8.403366e+03
1.290000e+02 8.547693e+03
1.300000e+02 8.701606e+03
1.310000e+02 8.859655e+03
1.320000e+02 9.016391e+03
1.330000e+02 9.166393e+03
1.340000e+02 9.314803e+03
1.350000e+02 9.479781e+03
1.360000e+02 9.658561e+03
1.370000e+02 9.845667e+03
1.380000e+02 1.003562e+04
1.390000e+02 1.022296e+04
1.400000e+02 1.040374e+04
1.410000e+02 1.059302e+04
1.420000e+02 1.079663e+04
1.430000e+02 1.100912e+04
1.440000e+02 1.122496e+04
1.450000e+02 1.143864e+04
1.460000e+02 1.164709e+04
1.470000e+02 1.186574e+04
1.480000e+02 1.209632e+04
1.490000e+02 1.233312e+04
1.500000e+02 1.257042e+04
1.510000e+02 1.280296e+04
1.520000e+02 1.304060e+04
1.530000e+02 1.329043e+04
1.540000e+02 1.354651e+04
1.550000e+02 1.380275e+04
1.560000e+02 1.405479e+04
1.570000e+02 1.431583e+04
1.580000e+02 1.458669e+04
1.590000e+02 1.486070e+04
1.600000e+02 1.513143e+04
1.610000e+02 1.540655e+04
1.620000e+02 1.569247e+04
1.630000e+02 1.598196e+04
1.640000e+02 1.626825e+04
1.650000e+02 1.656136e+04
1.660000e+02 1.686350e+04
1.670000e+02 1.716640e+04
1.680000e+02 1.746875e+04
1.690000e+02 1.778193e+04
1.700000e+02 1.809832e+04
1.710000e+02 1.841326e+04
1.720000e+02 1.873846e+04
1.730000e+02 1.906651e+04
1.740000e+02 1.939508e+04
1.750000e+02 1.973326e+04
1.760000e+02 2.007106e+04
1.770000e+02 2.041603e+04
1.780000e+02 2.076480e+04
1.790000e+02 2.111674e+04
1.800000e+02 2.147486e+04
1.810000e+02 2.183557e+04
1.820000e+02 2.220187e+04
1.830000e+02 2.257263e+04
1.840000e+02 2.294677e+04
1.850000e+02 2.332742e+04
1.860000e+02 2.371138e+04
1.870000e+02 2.409974e+04
1.880000e+02 2.449320e+04
1.890000e+02 2.489174e+04
1.900000e+02 2.530471e+04
1.910000e+02 2.569927e+04
1.920000e+02 2.611275e+04
1.930000e+02 2.653053e+04
1.940000e+02 2.695284e+04
1.950000e+02 2.738605e+04
1.960000e+02 2.781108e+04
1.970000e+02 2.824948e+04
1.980000e+02 2.869333e+04
1.990000e+02 2.620833e+03
