1.000000e+00 4.395309e+04
2.000000e+00 5.319192e+04
3.000000e+00 5.268722e+04
4.000000e+00 5.210951e+04
5.000000e+00 5.160663e+04
6.000000e+00 5.113327e+04
7.000000e+00 5.071776e+04
8.000000e+00 5.034324e+04
9.000000e+00 4.999026e+04
1.000000e+01 4.966957e+04
1.100000e+01 4.937830e+04
1.200000e+01 4.910159e+04
1.300000e+01 4.884393e+04
1.400000e+01 4.859555e+04
1.500000e+01 4.836268e+04
1.600000e+01 4.813401e+04
1.700000e+01 4.791823e+04
1.800000e+01 4.770444e+04
1.900000e+01 4.750112e+04
2.000000e+01 4.729962e+04
2.100000e+01 4.710389e+04
2.200000e+01 4.691345e+04
2.300000e+01 4.672457e+04
2.400000e+01 4.654089e+04
2.500000e+01 4.636004e+04
2.600000e+01 4.618138e+04
2.700000e+01 4.600593e+04
2.800000e+01 4.583336e+04
2.900000e+01 4.566294e+04
3.000000e+01 4.549413e+04
3.100000e+01 4.532793e+04
3.200000e+01 4.516461e+04
3.300000e+01 4.500272e+04
3.400000e+01 4.484134e+04
3.500000e+01 4.468332e+04
3.600000e+01 4.452800e+04
3.700000e+01 4.437353e+04
3.800000e+01 4.421870e+04
3.900000e+01 4.406737e+04
4.000000e+01 4.391919e+04
4.100000e+01 4.377217e+04
4.200000e+01 4.362432e+04
4.300000e+01 4.347775e+04
4.400000e+01 4.333547e+04
4.500000e+01 4.319566e+04
4.600000e+01 4.305637e+04
4.700000e+01 4.291577e+04
4.800000e+01 4.277685e+04
4.900000e+01 4.264229e+04
5.000000e+01 4.251036e+04
5.100000e+01 4.237929e+04
5.200000e+01 4.224732e+04
5.300000e+01 4.211463e+04
5.400000e+01 4.198623e+04
5.500000e+01 4.186146e+04
5.600000e+01 4.173873e+04
5.700000e+01 4.161643e+04
5.800000e+01 4.149299e+04
5.900000e+01 4.136883e+04
6.000000e+01 4.124900e+04
6.100000e+01 4.113302e+04
6.200000e+01 4.101943e+04
6.300000e+01 4.090677e+04
6.400000e+01 4.079360e+04
6.500000e+01 4.067859e+04
6.600000e+01 4.056489e+04
6.700000e+01 4.045596e+04
6.800000e+01 4.035064e+04
6.900000e+01 4.024761e+04
7.000000e+01 4.014555e+04
7.100000e+01 4.004313e+04
7.200000e+01 3.993905e+04
7.300000e+01 3.983441e+04
7.400000e+01 3.973427e+04
7.500000e+01 3.963833e+04
7.600000e+01 3.954541e+04
7.700000e+01 3.945434e+04
7.800000e+01 3.936391e+04
7.900000e+01 3.927295e+04
8.000000e+01 3.918028e+04
8.100000e+01 3.908663e+04
8.200000e+01 3.899721e+04
8.300000e+01 3.891228e+04
8.400000e+01 3.883075e+04
8.500000e+01 3.875157e+04
8.600000e+01 3.867366e+04
8.700000e+01 3.859596e+04
8.800000e+01 3.851740e+04
8.900000e+01 3.843691e+04
9.000000e+01 3.835581e+04
9.100000e+01 3.827941e+04
9.200000e+01 3.820794e+04
9.300000e+01 3.814038e+04
9.400000e+01 3.807569e+04
9.500000e+01 3.801283e+04
9.600000e+01 3.795079e+04
9.700000e+01 3.788851e+04
9.800000e+01 3.782498e+04
9.900000e+01 3.775921e+04
1.000000e+02 3.769316e+04
1.010000e+02 3.763151e+04
1.020000e+02 3.757429e+04
1.030000e+02 3.752057e+04
1.040000e+02 3.746944e+04
1.050000e+02 3.741997e+04
1.060000e+02 3.737125e+04
1.070000e+02 3.732235e+04
1.080000e+02 3.727236e+04
1.090000e+02 3.722038e+04
1.100000e+02 3.716781e+04
1.110000e+02 3.711937e+04
1.120000e+02 3.707534e+04
1.130000e+02 3.703474e+04
1.140000e+02 3.699660e+04
1.150000e+02 3.695993e+04
1.160000e+02 3.692375e+04
1.170000e+02 3.688706e+04
1.180000e+02 3.684890e+04
1.190000e+02 3.680880e+04
1.200000e+02 3.677106e+04
1.210000e+02 3.673855e+04
1.220000e+02 3.671023e+04
1.230000e+02 3.668495e+04
1.240000e+02 3.666155e+04
1.250000e+02 3.663887e+04
1.260000e+02 3.661574e+04
1.270000e+02 3.659100e+04
1.280000e+02 3.656432e+04
1.290000e+02 3.654068e+04
1.300000e+02 3.652209e+04
1.310000e+02 3.650735e+04
1.320000e+02 3.649522e+04
1.330000e+02 3.648446e+04
1.340000e+02 3.647384e+04
1.350000e+02 3.646211e+04
1.360000e+02 3.644822e+04
1.370000e+02 3.643561e+04
1.380000e+02 3.642809e+04
1.390000e+02 3.642460e+04
1.400000e+02 3.642382e+04
1.410000e+02 3.642443e+04
1.420000e+02 3.642510e+04
1.430000e+02 3.642451e+04
1.440000e+02 3.642195e+04
1.450000e+02 3.642224e+04
1.460000e+02 3.642737e+04
1.470000e+02 3.643597e+04
1.480000e+02 3.644663e+04
1.490000e+02 3.645794e+04
1.500000e+02 3.646849e+04
1.510000e+02 3.647701e+04
1.520000e+02 3.648690e+04
1.530000e+02 3.650172e+04
1.540000e+02 3.652015e+04
1.550000e+02 3.654070e+04
1.560000e+02 3.656185e+04
1.570000e+02 3.658209e+04
1.580000e+02 3.660044e+04
1.590000e+02 3.662161e+04
1.600000e+02 3.664737e+04
1.610000e+02 3.667613e+04
1.620000e+02 3.670630e+04
1.630000e+02 3.673627e+04
1.640000e+02 3.676448e+04
1.650000e+02 3.679349e+04
1.660000e+02 3.682724e+04
1.670000e+02 3.686429e+04
1.680000e+02 3.690293e+04
1.690000e+02 3.694147e+04
1.700000e+02 3.697828e+04
1.710000e+02 3.701646e+04
1.720000e+02 3.705920e+04
1.730000e+02 3.710484e+04
1.740000e+02 3.715158e+04
1.750000e+02 3.719763e+04
1.760000e+02 3.724245e+04
1.770000e+02 3.729116e+04
1.780000e+02 3.734345e+04
1.790000e+02 3.739743e+04
1.800000e+02 3.745119e+04
1.810000e+02 3.750346e+04
1.820000e+02 3.755900e+04
1.830000e+02 3.761830e+04
1.840000e+02 3.767929e+04
1.850000e+02 3.773987e+04
1.860000e+02 3.779930e+04
1.870000e+02 3.786269e+04
1.880000e+02 3.792930e+04
1.890000e+02 3.799687e+04
1.900000e+02 3.806320e+04
1.910000e+02 3.813085e+04
1.920000e+02 3.820261e+04
1.930000e+02 3.827614e+04
1.940000e+02 3.834898e+04
1.950000e+02 3.842183e+04
1.960000e+02 3.849893e+04
1.970000e+02 3.857808e+04
1.980000e+02 3.865670e+04
1.990000e+02 3.873571e+04
2.000000e+02 3.881864e+04
2.010000e+02 3.890309e+04
2.020000e+02 3.898661e+04
2.030000e+02 3.907246e+04
2.040000e+02 3.916134e+04
2.050000e+02 3.925042e+04
2.060000e+02 3.933946e+04
2.070000e+02 3.943224e+04
2.080000e+02 3.952614e+04
2.090000e+02 3.961942e+04
2.100000e+02 3.971628e+04
2.110000e+02 3.981457e+04
2.120000e+02 3.991220e+04
2.130000e+02 4.001318e+04
2.140000e+02 4.011540e+04
2.150000e+02 4.021779e+04
2.160000e+02 4.032330e+04
2.170000e+02 4.042876e+04
2.180000e+02 4.053606e+04
2.190000e+02 4.064559e+04
2.200000e+02 4.075521e+04
2.210000e+02 4.086755e+04
2.220000e+02 4.098020e+04
2.230000e+02 4.109537e+04
2.240000e+02 4.121085e+04
2.250000e+02 4.132870e+04
2.260000e+02 4.144699e+04
2.270000e+02 4.156752e+04
2.280000e+02 4.168905e+04
2.290000e+02 4.181265e+04
2.300000e+02 4.193662e+04
2.310000e+02 4.206283e+04
2.320000e+02 4.218999e+04
2.330000e+02 4.231879e+04
2.340000e+02 4.244903e+04
2.350000e+02 4.258086e+04
2.360000e+02 4.271377e+04
2.370000e+02 4.284813e+04
2.380000e+02 4.298379e+04
2.390000e+02 4.312130e+04
2.400000e+02 4.326144e+04
2.410000e+02 4.339827e+04
2.420000e+02 4.354059e+04
2.430000e+02 4.368374e+04
2.440000e+02 4.382854e+04
2.450000e+02 4.397675e+04
2.460000e+02 4.412172e+04
2.470000e+02 4.427091e+04
2.480000e+02 4.442156e+04
2.490000e+02 2.535371e+03
