1.000000e+00 1.502580e+04
2.000000e+00 2.098599e+04
3.000000e+00 2.072214e+04
4.000000e+00 2.041821e+04
5.000000e+00 2.015038e+04
6.000000e+00 1.989009e+04
7.000000e+00 1.965355e+04
8.000000e+00 1.943388e+04
9.000000e+00 1.922331e+04
1.000000e+01 1.902603e+04
1.100000e+01 1.884146e+04
1.200000e+01 1.866330e+04
1.300000e+01 1.849348e+04
1.400000e+01 1.832819e+04
1.500000e+01 1.816927e+04
1.600000e+01 1.801320e+04
1.700000e+01 1.786259e+04
1.800000e+01 1.771376e+04
1.900000e+01 1.756944e+04
2.000000e+01 1.742689e+04
2.100000e+01 1.728695e+04
2.200000e+01 1.714988e+04
2.300000e+01 1.701449e+04
2.400000e+01 1.688096e+04
2.500000e+01 1.674987e+04
2.600000e+01 1.662059e+04
2.700000e+01 1.649229e+04
2.800000e+01 1.636648e+04
2.900000e+01 1.624257e+04
3.000000e+01 1.611903e+04
3.100000e+01 1.599728e+04
3.200000e+01 1.587825e+04
3.300000e+01 1.576016e+04
3.400000e+01 1.564184e+04
3.500000e+01 1.552645e+04
3.600000e+01 1.541347e+04
3.700000e+01 1.530101e+04
3.800000e+01 1.518785e+04
3.900000e+01 1.507767e+04
4.000000e+01 1.497025e+04
4.100000e+01 1.486384e+04
4.200000e+01 1.475668e+04
4.300000e+01 1.465054e+04
4.400000e+01 1.454804e+04
4.500000e+01 1.444760e+04
4.600000e+01 1.434755e+04
4.700000e+01 1.424633e+04
4.800000e+01 1.414661e+04
4.900000e+01 1.405074e+04
5.000000e+01 1.395719e+04
5.100000e+01 1.386439e+04
5.200000e+01 1.377076e+04
5.300000e+01 1.367649e+04
5.400000e+01 1.358609e+04
5.500000e+01 1.349895e+04
5.600000e+01 1.341362e+04
5.700000e+01 1.332865e+04
5.800000e+01 1.324258e+04
5.900000e+01 1.315583e+04
6.000000e+01 1.307310e+04
6.100000e+01 1.299391e+04
6.200000e+01 1.291695e+04
6.300000e+01 1.284088e+04
6.400000e+01 1.276437e+04
6.500000e+01 1.268620e+04
6.600000e+01 1.260928e+04
6.700000e+01 1.253675e+04
6.800000e+01 1.246756e+04
6.900000e+01 1.240048e+04
7.000000e+01 1.233429e+04
7.100000e+01 1.226777e+04
7.200000e+01 1.219969e+04
7.300000e+01 1.213113e+04
7.400000e+01 1.206688e+04
7.500000e+01 1.200665e+04
7.600000e+01 1.194931e+04
7.700000e+01 1.189373e+04
7.800000e+01 1.183876e+04
7.900000e+01 1.178328e+04
8.000000e+01 1.172615e+04
8.100000e+01 1.166811e+04
8.200000e+01 1.161420e+04
8.300000e+01 1.156466e+04
8.400000e+01 1.151844e+04
8.500000e+01 1.147451e+04
8.600000e+01 1.143182e+04
8.700000e+01 1.138932e+04
8.800000e+01 1.134598e+04
8.900000e+01 1.130075e+04
9.000000e+01 1.125487e+04
9.100000e+01 1.121341e+04
9.200000e+01 1.117658e+04
9.300000e+01 1.114342e+04
9.400000e+01 1.111296e+04
9.500000e+01 1.108422e+04
9.600000e+01 1.105622e+04
9.700000e+01 1.102800e+04
9.800000e+01 1.099858e+04
9.900000e+01 1.096704e+04
1.000000e+02 1.093529e+04
1.010000e+02 1.090789e+04
1.020000e+02 1.088485e+04
1.030000e+02 1.086526e+04
1.040000e+02 1.084821e+04
1.050000e+02 1.083280e+04
1.060000e+02 1.081810e+04
1.070000e+02 1.080322e+04
1.080000e+02 1.078725e+04
1.090000e+02 1.076929e+04
1.100000e+02 1.075080e+04
1.110000e+02 1.073658e+04
1.120000e+02 1.072693e+04
1.130000e+02 1.072083e+04
1.140000e+02 1.071727e+04
1.150000e+02 1.071524e+04
1.160000e+02 1.071375e+04
1.170000e+02 1.071176e+04
1.180000e+02 1.070829e+04
1.190000e+02 1.070283e+04
1.200000e+02 1.069961e+04
1.210000e+02 1.070145e+04
1.220000e+02 1.070735e+04
1.230000e+02 1.071621e+04
1.240000e+02 1.072690e+04
1.250000e+02 1.073830e+04
1.260000e+02 1.074929e+04
1.270000e+02 1.075876e+04
1.280000e+02 1.076636e+04
1.290000e+02 1.077687e+04
1.300000e+02 1.079221e+04
1.310000e+02 1.081123e+04
1.320000e+02 1.083276e+04
1.330000e+02 1.085562e+04
1.340000e+02 1.087861e+04
1.350000e+02 1.090055e+04
1.360000e+02 1.092045e+04
1.370000e+02 1.094154e+04
1.380000e+02 1.096742e+04
1.390000e+02 1.099711e+04
1.400000e+02 1.102936e+04
1.410000e+02 1.106292e+04
1.420000e+02 1.109654e+04
1.430000e+02 1.112898e+04
1.440000e+02 1.115955e+04
1.450000e+02 1.119276e+04
1.460000e+02 1.123046e+04
1.470000e+02 1.127138e+04
1.480000e+02 1.131422e+04
1.490000e+02 1.135767e+04
1.500000e+02 1.140042e+04
1.510000e+02 1.144131e+04
1.520000e+02 1.148339e+04
1.530000e+02 1.152989e+04
1.540000e+02 1.157964e+04
1.550000e+02 1.163130e+04
1.560000e+02 1.168352e+04
1.570000e+02 1.173494e+04
1.580000e+02 1.178469e+04
1.590000e+02 1.183688e+04
1.600000e+02 1.189309e+04
1.610000e+02 1.195191e+04
1.620000e+02 1.201197e+04
1.630000e+02 1.207184e+04
1.640000e+02 1.213019e+04
1.650000e+02 1.218919e+04
1.660000e+02 1.225226e+04
1.670000e+02 1.231816e+04
1.680000e+02 1.238542e+04
1.690000e+02 1.245257e+04
1.700000e+02 1.251823e+04
1.710000e+02 1.258499e+04
1.720000e+02 1.265559e+04
1.730000e+02 1.272862e+04
1.740000e+02 1.280259e+04
1.750000e+02 1.287597e+04
1.760000e+02 1.294831e+04
1.770000e+02 1.302379e+04
1.780000e+02 1.310220e+04
1.790000e+02 1.318200e+04
1.800000e+02 1.326164e+04
1.810000e+02 1.334009e+04
1.820000e+02 1.342109e+04
1.830000e+02 1.350504e+04
1.840000e+02 1.359035e+04
1.850000e+02 1.367541e+04
1.860000e+02 1.375963e+04
1.870000e+02 1.384682e+04
1.880000e+02 1.393644e+04
1.890000e+02 1.402682e+04
1.900000e+02 1.411635e+04
1.910000e+02 1.420692e+04
1.920000e+02 1.430060e+04
1.930000e+02 1.439561e+04
1.940000e+02 1.449012e+04
1.950000e+02 1.458465e+04
1.960000e+02 1.468240e+04
1.970000e+02 1.478169e+04
1.980000e+02 1.488056e+04
1.990000e+02 1.497971e+04
2.000000e+02 1.508185e+04
2.010000e+02 1.518511e+04
2.020000e+02 1.528761e+04
2.030000e+02 1.539181e+04
2.040000e+02 1.549831e+04
2.050000e+02 1.560508e+04
2.060000e+02 1.571187e+04
2.070000e+02 1.582130e+04
2.080000e+02 1.593148e+04
2.090000e+02 1.604117e+04
2.100000e+02 1.615353e+04
2.110000e+02 1.626700e+04
2.120000e+02 1.638001e+04
2.130000e+02 1.649533e+04
2.140000e+02 1.661159e+04
2.150000e+02 1.672808e+04
2.160000e+02 1.684679e+04
2.170000e+02 1.696535e+04
2.180000e+02 1.708525e+04
2.190000e+02 1.720682e+04
2.200000e+02 1.732843e+04
2.210000e+02 1.745203e+04
2.220000e+02 1.757587e+04
2.230000e+02 1.770141e+04
2.240000e+02 1.782724e+04
2.250000e+02 1.795482e+04
2.260000e+02 1.808261e+04
2.270000e+02 1.821207e+04
2.280000e+02 1.834216e+04
2.290000e+02 1.847376e+04
2.300000e+02 1.860571e+04
2.310000e+02 1.873915e+04
2.320000e+02 1.887321e+04
2.330000e+02 1.900871e+04
2.340000e+02 1.914496e+04
2.350000e+02 1.928242e+04
2.360000e+02 1.942073e+04
2.370000e+02 1.955979e+04
2.380000e+02 1.970003e+04
2.390000e+02 1.984156e+04
2.400000e+02 1.998539e+04
2.410000e+02 2.012549e+04
2.420000e+02 2.027048e+04
2.430000e+02 2.041593e+04
2.440000e+02 2.056302e+04
2.450000e+02 2.071260e+04
2.460000e+02 2.085881e+04
2.470000e+02 2.100895e+04
2.480000e+02 2.116006e+04
2.490000e+02 2.535349e+03
