1.000000e+00 2.692674e+04
2.000000e+00 3.463249e+04
3.000000e+00 3.420409e+04
4.000000e+00 3.371608e+04
5.000000e+00 3.328999e+04
6.000000e+00 3.287900e+04
7.000000e+00 3.250759e+04
8.000000e+00 3.216448e+04
9.000000e+00 3.183685e+04
1.000000e+01 3.153156e+04
1.100000e+01 3.124631e+04
1.200000e+01 3.097173e+04
1.300000e+01 3.071067e+04
1.400000e+01 3.045663e+04
1.500000e+01 3.021333e+04
1.600000e+01 2.997407e+04
1.700000e+01 2.974366e+04
1.800000e+01 2.951589e+04
1.900000e+01 2.929519e+04
2.000000e+01 2.907721e+04
2.100000e+01 2.886329e+04
2.200000e+01 2.865364e+04
2.300000e+01 2.844654e+04
2.400000e+01 2.824258e+04
2.500000e+01 2.804204e+04
2.600000e+01 2.784401e+04
2.700000e+01 2.764762e+04
2.800000e+01 2.745480e+04
2.900000e+01 2.726473e+04
3.000000e+01 2.707543e+04
3.100000e+01 2.688877e+04
3.200000e+01 2.670589e+04
3.300000e+01 2.652428e+04
3.400000e+01 2.634228e+04
3.500000e+01 2.616448e+04
3.600000e+01 2.599014e+04
3.700000e+01 2.581668e+04
3.800000e+01 2.564234e+04
3.900000e+01 2.547211e+04
4.000000e+01 2.530567e+04
4.100000e+01 2.514057e+04
4.200000e+01 2.497440e+04
4.300000e+01 2.480969e+04
4.400000e+01 2.465009e+04
4.500000e+01 2.449342e+04
4.600000e+01 2.433733e+04
4.700000e+01 2.417962e+04
4.800000e+01 2.402396e+04
4.900000e+01 2.387357e+04
5.000000e+01 2.372635e+04
5.100000e+01 2.358014e+04
5.200000e+01 2.343276e+04
5.300000e+01 2.328447e+04
5.400000e+01 2.314149e+04
5.500000e+01 2.300300e+04
5.600000e+01 2.286700e+04
5.700000e+01 2.273152e+04
5.800000e+01 2.259458e+04
5.900000e+01 2.245669e+04
6.000000e+01 2.232419e+04
6.100000e+01 2.219644e+04
6.200000e+01 2.207166e+04
6.300000e+01 2.194806e+04
6.400000e+01 2.182384e+04
6.500000e+01 2.169736e+04
6.600000e+01 2.157252e+04
6.700000e+01 2.145357e+04
6.800000e+01 2.133907e+04
6.900000e+01 2.122742e+04
7.000000e+01 2.111696e+04
7.100000e+01 2.100610e+04
7.200000e+01 2.089319e+04
7.300000e+01 2.077962e+04
7.400000e+01 2.067167e+04
7.500000e+01 2.056896e+04
7.600000e+01 2.047003e+04
7.700000e+01 2.037338e+04
7.800000e+01 2.027756e+04
7.900000e+01 2.018107e+04
8.000000e+01 2.008245e+04
8.100000e+01 1.998263e+04
8.200000e+01 1.988815e+04
8.300000e+01 1.979934e+04
8.400000e+01 1.971484e+04
8.500000e+01 1.963329e+04
8.600000e+01 1.955335e+04
8.700000e+01 1.947367e+04
8.800000e+01 1.939290e+04
8.900000e+01 1.930969e+04
9.000000e+01 1.922568e+04
9.100000e+01 1.914753e+04
9.200000e+01 1.907552e+04
9.300000e+01 1.900837e+04
9.400000e+01 1.894479e+04
9.500000e+01 1.888350e+04
9.600000e+01 1.882319e+04
9.700000e+01 1.876259e+04
9.800000e+01 1.870040e+04
9.900000e+01 1.863540e+04
1.000000e+02 1.857007e+04
1.010000e+02 1.851034e+04
1.020000e+02 1.845622e+04
1.030000e+02 1.840654e+04
1.040000e+02 1.836014e+04
1.050000e+02 1.831583e+04
1.060000e+02 1.827247e+04
1.070000e+02 1.822887e+04
1.080000e+02 1.818387e+04
1.090000e+02 1.813633e+04
1.100000e+02 1.808805e+04
1.110000e+02 1.804510e+04
1.120000e+02 1.800784e+04
1.130000e+02 1.797501e+04
1.140000e+02 1.794536e+04
1.150000e+02 1.791761e+04
1.160000e+02 1.789051e+04
1.170000e+02 1.786279e+04
1.180000e+02 1.783319e+04
1.190000e+02 1.780110e+04
1.200000e+02 1.777194e+04
1.210000e+02 1.774927e+04
1.220000e+02 1.773184e+04
1.230000e+02 1.771820e+04
1.240000e+02 1.770691e+04
1.250000e+02 1.769653e+04
1.260000e+02 1.768561e+04
1.270000e+02 1.767271e+04
1.280000e+02 1.765740e+04
1.290000e+02 1.764587e+04
1.300000e+02 1.764060e+04
1.310000e+02 1.764010e+04
1.320000e+02 1.764284e+04
1.330000e+02 1.764727e+04
1.340000e+02 1.765187e+04
1.350000e+02 1.765508e+04
1.360000e+02 1.765561e+04
1.370000e+02 1.765772e+04
1.380000e+02 1.766611e+04
1.390000e+02 1.767948e+04
1.400000e+02 1.769619e+04
1.410000e+02 1.771461e+04
1.420000e+02 1.773310e+04
1.430000e+02 1.775002e+04
1.440000e+02 1.776448e+04
1.450000e+02 1.778241e+04
1.460000e+02 1.780628e+04
1.470000e+02 1.783440e+04
1.480000e+02 1.786504e+04
1.490000e+02 1.789650e+04
1.500000e+02 1.792703e+04
1.510000e+02 1.795510e+04
1.520000e+02 1.798478e+04
1.530000e+02 1.802039e+04
1.540000e+02 1.806035e+04
1.550000e+02 1.810283e+04
1.560000e+02 1.814602e+04
1.570000e+02 1.818809e+04
1.580000e+02 1.822787e+04
1.590000e+02 1.827099e+04
1.600000e+02 1.831958e+04
1.610000e+02 1.837177e+04
1.620000e+02 1.842566e+04
1.630000e+02 1.847935e+04
1.640000e+02 1.853099e+04
1.650000e+02 1.858352e+04
1.660000e+02 1.864154e+04
1.670000e+02 1.870341e+04
1.680000e+02 1.876714e+04
1.690000e+02 1.883077e+04
1.700000e+02 1.889245e+04
1.710000e+02 1.895569e+04
1.720000e+02 1.902420e+04
1.730000e+02 1.909604e+04
1.740000e+02 1.916912e+04
1.750000e+02 1.924137e+04
1.760000e+02 1.931217e+04
1.770000e+02 1.938751e+04
1.780000e+02 1.946702e+04
1.790000e+02 1.954845e+04
1.800000e+02 1.962958e+04
1.810000e+02 1.970888e+04
1.820000e+02 1.979187e+04
1.830000e+02 1.987918e+04
1.840000e+02 1.996846e+04
1.850000e+02 2.005737e+04
1.860000e+02 2.014504e+04
1.870000e+02 2.023707e+04
1.880000e+02 2.033260e+04
1.890000e+02 2.042917e+04
1.900000e+02 2.052431e+04
1.910000e+02 2.062096e+04
1.920000e+02 2.072227e+04
1.930000e+02 2.082558e+04
1.940000e+02 2.092814e+04
1.950000e+02 2.103067e+04
1.960000e+02 2.113786e+04
1.970000e+02 2.124729e+04
1.980000e+02 2.135608e+04
1.990000e+02 2.146533e+04
2.000000e+02 2.157898e+04
2.010000e+02 2.169431e+04
2.020000e+02 2.180854e+04
2.030000e+02 2.192528e+04
2.040000e+02 2.204535e+04
2.050000e+02 2.216567e+04
2.060000e+02 2.228594e+04
2.070000e+02 2.241026e+04
2.080000e+02 2.253581e+04
2.090000e+02 2.266071e+04
2.100000e+02 2.278944e+04
2.110000e+02 2.291971e+04
2.120000e+02 2.304927e+04
2.130000e+02 2.318240e+04
2.140000e+02 2.331698e+04
2.150000e+02 2.345186e+04
2.160000e+02 2.358991e+04
2.170000e+02 2.372790e+04
2.180000e+02 2.386787e+04
2.190000e+02 2.401026e+04
2.200000e+02 2.415282e+04
2.210000e+02 2.429826e+04
2.220000e+02 2.444404e+04
2.230000e+02 2.459252e+04
2.240000e+02 2.474117e+04
2.250000e+02 2.489256e+04
2.260000e+02 2.504433e+04
2.270000e+02 2.519868e+04
2.280000e+02 2.535366e+04
2.290000e+02 2.551123e+04
2.300000e+02 2.566928e+04
2.310000e+02 2.582944e+04
2.320000e+02 2.599085e+04
2.330000e+02 2.615376e+04
2.340000e+02 2.631838e+04
2.350000e+02 2.648464e+04
2.360000e+02 2.665216e+04
2.370000e+02 2.682098e+04
2.380000e+02 2.699151e+04
2.390000e+02 2.716395e+04
2.400000e+02 2.733922e+04
2.410000e+02 2.751038e+04
2.420000e+02 2.768789e+04
2.430000e+02 2.786640e+04
2.440000e+02 2.804669e+04
2.450000e+02 2.823097e+04
2.460000e+02 2.841100e+04
2.470000e+02 2.859612e+04
2.480000e+02 2.878282e+04
2.490000e+02 2.542176e+03
