1.000000e+00 4.083896e+03
2.000000e+00 5.668129e+03
3.000000e+00 5.638102e+03
4.000000e+00 5.599060e+03
5.000000e+00 5.562034e+03
6.000000e+00 5.527446e+03
7.000000e+00 5.497634e+03
8.000000e+00 5.471232e+03
9.000000e+00 5.445513e+03
1.000000e+01 5.423029e+03
1.100000e+01 5.404124e+03
1.200000e+01 5.386321e+03
1.300000e+01 5.370657e+03
1.400000e+01 5.355760e+03
1.500000e+01 5.342660e+03
1.600000e+01 5.329691e+03
1.700000e+01 5.318400e+03
1.800000e+01 5.306819e+03
1.900000e+01 5.296739e+03
2.000000e+01 5.286372e+03
2.100000e+01 5.276752e+03
2.200000e+01 5.267679e+03
2.300000e+01 5.258382e+03
2.400000e+01 5.249975e+03
2.500000e+01 5.241526e+03
2.600000e+01 5.233082e+03
2.700000e+01 5.225276e+03
2.800000e+01 5.217456e+03
2.900000e+01 5.209611e+03
3.000000e+01 5.202129e+03
3.100000e+01 5.194837e+03
3.200000e+01 5.187480e+03
3.300000e+01 5.180240e+03
3.400000e+01 5.173253e+03
3.500000e+01 5.166310e+03
3.600000e+01 5.159391e+03
3.700000e+01 5.152556e+03
3.800000e+01 5.145858e+03
3.900000e+01 5.139234e+03
4.000000e+01 5.132662e+03
4.100000e+01 5.126142e+03
4.200000e+01 5.119675e+03
4.300000e+01 5.113284e+03
4.400000e+01 5.106982e+03
4.500000e+01 5.100742e+03
4.600000e+01 5.094534e+03
4.700000e+01 5.088333e+03
4.800000e+01 5.082197e+03
4.900000e+01 5.076170e+03
5.000000e+01 5.070214e+03
5.100000e+01 5.064290e+03
5.200000e+01 5.058356e+03
5.300000e+01 5.052422e+03
5.400000e+01 5.046608e+03
5.500000e+01 5.040896e+03
5.600000e+01 5.035242e+03
5.700000e+01 5.029605e+03
5.800000e+01 5.023942e+03
5.900000e+01 5.018266e+03
6.000000e+01 5.012717e+03
6.100000e+01 5.007279e+03
6.200000e+01 5.001913e+03
6.300000e+01 4.996575e+03
6.400000e+01 4.991226e+03
6.500000e+01 4.985828e+03
6.600000e+01 4.980471e+03
6.700000e+01 4.975254e+03
6.800000e+01 4.970144e+03
6.900000e+01 4.965102e+03
7.000000e+01 4.960088e+03
7.100000e+01 4.955066e+03
7.200000e+01 4.949995e+03
7.300000e+01 4.944910e+03
7.400000e+01 4.939960e+03
7.500000e+01 4.935138e+03
7.600000e+01 4.930407e+03
7.700000e+01 4.925731e+03
7.800000e+01 4.921075e+03
7.900000e+01 4.916404e+03
8.000000e+01 4.911682e+03
8.100000e+01 4.906931e+03
8.200000e+01 4.902310e+03
8.300000e+01 4.897828e+03
8.400000e+01 4.893450e+03
8.500000e+01 4.889143e+03
8.600000e+01 4.884876e+03
8.700000e+01 4.880613e+03
8.800000e+01 4.876323e+03
8.900000e+01 4.871973e+03
9.000000e+01 4.867607e+03
9.100000e+01 4.863400e+03
9.200000e+01 4.859359e+03
9.300000e+01 4.855449e+03
9.400000e+01 4.851636e+03
9.500000e+01 4.847885e+03
9.600000e+01 4.844161e+03
9.700000e+01 4.840431e+03
9.800000e+01 4.836659e+03
9.900000e+01 4.832812e+03
1.000000e+02 4.828952e+03
1.010000e+02 4.825228e+03
1.020000e+02 4.821640e+03
1.030000e+02 4.818161e+03
1.040000e+02 4.814763e+03
1.050000e+02 4.811416e+03
1.060000e+02 4.808093e+03
1.070000e+02 4.804764e+03
1.080000e+02 4.801403e+03
1.090000e+02 4.797980e+03
1.100000e+02 4.794536e+03
1.110000e+02 4.791205e+03
1.120000e+02 4.787996e+03
1.130000e+02 4.784883e+03
1.140000e+02 4.781838e+03
1.150000e+02 4.778833e+03
1.160000e+02 4.775841e+03
1.170000e+02 4.772835e+03
1.180000e+02 4.769787e+03
1.190000e+02 4.766685e+03
1.200000e+02 4.763659e+03
1.210000e+02 4.760792e+03
1.220000e+02 4.758054e+03
1.230000e+02 4.755409e+03
1.240000e+02 4.752821e+03
1.250000e+02 4.750255e+03
1.260000e+02 4.747675e+03
1.270000e+02 4.745046e+03
1.280000e+02 4.742357e+03
1.290000e+02 4.739763e+03
1.300000e+02 4.737325e+03
1.310000e+02 4.735008e+03
1.320000e+02 4.732771e+03
1.330000e+02 4.730577e+03
1.340000e+02 4.728387e+03
1.350000e+02 4.726163e+03
1.360000e+02 4.723872e+03
1.370000e+02 4.721621e+03
1.380000e+02 4.719529e+03
1.390000e+02 4.717562e+03
1.400000e+02 4.715680e+03
1.410000e+02 4.713842e+03
1.420000e+02 4.712005e+03
1.430000e+02 4.710129e+03
1.440000e+02 4.708191e+03
1.450000e+02 4.706343e+03
1.460000e+02 4.704648e+03
1.470000e+02 4.703061e+03
1.480000e+02 4.701540e+03
1.490000e+02 4.700039e+03
1.500000e+02 4.698514e+03
1.510000e+02 4.696926e+03
1.520000e+02 4.695382e+03
1.530000e+02 4.693992e+03
1.540000e+02 4.692715e+03
1.550000e+02 4.691505e+03
1.560000e+02 4.690314e+03
1.570000e+02 4.689094e+03
1.580000e+02 4.687815e+03
1.590000e+02 4.686625e+03
1.600000e+02 4.685580e+03
1.610000e+02 4.684631e+03
1.620000e+02 4.683726e+03
1.630000e+02 4.682814e+03
1.640000e+02 4.681847e+03
1.650000e+02 4.680905e+03
1.660000e+02 4.680114e+03
1.670000e+02 4.679427e+03
1.680000e+02 4.678791e+03
1.690000e+02 4.678150e+03
1.700000e+02 4.677455e+03
1.710000e+02 4.676804e+03
1.720000e+02 4.676298e+03
1.730000e+02 4.675884e+03
1.740000e+02 4.675504e+03
1.750000e+02 4.675101e+03
1.760000e+02 4.674656e+03
1.770000e+02 4.674337e+03
1.780000e+02 4.674134e+03
1.790000e+02 4.673985e+03
1.800000e+02 4.673828e+03
1.810000e+02 4.673622e+03
1.820000e+02 4.673519e+03
1.830000e+02 4.673536e+03
1.840000e+02 4.673606e+03
1.850000e+02 4.673665e+03
1.860000e+02 4.673687e+03
1.870000e+02 4.673834e+03
1.880000e+02 4.674081e+03
1.890000e+02 4.674358e+03
1.900000e+02 4.674598e+03
1.910000e+02 4.674878e+03
1.920000e+02 4.675287e+03
1.930000e+02 4.675753e+03
1.940000e+02 4.676199e+03
1.950000e+02 4.676648e+03
1.960000e+02 4.677226e+03
1.970000e+02 4.677868e+03
1.980000e+02 4.678491e+03
1.990000e+02 4.679129e+03
2.000000e+02 4.679891e+03
2.010000e+02 4.680700e+03
2.020000e+02 4.681476e+03
2.030000e+02 4.682326e+03
2.040000e+02 4.683274e+03
2.050000e+02 4.684228e+03
2.060000e+02 4.685179e+03
2.070000e+02 4.686248e+03
2.080000e+02 4.687352e+03
2.090000e+02 4.688436e+03
2.100000e+02 4.689628e+03
2.110000e+02 4.690866e+03
2.120000e+02 4.692086e+03
2.130000e+02 4.693411e+03
2.140000e+02 4.694770e+03
2.150000e+02 4.696131e+03
2.160000e+02 4.697593e+03
2.170000e+02 4.699057e+03
2.180000e+02 4.700577e+03
2.190000e+02 4.702160e+03
2.200000e+02 4.703744e+03
2.210000e+02 4.705419e+03
2.220000e+02 4.707093e+03
2.230000e+02 4.708848e+03
2.240000e+02 4.710617e+03
2.250000e+02 4.712453e+03
2.260000e+02 4.714310e+03
2.270000e+02 4.716232e+03
2.280000e+02 4.718173e+03
2.290000e+02 4.720184e+03
2.300000e+02 4.722212e+03
2.310000e+02 4.724299e+03
2.320000e+02 4.726425e+03
2.330000e+02 4.728585e+03
2.340000e+02 4.730798e+03
2.350000e+02 4.733053e+03
2.360000e+02 4.735343e+03
2.370000e+02 4.737676e+03
2.380000e+02 4.740054e+03
2.390000e+02 4.742474e+03
2.400000e+02 4.744959e+03
2.410000e+02 4.747405e+03
2.420000e+02 4.749958e+03
2.430000e+02 4.752550e+03
2.440000e+02 4.755180e+03
2.450000e+02 4.757888e+03
2.460000e+02 4.760555e+03
2.470000e+02 4.763313e+03
2.480000e+02 4.777027e+03
2.490000e+02 1.619951e+03
