2 24297.3751849
3 23888.5952595
4 23301.9678085
5 22783.9809949
6 22234.4502382
7 21699.0816978
8 21169.5012734
9 20642.6720124
10 20119.9800566
11 19600.2434862
12 19085.6769936
13 18572.3200614
14 18066.4764813
15 17561.3334266
16 17060.4629698
17 16567.454178
18 16074.1980651
19 15583.7387297
20 15103.5623756
21 14626.7258764
22 14146.7965448
23 13674.1554216
24 13212.5840157
25 12755.4557716
26 12296.1095952
27 11835.842862
28 11390.1868273
29 10955.5954644
30 10525.6644269
31 10093.9893682
32 9656.62469955
33 9231.86342044
34 8826.82814348
35 8434.60199493
36 8048.11733209
37 7660.30651227
38 7264.22922178
39 6868.9952649
40 6504.61321018
41 6169.44399226
42 5854.52248355
43 5550.88355645
44 5249.56208336
45 4941.59293667
46 4618.95084559
47 4300.34940403
48 4023.58865999
49 3788.26829669
50 3584.87415939
51 3403.89209338
52 3235.8079439
53 3071.10755625
54 2900.27677568
55 2713.80344496
56 2511.50958857
57 2323.80604765
58 2171.30402941
59 2050.11669443
60 1954.31542305
61 1877.9715956
62 1815.15659243
63 1759.94179388
64 1706.3985803
65 1648.59833202
66 1580.6124294
67 1498.025352
68 1410.20615562
69 1332.98176884
70 1271.43193554
71 1223.53837841
72 1187.15902948
73 1160.15182078
74 1140.37468432
75 1125.68555215
76 1113.94235627
77 1103.00302872
78 1090.72550153
79 1074.96770671
80 1053.58814675
81 1026.00966053
82 996.62990147
83 970.644905172
84 950.111981754
85 934.496770199
86 923.187266202
87 915.571465457
88 911.03736366
89 908.972956506
90 908.766239689
91 909.805208906
92 911.477859852
93 913.17218822
94 914.276189707
95 914.177860007
96 912.265194816
97 908.015755205
98 902.222633967
99 896.679171004
100 893.134198603
101 892.23446945
102 893.745630397
103 897.408689572
104 902.964655102
105 910.154535115
106 918.719337739
107 928.400071101
108 938.937743329
109 950.073362551
110 961.547936894
111 973.102474487
112 984.477983456
113 995.41547193
114 1005.65594804
115 1014.9404199
116 1023.00989566
117 1029.7314463
118 1036.10293328
119 1043.71900067
120 1054.17933755
121 1068.63502741
122 1086.90418315
123 1108.55847192
124 1133.1695609
125 1160.30911722
126 1189.54880807
127 1220.46030059
128 1252.61526194
129 1285.58535928
130 1318.94225978
131 1352.2576306
132 1385.10313888
133 1417.0504518
134 1447.67123651
135 1476.53716018
136 1503.21988995
137 1527.36578672
138 1550.71062819
139 1577.30952831
140 1611.33843579
141 1656.37724341
142 1712.404801
143 1778.05443968
144 1851.95716588
145 1932.74398604
146 2019.0459066
147 2109.493934
148 2202.71907468
149 2297.35233507
150 2392.02472161
151 2485.36724075
152 2576.01089891
153 2662.58670254
154 2743.72565808
155 2819.4300085
156 2896.85252427
157 2985.46921752
158 3093.28583704
159 3220.27589828
160 3363.68587884
161 3520.76002844
162 3688.74259678
163 3864.87783357
164 4046.40998852
165 4230.58331135
166 4414.64205176
167 4595.83045947
168 4771.39278418
169 4938.59246172
170 5098.76038325
171 5262.30247003
172 5440.12673036
173 5634.83479122
174 5843.73102899
175 6064.03426384
176 6292.96331597
177 6527.73700556
178 6765.5741528
179 7003.69357786
180 7239.31410095
181 7469.65454224
182 7693.05205802
183 7914.60017802
184 8141.29990351
185 8374.67731237
186 8613.39041193
187 8856.07207301
188 9101.3551664
189 9347.87256294
190 9594.25713342
191 9839.14174866
192 10081.291113
193 10322.2227968
194 10565.7106959
195 10812.5251536
196 11061.8107101
197 11312.6976565
198 11564.316284
199 11815.7968836
200 12066.2697467
201 12315.3888317
202 12566.0706136
203 12820.429394
204 13077.568392
205 13336.3558457
206 13595.6599934
207 13854.3490731
208 14111.5202657
209 14369.9532173
210 14632.6830095
211 14898.4901022
212 15165.7768582
213 15432.9456401
214 15698.5798942
215 15965.6390765
216 16237.3240726
217 16511.7619954
218 16786.7742671
219 17060.2947124
220 17335.1691732
221 17614.9363342
222 17897.0067935
223 18178.4947785
224 18459.9254593
225 18746.1650534
226 19034.4624276
227 19321.7002039
228 19612.1693456
229 19905.9014586
230 20198.7395877
231 20494.9703139
232 20793.5003093
233 21092.5698556
234 21395.1790913
235 21697.9722162
236 22003.9484469
237 22311.1824479
238 22621.0523643
239 22932.9875411
240 23256.7839057
241 23562.8871268
242 23879.4724711
243 24197.4571651
244 24517.6315008
245 24843.9360174
246 25162.3804448
247 25489.2610613
248 25818.1811371
