1.000000e+00 2.964972e+04
2.000000e+00 3.811402e+04
3.000000e+00 3.778190e+04
4.000000e+00 3.739588e+04
5.000000e+00 3.705674e+04
6.000000e+00 3.673858e+04
7.000000e+00 3.646069e+04
8.000000e+00 3.621148e+04
9.000000e+00 3.597661e+04
1.000000e+01 3.576438e+04
1.100000e+01 3.557353e+04
1.200000e+01 3.539270e+04
1.300000e+01 3.522545e+04
1.400000e+01 3.506468e+04
1.500000e+01 3.491477e+04
1.600000e+01 3.476788e+04
1.700000e+01 3.463029e+04
1.800000e+01 3.449371e+04
1.900000e+01 3.436481e+04
2.000000e+01 3.423690e+04
2.100000e+01 3.411317e+04
2.200000e+01 3.399318e+04
2.300000e+01 3.387407e+04
2.400000e+01 3.375888e+04
2.500000e+01 3.364544e+04
2.600000e+01 3.353337e+04
2.700000e+01 3.342380e+04
2.800000e+01 3.331605e+04
2.900000e+01 3.320965e+04
3.000000e+01 3.310454e+04
3.100000e+01 3.300122e+04
3.200000e+01 3.289967e+04
3.300000e+01 3.279910e+04
3.400000e+01 3.269902e+04
3.500000e+01 3.260109e+04
3.600000e+01 3.250489e+04
3.700000e+01 3.240930e+04
3.800000e+01 3.231360e+04
3.900000e+01 3.222013e+04
4.000000e+01 3.212865e+04
4.100000e+01 3.203796e+04
4.200000e+01 3.194686e+04
4.300000e+01 3.185663e+04
4.400000e+01 3.176908e+04
4.500000e+01 3.168309e+04
4.600000e+01 3.159746e+04
4.700000e+01 3.151106e+04
4.800000e+01 3.142579e+04
4.900000e+01 3.134329e+04
5.000000e+01 3.126248e+04
5.100000e+01 3.118223e+04
5.200000e+01 3.110142e+04
5.300000e+01 3.102018e+04
5.400000e+01 3.094172e+04
5.500000e+01 3.086562e+04
5.600000e+01 3.079082e+04
5.700000e+01 3.071631e+04
5.800000e+01 3.064104e+04
5.900000e+01 3.056531e+04
6.000000e+01 3.049239e+04
6.100000e+01 3.042199e+04
6.200000e+01 3.035315e+04
6.300000e+01 3.028493e+04
6.400000e+01 3.021640e+04
6.500000e+01 3.014669e+04
6.600000e+01 3.007783e+04
6.700000e+01 3.001206e+04
6.800000e+01 2.994862e+04
6.900000e+01 2.988666e+04
7.000000e+01 2.982532e+04
7.100000e+01 2.976376e+04
7.200000e+01 2.970113e+04
7.300000e+01 2.963814e+04
7.400000e+01 2.957808e+04
7.500000e+01 2.952076e+04
7.600000e+01 2.946542e+04
7.700000e+01 2.941127e+04
7.800000e+01 2.935755e+04
7.900000e+01 2.930348e+04
8.000000e+01 2.924831e+04
8.100000e+01 2.919250e+04
8.200000e+01 2.913947e+04
8.300000e+01 2.908936e+04
8.400000e+01 2.904149e+04
8.500000e+01 2.899514e+04
8.600000e+01 2.894963e+04
8.700000e+01 2.890425e+04
8.800000e+01 2.885829e+04
8.900000e+01 2.881107e+04
9.000000e+01 2.876344e+04
9.100000e+01 2.871887e+04
9.200000e+01 2.867750e+04
9.300000e+01 2.863866e+04
9.400000e+01 2.860169e+04
9.500000e+01 2.856592e+04
9.600000e+01 2.853066e+04
9.700000e+01 2.849525e+04
9.800000e+01 2.845903e+04
9.900000e+01 2.842134e+04
1.000000e+02 2.838347e+04
1.010000e+02 2.834852e+04
1.020000e+02 2.831648e+04
1.030000e+02 2.828674e+04
1.040000e+02 2.825870e+04
1.050000e+02 2.823175e+04
1.060000e+02 2.820529e+04
1.070000e+02 2.817870e+04
1.080000e+02 2.815139e+04
1.090000e+02 2.812275e+04
1.100000e+02 2.809373e+04
1.110000e+02 2.806748e+04
1.120000e+02 2.804417e+04
1.130000e+02 2.802317e+04
1.140000e+02 2.800381e+04
1.150000e+02 2.798544e+04
1.160000e+02 2.796740e+04
1.170000e+02 2.794904e+04
1.180000e+02 2.792969e+04
1.190000e+02 2.790905e+04
1.200000e+02 2.788996e+04
1.210000e+02 2.787431e+04
1.220000e+02 2.786142e+04
1.230000e+02 2.785053e+04
1.240000e+02 2.784087e+04
1.250000e+02 2.783169e+04
1.260000e+02 2.782221e+04
1.270000e+02 2.781167e+04
1.280000e+02 2.779985e+04
1.290000e+02 2.779003e+04
1.300000e+02 2.778355e+04
1.310000e+02 2.777962e+04
1.320000e+02 2.777741e+04
1.330000e+02 2.777611e+04
1.340000e+02 2.777489e+04
1.350000e+02 2.777295e+04
1.360000e+02 2.776959e+04
1.370000e+02 2.776707e+04
1.380000e+02 2.776790e+04
1.390000e+02 2.777140e+04
1.400000e+02 2.777667e+04
1.410000e+02 2.778287e+04
1.420000e+02 2.778910e+04
1.430000e+02 2.779450e+04
1.440000e+02 2.779861e+04
1.450000e+02 2.780459e+04
1.460000e+02 2.781378e+04
1.470000e+02 2.782527e+04
1.480000e+02 2.783812e+04
1.490000e+02 2.785140e+04
1.500000e+02 2.786418e+04
1.510000e+02 2.787564e+04
1.520000e+02 2.788799e+04
1.530000e+02 2.790359e+04
1.540000e+02 2.792157e+04
1.550000e+02 2.794093e+04
1.560000e+02 2.796069e+04
1.570000e+02 2.797985e+04
1.580000e+02 2.799777e+04
1.590000e+02 2.801755e+04
1.600000e+02 2.804036e+04
1.610000e+02 2.806516e+04
1.620000e+02 2.809089e+04
1.630000e+02 2.811648e+04
1.640000e+02 2.814092e+04
1.650000e+02 2.816588e+04
1.660000e+02 2.819397e+04
1.670000e+02 2.822424e+04
1.680000e+02 2.825556e+04
1.690000e+02 2.828681e+04
1.700000e+02 2.831691e+04
1.710000e+02 2.834791e+04
1.720000e+02 2.838195e+04
1.730000e+02 2.841791e+04
1.740000e+02 2.845457e+04
1.750000e+02 2.849073e+04
1.760000e+02 2.852604e+04
1.770000e+02 2.856397e+04
1.780000e+02 2.860430e+04
1.790000e+02 2.864576e+04
1.800000e+02 2.868706e+04
1.810000e+02 2.872734e+04
1.820000e+02 2.876976e+04
1.830000e+02 2.881467e+04
1.840000e+02 2.886070e+04
1.850000e+02 2.890648e+04
1.860000e+02 2.895151e+04
1.870000e+02 2.899912e+04
1.880000e+02 2.904883e+04
1.890000e+02 2.909917e+04
1.900000e+02 2.914871e+04
1.910000e+02 2.919912e+04
1.920000e+02 2.925220e+04
1.930000e+02 2.930646e+04
1.940000e+02 2.936032e+04
1.950000e+02 2.941422e+04
1.960000e+02 2.947084e+04
1.970000e+02 2.952877e+04
1.980000e+02 2.958633e+04
1.990000e+02 2.964418e+04
2.000000e+02 2.970464e+04
2.010000e+02 2.976607e+04
2.020000e+02 2.982683e+04
2.030000e+02 2.988913e+04
2.040000e+02 2.995347e+04
2.050000e+02 3.001794e+04
2.060000e+02 3.008237e+04
2.070000e+02 3.014926e+04
2.080000e+02 3.021689e+04
2.090000e+02 3.028409e+04
2.100000e+02 3.035358e+04
2.110000e+02 3.042402e+04
2.120000e+02 3.049410e+04
2.130000e+02 3.056639e+04
2.140000e+02 3.063940e+04
2.150000e+02 3.071243e+04
2.160000e+02 3.078762e+04
2.170000e+02 3.086284e+04
2.180000e+02 3.093926e+04
2.190000e+02 3.101703e+04
2.200000e+02 3.109479e+04
2.210000e+02 3.117451e+04
2.220000e+02 3.125420e+04
2.230000e+02 3.133562e+04
2.240000e+02 3.141733e+04
2.250000e+02 3.150048e+04
2.260000e+02 3.158408e+04
2.270000e+02 3.166908e+04
2.280000e+02 3.175449e+04
2.290000e+02 3.184138e+04
2.300000e+02 3.192865e+04
2.310000e+02 3.201722e+04
2.320000e+02 3.210660e+04
2.330000e+02 3.219671e+04
2.340000e+02 3.228800e+04
2.350000e+02 3.238019e+04
2.360000e+02 3.247314e+04
2.370000e+02 3.256703e+04
2.380000e+02 3.266187e+04
2.390000e+02 3.275769e+04
2.400000e+02 3.285528e+04
2.410000e+02 3.295070e+04
2.420000e+02 3.304958e+04
2.430000e+02 3.314926e+04
2.440000e+02 3.324979e+04
2.450000e+02 3.335263e+04
2.460000e+02 3.345326e+04
2.470000e+02 3.355675e+04
2.480000e+02 3.366120e+04
2.490000e+02 2.540079e+03
