1.000000e+00 3.100231e+04
2.000000e+00 3.985322e+04
3.000000e+00 3.929061e+04
4.000000e+00 3.865410e+04
5.000000e+00 3.809484e+04
6.000000e+00 3.754774e+04
7.000000e+00 3.704527e+04
8.000000e+00 3.657397e+04
9.000000e+00 3.611882e+04
1.000000e+01 3.568844e+04
1.100000e+01 3.528063e+04
1.200000e+01 3.488408e+04
1.300000e+01 3.450231e+04
1.400000e+01 3.412775e+04
1.500000e+01 3.376518e+04
1.600000e+01 3.340607e+04
1.700000e+01 3.305691e+04
1.800000e+01 3.270950e+04
1.900000e+01 3.237019e+04
2.000000e+01 3.203274e+04
2.100000e+01 3.169971e+04
2.200000e+01 3.137096e+04
2.300000e+01 3.104391e+04
2.400000e+01 3.072071e+04
2.500000e+01 3.040019e+04
2.600000e+01 3.008168e+04
2.700000e+01 2.976542e+04
2.800000e+01 2.945194e+04
2.900000e+01 2.914058e+04
3.000000e+01 2.883040e+04
3.100000e+01 2.852252e+04
3.200000e+01 2.821746e+04
3.300000e+01 2.791367e+04
3.400000e+01 2.761013e+04
3.500000e+01 2.730986e+04
3.600000e+01 2.701224e+04
3.700000e+01 2.671537e+04
3.800000e+01 2.641804e+04
3.900000e+01 2.612417e+04
4.000000e+01 2.583345e+04
4.100000e+01 2.554386e+04
4.200000e+01 2.525344e+04
4.300000e+01 2.496430e+04
4.400000e+01 2.467946e+04
4.500000e+01 2.439711e+04
4.600000e+01 2.411530e+04
4.700000e+01 2.383221e+04
4.800000e+01 2.355093e+04
4.900000e+01 2.327419e+04
5.000000e+01 2.300016e+04
5.100000e+01 2.272699e+04
5.200000e+01 2.245283e+04
5.300000e+01 2.217794e+04
5.400000e+01 2.190783e+04
5.500000e+01 2.164173e+04
5.600000e+01 2.137787e+04
5.700000e+01 2.111446e+04
5.800000e+01 2.084972e+04
5.900000e+01 2.058418e+04
6.000000e+01 2.032372e+04
6.100000e+01 2.006771e+04
6.200000e+01 1.981448e+04
6.300000e+01 1.956231e+04
6.400000e+01 1.930952e+04
6.500000e+01 1.905454e+04
6.600000e+01 1.880124e+04
6.700000e+01 1.855379e+04
6.800000e+01 1.831076e+04
6.900000e+01 1.807052e+04
7.000000e+01 1.783146e+04
7.100000e+01 1.759195e+04
7.200000e+01 1.735038e+04
7.300000e+01 1.710824e+04
7.400000e+01 1.687203e+04
7.500000e+01 1.664135e+04
7.600000e+01 1.641464e+04
7.700000e+01 1.619033e+04
7.800000e+01 1.596686e+04
7.900000e+01 1.574265e+04
8.000000e+01 1.551615e+04
8.100000e+01 1.528850e+04
8.200000e+01 1.506703e+04
8.300000e+01 1.485207e+04
8.400000e+01 1.464204e+04
8.500000e+01 1.443537e+04
8.600000e+01 1.423048e+04
8.700000e+01 1.402581e+04
8.800000e+01 1.381979e+04
8.900000e+01 1.361086e+04
9.000000e+01 1.340131e+04
9.100000e+01 1.319991e+04
9.200000e+01 1.300696e+04
9.300000e+01 1.282071e+04
9.400000e+01 1.263938e+04
9.500000e+01 1.246119e+04
9.600000e+01 1.228437e+04
9.700000e+01 1.210715e+04
9.800000e+01 1.192776e+04
9.900000e+01 1.174452e+04
1.000000e+02 1.156081e+04
1.010000e+02 1.138480e+04
1.020000e+02 1.121648e+04
1.030000e+02 1.105426e+04
1.040000e+02 1.089653e+04
1.050000e+02 1.074169e+04
1.060000e+02 1.058812e+04
1.070000e+02 1.043423e+04
1.080000e+02 1.027840e+04
1.090000e+02 1.011907e+04
1.100000e+02 9.958740e+03
1.110000e+02 9.805708e+03
1.120000e+02 9.660487e+03
1.130000e+02 9.521325e+03
1.140000e+02 9.386472e+03
1.150000e+02 9.254180e+03
1.160000e+02 9.122696e+03
1.170000e+02 8.990272e+03
1.180000e+02 8.855158e+03
1.190000e+02 8.716585e+03
1.200000e+02 8.582915e+03
1.210000e+02 8.459585e+03
1.220000e+02 8.344567e+03
1.230000e+02 8.235560e+03
1.240000e+02 8.130263e+03
1.250000e+02 8.026375e+03
1.260000e+02 7.921597e+03
1.270000e+02 7.813626e+03
1.280000e+02 7.701826e+03
1.290000e+02 7.596377e+03
1.300000e+02 7.501351e+03
1.310000e+02 7.414275e+03
1.320000e+02 7.332589e+03
1.330000e+02 7.253738e+03
1.340000e+02 7.175163e+03
1.350000e+02 7.094308e+03
1.360000e+02 7.009000e+03
1.370000e+02 6.926353e+03
1.380000e+02 6.854230e+03
1.390000e+02 6.790460e+03
1.400000e+02 6.732311e+03
1.410000e+02 6.677049e+03
1.420000e+02 6.621941e+03
1.430000e+02 6.564253e+03
1.440000e+02 6.502491e+03
1.450000e+02 6.446373e+03
1.460000e+02 6.399965e+03
1.470000e+02 6.360518e+03
1.480000e+02 6.325217e+03
1.490000e+02 6.291251e+03
1.500000e+02 6.255805e+03
1.510000e+02 6.216357e+03
1.520000e+02 6.179285e+03
1.530000e+02 6.151420e+03
1.540000e+02 6.130326e+03
1.550000e+02 6.113197e+03
1.560000e+02 6.097226e+03
1.570000e+02 6.079608e+03
1.580000e+02 6.058458e+03
1.590000e+02 6.041997e+03
1.600000e+02 6.033389e+03
1.610000e+02 6.029936e+03
1.620000e+02 6.028911e+03
1.630000e+02 6.027588e+03
1.640000e+02 6.023319e+03
1.650000e+02 6.020011e+03
1.660000e+02 6.023980e+03
1.670000e+02 6.033031e+03
1.680000e+02 6.044553e+03
1.690000e+02 6.055936e+03
1.700000e+02 6.064712e+03
1.710000e+02 6.075146e+03
1.720000e+02 6.091847e+03
1.730000e+02 6.112520e+03
1.740000e+02 6.134688e+03
1.750000e+02 6.155879e+03
1.760000e+02 6.175243e+03
1.770000e+02 6.199329e+03
1.780000e+02 6.227838e+03
1.790000e+02 6.258429e+03
1.800000e+02 6.288765e+03
1.810000e+02 6.317222e+03
1.820000e+02 6.349088e+03
1.830000e+02 6.385014e+03
1.840000e+02 6.422785e+03
1.850000e+02 6.460185e+03
1.860000e+02 6.496317e+03
1.870000e+02 6.536156e+03
1.880000e+02 6.579050e+03
1.890000e+02 6.622885e+03
1.900000e+02 6.665593e+03
1.910000e+02 6.709334e+03
1.920000e+02 6.756611e+03
1.930000e+02 6.805427e+03
1.940000e+02 6.853714e+03
1.950000e+02 6.901921e+03
1.960000e+02 6.953415e+03
1.970000e+02 7.006503e+03
1.980000e+02 7.059174e+03
1.990000e+02 7.112072e+03
2.000000e+02 7.167842e+03
2.010000e+02 7.224696e+03
2.020000e+02 7.280809e+03
2.030000e+02 7.338442e+03
2.040000e+02 7.398172e+03
2.050000e+02 7.458061e+03
2.060000e+02 7.517855e+03
2.070000e+02 7.579988e+03
2.080000e+02 7.642841e+03
2.090000e+02 7.705299e+03
2.100000e+02 7.769826e+03
2.110000e+02 7.835211e+03
2.120000e+02 7.900226e+03
2.130000e+02 7.967111e+03
2.140000e+02 8.034702e+03
2.150000e+02 8.102374e+03
2.160000e+02 8.171746e+03
2.170000e+02 8.241100e+03
2.180000e+02 8.311394e+03
2.190000e+02 8.382841e+03
2.200000e+02 8.454323e+03
2.210000e+02 8.527234e+03
2.220000e+02 8.600244e+03
2.230000e+02 8.674517e+03
2.240000e+02 8.748953e+03
2.250000e+02 8.824545e+03
2.260000e+02 8.900350e+03
2.270000e+02 8.977235e+03
2.280000e+02 9.054525e+03
2.290000e+02 9.132831e+03
2.300000e+02 9.211404e+03
2.310000e+02 9.290865e+03
2.320000e+02 9.370852e+03
2.330000e+02 9.451546e+03
2.340000e+02 9.532907e+03
2.350000e+02 9.615016e+03
2.360000e+02 9.697545e+03
2.370000e+02 9.780745e+03
2.380000e+02 9.864604e+03
2.390000e+02 9.949205e+03
2.400000e+02 1.003511e+04
2.410000e+02 1.011895e+04
2.420000e+02 1.020574e+04
2.430000e+02 1.029290e+04
2.440000e+02 1.038098e+04
2.450000e+02 1.047067e+04
2.460000e+02 1.055815e+04
2.470000e+02 1.064829e+04
2.480000e+02 1.073892e+04
2.490000e+02 1.632498e+03
