1.000000e+00 4.727315e+03
2.000000e+00 2.886617e+03
3.000000e+00 2.743995e+03
4.000000e+00 2.597671e+03
5.000000e+00 2.465932e+03
6.000000e+00 2.328894e+03
7.000000e+00 2.194868e+03
8.000000e+00 2.062418e+03
9.000000e+00 1.930050e+03
1.000000e+01 1.798799e+03
1.100000e+01 1.668663e+03
1.200000e+01 1.538221e+03
1.300000e+01 1.408200e+03
1.400000e+01 1.277292e+03
1.500000e+01 1.146835e+03
1.600000e+01 1.015245e+03
1.700000e+01 8.849468e+02
1.800000e+01 7.559771e+02
1.900000e+01 6.289813e+02
2.000000e+01 5.182336e+02
2.100000e+01 4.101986e+02
2.200000e+01 3.223556e+02
2.300000e+01 2.631377e+02
2.400000e+01 2.000815e+02
2.500000e+01 1.621292e+02
2.600000e+01 1.432189e+02
2.700000e+01 1.182078e+02
2.800000e+01 1.021757e+02
2.900000e+01 9.549920e+01
3.000000e+01 8.737656e+01
3.100000e+01 7.884062e+01
3.200000e+01 7.470041e+01
3.300000e+01 7.175380e+01
3.400000e+01 6.739191e+01
3.500000e+01 6.418173e+01
3.600000e+01 6.225992e+01
3.700000e+01 6.059256e+01
3.800000e+01 5.836862e+01
3.900000e+01 5.663832e+01
4.000000e+01 5.549580e+01
4.100000e+01 5.455757e+01
4.200000e+01 5.344374e+01
4.300000e+01 5.229798e+01
4.400000e+01 5.150401e+01
4.500000e+01 5.091390e+01
4.600000e+01 5.036749e+01
4.700000e+01 4.971044e+01
4.800000e+01 4.907403e+01
4.900000e+01 4.861633e+01
5.000000e+01 4.826805e+01
5.100000e+01 4.795699e+01
5.200000e+01 4.761099e+01
5.300000e+01 4.721522e+01
5.400000e+01 4.690753e+01
5.500000e+01 4.667867e+01
5.600000e+01 4.649454e+01
5.700000e+01 4.632101e+01
5.800000e+01 4.612400e+01
5.900000e+01 4.590078e+01
6.000000e+01 4.572594e+01
6.100000e+01 4.559642e+01
6.200000e+01 4.549555e+01
6.300000e+01 4.540666e+01
6.400000e+01 4.531308e+01
6.500000e+01 4.519920e+01
6.600000e+01 4.508758e+01
6.700000e+01 4.500701e+01
6.800000e+01 4.495021e+01
6.900000e+01 4.490868e+01
7.000000e+01 4.487391e+01
7.100000e+01 4.483738e+01
7.200000e+01 4.479061e+01
7.300000e+01 4.473736e+01
7.400000e+01 4.470224e+01
7.500000e+01 4.468464e+01
7.600000e+01 4.467967e+01
7.700000e+01 4.468245e+01
7.800000e+01 4.468810e+01
7.900000e+01 4.469172e+01
8.000000e+01 4.468845e+01
8.100000e+01 4.468054e+01
8.200000e+01 4.468688e+01
8.300000e+01 4.470859e+01
8.400000e+01 4.474198e+01
8.500000e+01 4.478334e+01
8.600000e+01 4.482900e+01
8.700000e+01 4.487525e+01
8.800000e+01 4.491841e+01
8.900000e+01 4.495481e+01
9.000000e+01 4.498936e+01
9.100000e+01 4.504129e+01
9.200000e+01 4.511127e+01
9.300000e+01 4.519534e+01
9.400000e+01 4.528956e+01
9.500000e+01 4.538998e+01
9.600000e+01 4.549263e+01
9.700000e+01 4.559356e+01
9.800000e+01 4.568883e+01
9.900000e+01 4.577478e+01
1.000000e+02 4.586513e+01
1.010000e+02 4.598895e+01
1.020000e+02 4.614488e+01
1.030000e+02 4.632554e+01
1.040000e+02 4.652356e+01
1.050000e+02 4.673154e+01
1.060000e+02 4.694212e+01
1.070000e+02 4.714790e+01
1.080000e+02 4.734151e+01
1.090000e+02 4.751764e+01
1.100000e+02 4.771836e+01
1.110000e+02 4.799731e+01
1.120000e+02 4.834329e+01
1.130000e+02 4.873794e+01
1.140000e+02 4.916289e+01
1.150000e+02 4.959978e+01
1.160000e+02 5.003025e+01
1.170000e+02 5.043593e+01
1.180000e+02 5.080431e+01
1.190000e+02 5.124015e+01
1.200000e+02 5.184593e+01
1.210000e+02 5.258573e+01
1.220000e+02 5.341482e+01
1.230000e+02 5.428843e+01
1.240000e+02 5.516183e+01
1.250000e+02 5.599027e+01
1.260000e+02 5.673785e+01
1.270000e+02 5.763071e+01
1.280000e+02 5.890637e+01
1.290000e+02 6.046948e+01
1.300000e+02 6.220535e+01
1.310000e+02 6.399931e+01
1.320000e+02 6.573669e+01
1.330000e+02 6.730399e+01
1.340000e+02 6.900938e+01
1.350000e+02 7.161754e+01
1.360000e+02 7.493751e+01
1.370000e+02 7.865718e+01
1.380000e+02 8.246440e+01
1.390000e+02 8.604704e+01
1.400000e+02 8.926490e+01
1.410000e+02 9.403865e+01
1.420000e+02 1.009165e+02
1.430000e+02 1.090307e+02
1.440000e+02 1.175065e+02
1.450000e+02 1.254690e+02
1.460000e+02 1.327578e+02
1.470000e+02 1.443838e+02
1.480000e+02 1.604885e+02
1.490000e+02 1.788124e+02
1.500000e+02 1.970957e+02
1.510000e+02 2.133320e+02
1.520000e+02 2.343621e+02
1.530000e+02 2.641981e+02
1.540000e+02 2.985087e+02
1.550000e+02 3.328699e+02
1.560000e+02 3.641888e+02
1.570000e+02 4.029922e+02
1.580000e+02 4.498512e+02
1.590000e+02 4.994806e+02
1.600000e+02 5.467127e+02
1.610000e+02 5.947804e+02
1.620000e+02 6.477572e+02
1.630000e+02 7.025558e+02
1.640000e+02 7.561346e+02
1.650000e+02 8.090199e+02
1.660000e+02 8.623200e+02
1.670000e+02 9.158186e+02
1.680000e+02 9.688344e+02
1.690000e+02 1.020410e+03
1.700000e+02 1.071587e+03
1.710000e+02 1.122929e+03
1.720000e+02 1.172834e+03
1.730000e+02 1.222292e+03
1.740000e+02 1.271699e+03
1.750000e+02 1.319942e+03
1.760000e+02 1.368176e+03
1.770000e+02 1.415688e+03
1.780000e+02 1.462851e+03
1.790000e+02 1.509767e+03
1.800000e+02 1.556105e+03
1.810000e+02 1.602342e+03
1.820000e+02 1.648111e+03
1.830000e+02 1.693642e+03
1.840000e+02 1.739011e+03
1.850000e+02 1.784062e+03
1.860000e+02 1.828943e+03
1.870000e+02 1.873650e+03
1.880000e+02 1.918201e+03
1.890000e+02 1.962625e+03
1.900000e+02 2.007909e+03
1.910000e+02 2.050531e+03
1.920000e+02 2.094662e+03
1.930000e+02 2.138458e+03
1.940000e+02 2.182383e+03
1.950000e+02 2.226726e+03
1.960000e+02 2.269656e+03
1.970000e+02 2.313397e+03
1.980000e+02 2.472674e+03
1.990000e+02 1.625055e+03
