1.000000e+00 5.140198e+03
2.000000e+00 5.410028e+03
3.000000e+00 5.253819e+03
4.000000e+00 5.086777e+03
5.000000e+00 4.936867e+03
6.000000e+00 4.783652e+03
7.000000e+00 4.636654e+03
8.000000e+00 4.493779e+03
9.000000e+00 4.352488e+03
1.000000e+01 4.214465e+03
1.100000e+01 4.079981e+03
1.200000e+01 3.946906e+03
1.300000e+01 3.815748e+03
1.400000e+01 3.685752e+03
1.500000e+01 3.557254e+03
1.600000e+01 3.429268e+03
1.700000e+01 3.302590e+03
1.800000e+01 3.176049e+03
1.900000e+01 3.050648e+03
2.000000e+01 2.925270e+03
2.100000e+01 2.800524e+03
2.200000e+01 2.676265e+03
2.300000e+01 2.551992e+03
2.400000e+01 2.428362e+03
2.500000e+01 2.304943e+03
2.600000e+01 2.181665e+03
2.700000e+01 2.058795e+03
2.800000e+01 1.936592e+03
2.900000e+01 1.814797e+03
3.000000e+01 1.693057e+03
3.100000e+01 1.573069e+03
3.200000e+01 1.455341e+03
3.300000e+01 1.337981e+03
3.400000e+01 1.220457e+03
3.500000e+01 1.111240e+03
3.600000e+01 1.008161e+03
3.700000e+01 9.057109e+02
3.800000e+01 8.013153e+02
3.900000e+01 7.138583e+02
4.000000e+01 6.411277e+02
4.100000e+01 5.731670e+02
4.200000e+01 5.001634e+02
4.300000e+01 4.329518e+02
4.400000e+01 3.870794e+02
4.500000e+01 3.534570e+02
4.600000e+01 3.224463e+02
4.700000e+01 2.847925e+02
4.800000e+01 2.499331e+02
4.900000e+01 2.282240e+02
5.000000e+01 2.146052e+02
5.100000e+01 2.038211e+02
5.200000e+01 1.906161e+02
5.300000e+01 1.735284e+02
5.400000e+01 1.614368e+02
5.500000e+01 1.539624e+02
5.600000e+01 1.491345e+02
5.700000e+01 1.449826e+02
5.800000e+01 1.395361e+02
5.900000e+01 1.324027e+02
6.000000e+01 1.271954e+02
6.100000e+01 1.238789e+02
6.200000e+01 1.217646e+02
6.300000e+01 1.201639e+02
6.400000e+01 1.183883e+02
6.500000e+01 1.157878e+02
6.600000e+01 1.131250e+02
6.700000e+01 1.114519e+02
6.800000e+01 1.105409e+02
6.900000e+01 1.101205e+02
7.000000e+01 1.099192e+02
7.100000e+01 1.096654e+02
7.200000e+01 1.090880e+02
7.300000e+01 1.082902e+02
7.400000e+01 1.080171e+02
7.500000e+01 1.082545e+02
7.600000e+01 1.088596e+02
7.700000e+01 1.096896e+02
7.800000e+01 1.106014e+02
7.900000e+01 1.114524e+02
8.000000e+01 1.120995e+02
8.100000e+01 1.126175e+02
8.200000e+01 1.135861e+02
8.300000e+01 1.150363e+02
8.400000e+01 1.168515e+02
8.500000e+01 1.189153e+02
8.600000e+01 1.211111e+02
8.700000e+01 1.233225e+02
8.800000e+01 1.254329e+02
8.900000e+01 1.273268e+02
9.000000e+01 1.291811e+02
9.100000e+01 1.316577e+02
9.200000e+01 1.347750e+02
9.300000e+01 1.383907e+02
9.400000e+01 1.423626e+02
9.500000e+01 1.465486e+02
9.600000e+01 1.508063e+02
9.700000e+01 1.549938e+02
9.800000e+01 1.589686e+02
9.900000e+01 1.626008e+02
1.000000e+02 1.664471e+02
1.010000e+02 1.716647e+02
1.020000e+02 1.781926e+02
1.030000e+02 1.857286e+02
1.040000e+02 1.939700e+02
1.050000e+02 2.026147e+02
1.060000e+02 2.113602e+02
1.070000e+02 2.199041e+02
1.080000e+02 2.279440e+02
1.090000e+02 2.352642e+02
1.100000e+02 2.436428e+02
1.110000e+02 2.553432e+02
1.120000e+02 2.699018e+02
1.130000e+02 2.865537e+02
1.140000e+02 3.045343e+02
1.150000e+02 3.230787e+02
1.160000e+02 3.414220e+02
1.170000e+02 3.587994e+02
1.180000e+02 3.746554e+02
1.190000e+02 3.926297e+02
1.200000e+02 4.163918e+02
1.210000e+02 4.448009e+02
1.220000e+02 4.764085e+02
1.230000e+02 5.097664e+02
1.240000e+02 5.434260e+02
1.250000e+02 5.759390e+02
1.260000e+02 6.060364e+02
1.270000e+02 6.377718e+02
1.280000e+02 6.759143e+02
1.290000e+02 7.190493e+02
1.300000e+02 7.654019e+02
1.310000e+02 8.131969e+02
1.320000e+02 8.606593e+02
1.330000e+02 9.060218e+02
1.340000e+02 9.503306e+02
1.350000e+02 9.982905e+02
1.360000e+02 1.049392e+03
1.370000e+02 1.102444e+03
1.380000e+02 1.156254e+03
1.390000e+02 1.209631e+03
1.400000e+02 1.261574e+03
1.410000e+02 1.313480e+03
1.420000e+02 1.366199e+03
1.430000e+02 1.419448e+03
1.440000e+02 1.472940e+03
1.450000e+02 1.526387e+03
1.460000e+02 1.579502e+03
1.470000e+02 1.632071e+03
1.480000e+02 1.684213e+03
1.490000e+02 1.736135e+03
1.500000e+02 1.788045e+03
1.510000e+02 1.840127e+03
1.520000e+02 1.891822e+03
1.530000e+02 1.942791e+03
1.540000e+02 1.993382e+03
1.550000e+02 2.043954e+03
1.560000e+02 2.094765e+03
1.570000e+02 2.145044e+03
1.580000e+02 2.194750e+03
1.590000e+02 2.244274e+03
1.600000e+02 2.293999e+03
1.610000e+02 2.343533e+03
1.620000e+02 2.392521e+03
1.630000e+02 2.441337e+03
1.640000e+02 2.490329e+03
1.650000e+02 2.539039e+03
1.660000e+02 2.587364e+03
1.670000e+02 2.635701e+03
1.680000e+02 2.684140e+03
1.690000e+02 2.732176e+03
1.700000e+02 2.780085e+03
1.710000e+02 2.828084e+03
1.720000e+02 2.875888e+03
1.730000e+02 2.923591e+03
1.740000e+02 2.971272e+03
1.750000e+02 3.018840e+03
1.760000e+02 3.066367e+03
1.770000e+02 3.113802e+03
1.780000e+02 3.161257e+03
1.790000e+02 3.208672e+03
1.800000e+02 3.255989e+03
1.810000e+02 3.303339e+03
1.820000e+02 3.350613e+03
1.830000e+02 3.397878e+03
1.840000e+02 3.445157e+03
1.850000e+02 3.492435e+03
1.860000e+02 3.539673e+03
1.870000e+02 3.586914e+03
1.880000e+02 3.634233e+03
1.890000e+02 3.681550e+03
1.900000e+02 3.729979e+03
1.910000e+02 3.775732e+03
1.920000e+02 3.823233e+03
1.930000e+02 3.870513e+03
1.940000e+02 3.918017e+03
1.950000e+02 3.966118e+03
1.960000e+02 4.012794e+03
1.970000e+02 4.060448e+03
1.980000e+02 4.113509e+03
1.990000e+02 1.625055e+03
