1.000000e+00 2.327706e+04
2.000000e+00 3.248568e+04
3.000000e+00 3.224217e+04
4.000000e+00 3.195929e+04
5.000000e+00 3.170637e+04
6.000000e+00 3.147053e+04
7.000000e+00 3.126662e+04
8.000000e+00 3.108542e+04
9.000000e+00 3.091398e+04
1.000000e+01 3.076039e+04
1.100000e+01 3.062499e+04
1.200000e+01 3.049682e+04
1.300000e+01 3.037971e+04
1.400000e+01 3.026733e+04
1.500000e+01 3.016357e+04
1.600000e+01 3.006168e+04
1.700000e+01 2.996726e+04
1.800000e+01 2.987289e+04
1.900000e+01 2.978513e+04
2.000000e+01 2.969697e+04
2.100000e+01 2.961228e+04
2.200000e+01 2.953025e+04
2.300000e+01 2.944794e+04
2.400000e+01 2.936949e+04
2.500000e+01 2.929137e+04
2.600000e+01 2.921355e+04
2.700000e+01 2.913821e+04
2.800000e+01 2.906335e+04
2.900000e+01 2.898886e+04
3.000000e+01 2.891584e+04
3.100000e+01 2.884379e+04
3.200000e+01 2.877190e+04
3.300000e+01 2.870056e+04
3.400000e+01 2.863011e+04
3.500000e+01 2.856021e+04
3.600000e+01 2.849077e+04
3.700000e+01 2.842181e+04
3.800000e+01 2.835336e+04
3.900000e+01 2.828546e+04
4.000000e+01 2.821801e+04
4.100000e+01 2.815085e+04
4.200000e+01 2.808385e+04
4.300000e+01 2.801727e+04
4.400000e+01 2.795141e+04
4.500000e+01 2.788602e+04
4.600000e+01 2.782083e+04
4.700000e+01 2.775559e+04
4.800000e+01 2.769076e+04
4.900000e+01 2.762671e+04
5.000000e+01 2.756314e+04
5.100000e+01 2.749975e+04
5.200000e+01 2.743621e+04
5.300000e+01 2.737259e+04
5.400000e+01 2.730985e+04
5.500000e+01 2.724786e+04
5.600000e+01 2.718628e+04
5.700000e+01 2.712482e+04
5.800000e+01 2.706314e+04
5.900000e+01 2.700133e+04
6.000000e+01 2.694038e+04
6.100000e+01 2.688019e+04
6.200000e+01 2.682047e+04
6.300000e+01 2.676096e+04
6.400000e+01 2.670138e+04
6.500000e+01 2.664147e+04
6.600000e+01 2.658185e+04
6.700000e+01 2.652318e+04
6.800000e+01 2.646524e+04
6.900000e+01 2.640775e+04
7.000000e+01 2.635044e+04
7.100000e+01 2.629304e+04
7.200000e+01 2.623529e+04
7.300000e+01 2.617743e+04
7.400000e+01 2.612049e+04
7.500000e+01 2.606444e+04
7.600000e+01 2.600902e+04
7.700000e+01 2.595399e+04
7.800000e+01 2.589909e+04
7.900000e+01 2.584409e+04
8.000000e+01 2.578874e+04
8.100000e+01 2.573318e+04
8.200000e+01 2.567851e+04
8.300000e+01 2.562476e+04
8.400000e+01 2.557171e+04
8.500000e+01 2.551915e+04
8.600000e+01 2.546684e+04
8.700000e+01 2.541458e+04
8.800000e+01 2.536212e+04
8.900000e+01 2.530926e+04
9.000000e+01 2.525636e+04
9.100000e+01 2.520480e+04
9.200000e+01 2.515461e+04
9.300000e+01 2.510551e+04
9.400000e+01 2.505722e+04
9.500000e+01 2.500944e+04
9.600000e+01 2.496189e+04
9.700000e+01 2.491429e+04
9.800000e+01 2.486636e+04
9.900000e+01 2.481781e+04
1.000000e+02 2.476905e+04
1.010000e+02 2.472113e+04
1.020000e+02 2.467405e+04
1.030000e+02 2.462765e+04
1.040000e+02 2.458175e+04
1.050000e+02 2.453615e+04
1.060000e+02 2.449068e+04
1.070000e+02 2.444516e+04
1.080000e+02 2.439941e+04
1.090000e+02 2.435327e+04
1.100000e+02 2.430716e+04
1.110000e+02 2.426169e+04
1.120000e+02 2.421679e+04
1.130000e+02 2.417230e+04
1.140000e+02 2.412808e+04
1.150000e+02 2.408396e+04
1.160000e+02 2.403979e+04
1.170000e+02 2.399543e+04
1.180000e+02 2.395076e+04
1.190000e+02 2.390648e+04
1.200000e+02 2.386331e+04
1.210000e+02 2.382102e+04
1.220000e+02 2.377935e+04
1.230000e+02 2.373802e+04
1.240000e+02 2.369674e+04
1.250000e+02 2.365525e+04
1.260000e+02 2.361330e+04
1.270000e+02 2.357159e+04
1.280000e+02 2.353096e+04
1.290000e+02 2.349119e+04
1.300000e+02 2.345195e+04
1.310000e+02 2.341295e+04
1.320000e+02 2.337388e+04
1.330000e+02 2.333443e+04
1.340000e+02 2.329494e+04
1.350000e+02 2.325648e+04
1.360000e+02 2.321887e+04
1.370000e+02 2.318176e+04
1.380000e+02 2.314482e+04
1.390000e+02 2.310771e+04
1.400000e+02 2.307018e+04
1.410000e+02 2.303326e+04
1.420000e+02 2.299735e+04
1.430000e+02 2.296205e+04
1.440000e+02 2.292698e+04
1.450000e+02 2.289175e+04
1.460000e+02 2.285615e+04
1.470000e+02 2.282131e+04
1.480000e+02 2.278736e+04
1.490000e+02 2.275386e+04
1.500000e+02 2.272041e+04
1.510000e+02 2.268660e+04
1.520000e+02 2.265321e+04
1.530000e+02 2.262079e+04
1.540000e+02 2.258885e+04
1.550000e+02 2.255689e+04
1.560000e+02 2.252457e+04
1.570000e+02 2.249299e+04
1.580000e+02 2.246221e+04
1.590000e+02 2.243170e+04
1.600000e+02 2.240095e+04
1.610000e+02 2.237048e+04
1.620000e+02 2.234082e+04
1.630000e+02 2.231148e+04
1.640000e+02 2.228202e+04
1.650000e+02 2.225309e+04
1.660000e+02 2.222478e+04
1.670000e+02 2.219646e+04
1.680000e+02 2.216805e+04
1.690000e+02 2.214052e+04
1.700000e+02 2.211334e+04
1.710000e+02 2.208612e+04
1.720000e+02 2.205946e+04
1.730000e+02 2.203312e+04
1.740000e+02 2.200699e+04
1.750000e+02 2.198132e+04
1.760000e+02 2.195565e+04
1.770000e+02 2.193065e+04
1.780000e+02 2.190585e+04
1.790000e+02 2.188120e+04
1.800000e+02 2.185706e+04
1.810000e+02 2.183316e+04
1.820000e+02 2.180957e+04
1.830000e+02 2.178632e+04
1.840000e+02 2.176332e+04
1.850000e+02 2.174074e+04
1.860000e+02 2.171854e+04
1.870000e+02 2.169629e+04
1.880000e+02 2.167463e+04
1.890000e+02 2.165333e+04
1.900000e+02 2.163167e+04
1.910000e+02 2.161162e+04
1.920000e+02 2.159108e+04
1.930000e+02 2.157110e+04
1.940000e+02 2.155096e+04
1.950000e+02 2.153131e+04
1.960000e+02 2.151236e+04
1.970000e+02 2.149331e+04
1.980000e+02 2.147462e+04
1.990000e+02 1.622878e+03
