1.000000e+00 6.057698e+04
2.000000e+00 7.005195e+04
3.000000e+00 6.925425e+04
4.000000e+00 6.842894e+04
5.000000e+00 6.771430e+04
6.000000e+00 6.703827e+04
7.000000e+00 6.643943e+04
8.000000e+00 6.589501e+04
9.000000e+00 6.537990e+04
1.000000e+01 6.490735e+04
1.100000e+01 6.447390e+04
1.200000e+01 6.406013e+04
1.300000e+01 6.367184e+04
1.400000e+01 6.329627e+04
1.500000e+01 6.294094e+04
1.600000e+01 6.259228e+04
1.700000e+01 6.226049e+04
1.800000e+01 6.193217e+04
1.900000e+01 6.161713e+04
2.000000e+01 6.130574e+04
2.100000e+01 6.100198e+04
2.200000e+01 6.070551e+04
2.300000e+01 6.041201e+04
2.400000e+01 6.012465e+04
2.500000e+01 5.984210e+04
2.600000e+01 5.956312e+04
2.700000e+01 5.928763e+04
2.800000e+01 5.901697e+04
2.900000e+01 5.875004e+04
3.000000e+01 5.848492e+04
3.100000e+01 5.822364e+04
3.200000e+01 5.796723e+04
3.300000e+01 5.771281e+04
3.400000e+01 5.745851e+04
3.500000e+01 5.720980e+04
3.600000e+01 5.696565e+04
3.700000e+01 5.672274e+04
3.800000e+01 5.647888e+04
3.900000e+01 5.624069e+04
4.000000e+01 5.600768e+04
4.100000e+01 5.577654e+04
4.200000e+01 5.554402e+04
4.300000e+01 5.531351e+04
4.400000e+01 5.508993e+04
4.500000e+01 5.487031e+04
4.600000e+01 5.465149e+04
4.700000e+01 5.443050e+04
4.800000e+01 5.421230e+04
4.900000e+01 5.400127e+04
5.000000e+01 5.379456e+04
5.100000e+01 5.358927e+04
5.200000e+01 5.338246e+04
5.300000e+01 5.317447e+04
5.400000e+01 5.297362e+04
5.500000e+01 5.277880e+04
5.600000e+01 5.258734e+04
5.700000e+01 5.239661e+04
5.800000e+01 5.220395e+04
5.900000e+01 5.201006e+04
6.000000e+01 5.182345e+04
6.100000e+01 5.164327e+04
6.200000e+01 5.146710e+04
6.300000e+01 5.129252e+04
6.400000e+01 5.111710e+04
6.500000e+01 5.093862e+04
6.600000e+01 5.076235e+04
6.700000e+01 5.059408e+04
6.800000e+01 5.043186e+04
6.900000e+01 5.027348e+04
7.000000e+01 5.011673e+04
7.100000e+01 4.995940e+04
7.200000e+01 4.979929e+04
7.300000e+01 4.963827e+04
7.400000e+01 4.948487e+04
7.500000e+01 4.933858e+04
7.600000e+01 4.919740e+04
7.700000e+01 4.905934e+04
7.800000e+01 4.892238e+04
7.900000e+01 4.878453e+04
8.000000e+01 4.864378e+04
8.100000e+01 4.850142e+04
8.200000e+01 4.836629e+04
8.300000e+01 4.823881e+04
8.400000e+01 4.811717e+04
8.500000e+01 4.799952e+04
8.600000e+01 4.788403e+04
8.700000e+01 4.776886e+04
8.800000e+01 4.765219e+04
8.900000e+01 4.753220e+04
9.000000e+01 4.741116e+04
9.100000e+01 4.729825e+04
9.200000e+01 4.719388e+04
9.300000e+01 4.709626e+04
9.400000e+01 4.700361e+04
9.500000e+01 4.691414e+04
9.600000e+01 4.682608e+04
9.700000e+01 4.673765e+04
9.800000e+01 4.664705e+04
9.900000e+01 4.655259e+04
1.000000e+02 4.645757e+04
1.010000e+02 4.636994e+04
1.020000e+02 4.628970e+04
1.030000e+02 4.621524e+04
1.040000e+02 4.614498e+04
1.050000e+02 4.607732e+04
1.060000e+02 4.601066e+04
1.070000e+02 4.594342e+04
1.080000e+02 4.587398e+04
1.090000e+02 4.580103e+04
1.100000e+02 4.572942e+04
1.110000e+02 4.566588e+04
1.120000e+02 4.560943e+04
1.130000e+02 4.555825e+04
1.140000e+02 4.551049e+04
1.150000e+02 4.546433e+04
1.160000e+02 4.541792e+04
1.170000e+02 4.536944e+04
1.180000e+02 4.531742e+04
1.190000e+02 4.526793e+04
1.200000e+02 4.522742e+04
1.210000e+02 4.519418e+04
1.220000e+02 4.516595e+04
1.230000e+02 4.514048e+04
1.240000e+02 4.511554e+04
1.250000e+02 4.508887e+04
1.260000e+02 4.505848e+04
1.270000e+02 4.503008e+04
1.280000e+02 4.501051e+04
1.290000e+02 4.499778e+04
1.300000e+02 4.498940e+04
1.310000e+02 4.498288e+04
1.320000e+02 4.497571e+04
1.330000e+02 4.496542e+04
1.340000e+02 4.495462e+04
1.350000e+02 4.495217e+04
1.360000e+02 4.495663e+04
1.370000e+02 4.496524e+04
1.380000e+02 4.497524e+04
1.390000e+02 4.498388e+04
1.400000e+02 4.498922e+04
1.410000e+02 4.499939e+04
1.420000e+02 4.501746e+04
1.430000e+02 4.504040e+04
1.440000e+02 4.506516e+04
1.450000e+02 4.508870e+04
1.460000e+02 4.510937e+04
1.470000e+02 4.513614e+04
1.480000e+02 4.516994e+04
1.490000e+02 4.520741e+04
1.500000e+02 4.524515e+04
1.510000e+02 4.528004e+04
1.520000e+02 4.531813e+04
1.530000e+02 4.536369e+04
1.540000e+02 4.541306e+04
1.550000e+02 4.546250e+04
1.560000e+02 4.550934e+04
1.570000e+02 4.556175e+04
1.580000e+02 4.562025e+04
1.590000e+02 4.568075e+04
1.600000e+02 4.573931e+04
1.610000e+02 4.580057e+04
1.620000e+02 4.586843e+04
1.630000e+02 4.593846e+04
1.640000e+02 4.600651e+04
1.650000e+02 4.607864e+04
1.660000e+02 4.615627e+04
1.670000e+02 4.623453e+04
1.680000e+02 4.631253e+04
1.690000e+02 4.639674e+04
1.700000e+02 4.648282e+04
1.710000e+02 4.656820e+04
1.720000e+02 4.665961e+04
1.730000e+02 4.675256e+04
1.740000e+02 4.684570e+04
1.750000e+02 4.694456e+04
1.760000e+02 4.704294e+04
1.770000e+02 4.714541e+04
1.780000e+02 4.725019e+04
1.790000e+02 4.735650e+04
1.800000e+02 4.746633e+04
1.810000e+02 4.757760e+04
1.820000e+02 4.769172e+04
1.830000e+02 4.780815e+04
1.840000e+02 4.792662e+04
1.850000e+02 4.804824e+04
1.860000e+02 4.817176e+04
1.870000e+02 4.829727e+04
1.880000e+02 4.842552e+04
1.890000e+02 4.855640e+04
1.900000e+02 4.869262e+04
1.910000e+02 4.882358e+04
1.920000e+02 4.896169e+04
1.930000e+02 4.910163e+04
1.940000e+02 4.924408e+04
1.950000e+02 4.939079e+04
1.960000e+02 4.953527e+04
1.970000e+02 4.968472e+04
1.980000e+02 4.983645e+04
1.990000e+02 1.646154e+03
