1 11202.7623558
2 12508.9240906
3 12097.7540742
4 11691.531535
5 11333.2212566
6 10969.5696385
7 10622.7312338
8 10287.3247129
9 9958.4785484
10 9638.90922204
11 9328.62390431
12 9023.94273318
13 8725.12926101
14 8431.55761471
15 8142.48425973
16 7857.72596379
17 7576.5981465
18 7299.60163208
19 7025.20227665
20 6755.17255196
21 6487.31181292
22 6222.66304846
23 5962.04930793
24 5702.07679723
25 5446.89099025
26 5195.08719777
27 4943.05186352
28 4696.59688156
29 4454.35153323
30 4211.50859484
31 3973.00141398
32 3742.13319137
33 3513.04211076
34 3282.28728417
35 3063.7389095
36 2854.71721206
37 2646.91515145
38 2435.86823093
39 2245.58152178
40 2073.49390923
41 1907.08618979
42 1734.04593609
43 1571.67462773
44 1442.32535559
45 1331.69789284
46 1224.68082857
47 1106.89836362
48 999.504488626
49 922.173010692
50 863.194419797
51 810.464923244
52 751.880728334
53 685.570682963
54 636.509226488
55 602.677637282
56 577.541934619
57 554.56813777
58 527.222266009
59 494.642782673
60 470.106018122
61 453.232214826
62 441.227834461
63 431.2993387
64 420.653189221
65 406.655341941
66 392.512214549
67 382.583857084
68 375.901279652
69 371.312774797
70 367.666635066
71 363.811153004
72 358.596387136
73 352.380376364
74 348.133442736
75 345.828861038
76 344.9289372
77 344.895977156
78 345.192286835
79 345.280172169
80 344.622137053
81 343.401202573
82 343.492359395
83 345.024445121
84 347.652455633
85 351.031386811
86 354.816234537
87 358.661994692
88 362.223663156
89 365.158805739
90 367.902852608
91 372.192284093
92 378.090001818
93 385.240227222
94 393.287181745
95 401.875086827
96 410.648163909
97 419.25063443
98 427.326719831
99 434.550416016
100 442.273605004
101 453.318129542
102 467.532695305
103 484.177167678
104 502.511412051
105 521.79529381
106 541.288678342
107 560.251431036
108 577.943417279
109 593.851392918
110 612.688948568
111 640.4010213
112 675.712654889
113 716.551125024
114 760.843707395
115 806.517677693
116 851.500311608
117 893.718884829
118 931.744221067
119 977.043913294
120 1040.95152153
121 1119.72781553
122 1208.67037365
123 1303.07677426
124 1398.24459571
125 1489.47141635
126 1572.71282535
127 1663.42663665
128 1779.21510526
129 1914.45372767
130 2062.16521257
131 2215.37226869
132 2367.09760474
133 2510.39837756
134 2650.55895682
135 2808.35139242
136 2981.09874407
137 3163.07342865
138 3348.54786302
139 3531.79446406
140 3708.15155019
141 3886.32115543
142 4070.83045821
143 4259.36934735
144 4449.59409572
145 4639.16097622
146 4826.27102667
147 5013.52410538
148 5201.76234025
149 5390.52178827
150 5579.3384891
151 5767.76455652
152 5955.94924365
153 6144.19077298
154 6332.43586906
155 6520.62713508
156 6708.73708084
157 6897.03523622
158 7085.53212458
159 7274.0980461
160 7462.61114624
161 7651.48424462
162 7840.94565462
163 8030.62092743
164 8220.16892186
165 8410.28618423
166 8601.14927536
167 8792.27214937
168 8983.66236443
169 9176.08921828
170 9368.79267304
171 9561.54100424
172 9756.03002725
173 9950.68172426
174 10145.2823087
175 10341.9515271
176 10538.2449388
177 10735.910101
178 10934.5030651
179 11133.6403852
180 11333.9004349
181 11534.8263891
182 11736.6419621
183 11939.4089665
184 12143.127102
185 12348.2351212
186 12553.9243724
187 12760.5491431
188 12968.5350744
189 13177.7401616
190 13392.8362665
191 13597.045266
192 13810.1305349
193 14023.230106
194 14238.1220443
195 14456.8021096
196 14669.9891881
197 14888.7895199
198 15108.7910893
199 1646.10290146
