1.000000e+00 4.958636e+04
2.000000e+00 5.904406e+04
3.000000e+00 5.831156e+04
4.000000e+00 5.755814e+04
5.000000e+00 5.690501e+04
6.000000e+00 5.628249e+04
7.000000e+00 5.572651e+04
8.000000e+00 5.521721e+04
9.000000e+00 5.473344e+04
1.000000e+01 5.428594e+04
1.100000e+01 5.387216e+04
1.200000e+01 5.347542e+04
1.300000e+01 5.310081e+04
1.400000e+01 5.273735e+04
1.500000e+01 5.239160e+04
1.600000e+01 5.205179e+04
1.700000e+01 5.172675e+04
1.800000e+01 5.140513e+04
1.900000e+01 5.109493e+04
2.000000e+01 5.078861e+04
2.100000e+01 5.048891e+04
2.200000e+01 5.019567e+04
2.300000e+01 4.990575e+04
2.400000e+01 4.962128e+04
2.500000e+01 4.934147e+04
2.600000e+01 4.906506e+04
2.700000e+01 4.879158e+04
2.800000e+01 4.852309e+04
2.900000e+01 4.825836e+04
3.000000e+01 4.799497e+04
3.100000e+01 4.773532e+04
3.200000e+01 4.748083e+04
3.300000e+01 4.722829e+04
3.400000e+01 4.697557e+04
3.500000e+01 4.672860e+04
3.600000e+01 4.648632e+04
3.700000e+01 4.624522e+04
3.800000e+01 4.600299e+04
3.900000e+01 4.576661e+04
4.000000e+01 4.553556e+04
4.100000e+01 4.530636e+04
4.200000e+01 4.507557e+04
4.300000e+01 4.484679e+04
4.400000e+01 4.462527e+04
4.500000e+01 4.440789e+04
4.600000e+01 4.419135e+04
4.700000e+01 4.397251e+04
4.800000e+01 4.375653e+04
4.900000e+01 4.354794e+04
5.000000e+01 4.334380e+04
5.100000e+01 4.314108e+04
5.200000e+01 4.293674e+04
5.300000e+01 4.273112e+04
5.400000e+01 4.253297e+04
5.500000e+01 4.234110e+04
5.600000e+01 4.215272e+04
5.700000e+01 4.196505e+04
5.800000e+01 4.177531e+04
5.900000e+01 4.158424e+04
6.000000e+01 4.140075e+04
6.100000e+01 4.122398e+04
6.200000e+01 4.105139e+04
6.300000e+01 4.088046e+04
6.400000e+01 4.070867e+04
6.500000e+01 4.053370e+04
6.600000e+01 4.036103e+04
6.700000e+01 4.019665e+04
6.800000e+01 4.003855e+04
6.900000e+01 3.988442e+04
7.000000e+01 3.973196e+04
7.100000e+01 3.957887e+04
7.200000e+01 3.942286e+04
7.300000e+01 3.926589e+04
7.400000e+01 3.911687e+04
7.500000e+01 3.897528e+04
7.600000e+01 3.883904e+04
7.700000e+01 3.870605e+04
7.800000e+01 3.857422e+04
7.900000e+01 3.844148e+04
8.000000e+01 3.830573e+04
8.100000e+01 3.816828e+04
8.200000e+01 3.803833e+04
8.300000e+01 3.791633e+04
8.400000e+01 3.780038e+04
8.500000e+01 3.768858e+04
8.600000e+01 3.757905e+04
8.700000e+01 3.746989e+04
8.800000e+01 3.735921e+04
8.900000e+01 3.724512e+04
9.000000e+01 3.712996e+04
9.100000e+01 3.702312e+04
9.200000e+01 3.692502e+04
9.300000e+01 3.683384e+04
9.400000e+01 3.674774e+04
9.500000e+01 3.666491e+04
9.600000e+01 3.658352e+04
9.700000e+01 3.650174e+04
9.800000e+01 3.641775e+04
9.900000e+01 3.632981e+04
1.000000e+02 3.624134e+04
1.010000e+02 3.616056e+04
1.020000e+02 3.608745e+04
1.030000e+02 3.602037e+04
1.040000e+02 3.595764e+04
1.050000e+02 3.589761e+04
1.060000e+02 3.583863e+04
1.070000e+02 3.577902e+04
1.080000e+02 3.571714e+04
1.090000e+02 3.565161e+04
1.100000e+02 3.558748e+04
1.110000e+02 3.553180e+04
1.120000e+02 3.548354e+04
1.130000e+02 3.544079e+04
1.140000e+02 3.540163e+04
1.150000e+02 3.536413e+04
1.160000e+02 3.532640e+04
1.170000e+02 3.528650e+04
1.180000e+02 3.524292e+04
1.190000e+02 3.520193e+04
1.200000e+02 3.517021e+04
1.210000e+02 3.514601e+04
1.220000e+02 3.512697e+04
1.230000e+02 3.511079e+04
1.240000e+02 3.509514e+04
1.250000e+02 3.507768e+04
1.260000e+02 3.505637e+04
1.270000e+02 3.503708e+04
1.280000e+02 3.502687e+04
1.290000e+02 3.502372e+04
1.300000e+02 3.502505e+04
1.310000e+02 3.502831e+04
1.320000e+02 3.503095e+04
1.330000e+02 3.503040e+04
1.340000e+02 3.502933e+04
1.350000e+02 3.503677e+04
1.360000e+02 3.505125e+04
1.370000e+02 3.506998e+04
1.380000e+02 3.509016e+04
1.390000e+02 3.510898e+04
1.400000e+02 3.512449e+04
1.410000e+02 3.514489e+04
1.420000e+02 3.517330e+04
1.430000e+02 3.520666e+04
1.440000e+02 3.524189e+04
1.450000e+02 3.527589e+04
1.460000e+02 3.530701e+04
1.470000e+02 3.534431e+04
1.480000e+02 3.538873e+04
1.490000e+02 3.543686e+04
1.500000e+02 3.548529e+04
1.510000e+02 3.553087e+04
1.520000e+02 3.557967e+04
1.530000e+02 3.563600e+04
1.540000e+02 3.569621e+04
1.550000e+02 3.575658e+04
1.560000e+02 3.581441e+04
1.570000e+02 3.587788e+04
1.580000e+02 3.594743e+04
1.590000e+02 3.601890e+04
1.600000e+02 3.608825e+04
1.610000e+02 3.616037e+04
1.620000e+02 3.623934e+04
1.630000e+02 3.632056e+04
1.640000e+02 3.639974e+04
1.650000e+02 3.648301e+04
1.660000e+02 3.657181e+04
1.670000e+02 3.666113e+04
1.680000e+02 3.675012e+04
1.690000e+02 3.684558e+04
1.700000e+02 3.694292e+04
1.710000e+02 3.703941e+04
1.720000e+02 3.714202e+04
1.730000e+02 3.724618e+04
1.740000e+02 3.735045e+04
1.750000e+02 3.746047e+04
1.760000e+02 3.757020e+04
1.770000e+02 3.768387e+04
1.780000e+02 3.779980e+04
1.790000e+02 3.791739e+04
1.800000e+02 3.803832e+04
1.810000e+02 3.816077e+04
1.820000e+02 3.828606e+04
1.830000e+02 3.841359e+04
1.840000e+02 3.854325e+04
1.850000e+02 3.867605e+04
1.860000e+02 3.881051e+04
1.870000e+02 3.894728e+04
1.880000e+02 3.908670e+04
1.890000e+02 3.922848e+04
1.900000e+02 3.937613e+04
1.910000e+02 3.951773e+04
1.920000e+02 3.966700e+04
1.930000e+02 3.981781e+04
1.940000e+02 3.997131e+04
1.950000e+02 4.012913e+04
1.960000e+02 4.028449e+04
1.970000e+02 4.044486e+04
1.980000e+02 4.060754e+04
1.990000e+02 1.646129e+03
