1.000000e+00 1.745556e+04
2.000000e+00 2.584071e+04
3.000000e+00 2.558147e+04
4.000000e+00 2.527870e+04
5.000000e+00 2.500910e+04
6.000000e+00 2.474983e+04
7.000000e+00 2.451732e+04
8.000000e+00 2.430358e+04
9.000000e+00 2.409838e+04
1.000000e+01 2.390809e+04
1.100000e+01 2.373255e+04
1.200000e+01 2.356343e+04
1.300000e+01 2.340327e+04
1.400000e+01 2.324738e+04
1.500000e+01 2.309887e+04
1.600000e+01 2.295202e+04
1.700000e+01 2.281130e+04
1.800000e+01 2.267120e+04
1.900000e+01 2.253624e+04
2.000000e+01 2.240167e+04
2.100000e+01 2.226989e+04
2.200000e+01 2.214038e+04
2.300000e+01 2.201125e+04
2.400000e+01 2.188519e+04
2.500000e+01 2.175977e+04
2.600000e+01 2.163493e+04
2.700000e+01 2.151211e+04
2.800000e+01 2.139021e+04
2.900000e+01 2.126889e+04
3.000000e+01 2.114851e+04
3.100000e+01 2.102921e+04
3.200000e+01 2.091078e+04
3.300000e+01 2.079300e+04
3.400000e+01 2.067575e+04
3.500000e+01 2.055952e+04
3.600000e+01 2.044412e+04
3.700000e+01 2.032916e+04
3.800000e+01 2.021440e+04
3.900000e+01 2.010076e+04
4.000000e+01 1.998809e+04
4.100000e+01 1.987583e+04
4.200000e+01 1.976345e+04
4.300000e+01 1.965158e+04
4.400000e+01 1.954114e+04
4.500000e+01 1.943152e+04
4.600000e+01 1.932212e+04
4.700000e+01 1.921236e+04
4.800000e+01 1.910326e+04
4.900000e+01 1.899566e+04
5.000000e+01 1.888898e+04
5.100000e+01 1.878258e+04
5.200000e+01 1.867583e+04
5.300000e+01 1.856884e+04
5.400000e+01 1.846344e+04
5.500000e+01 1.835940e+04
5.600000e+01 1.825610e+04
5.700000e+01 1.815297e+04
5.800000e+01 1.804941e+04
5.900000e+01 1.794558e+04
6.000000e+01 1.784334e+04
6.100000e+01 1.774252e+04
6.200000e+01 1.764258e+04
6.300000e+01 1.754299e+04
6.400000e+01 1.744321e+04
6.500000e+01 1.734275e+04
6.600000e+01 1.724281e+04
6.700000e+01 1.714466e+04
6.800000e+01 1.704788e+04
6.900000e+01 1.695197e+04
7.000000e+01 1.685643e+04
7.100000e+01 1.676075e+04
7.200000e+01 1.666445e+04
7.300000e+01 1.656794e+04
7.400000e+01 1.647318e+04
7.500000e+01 1.638003e+04
7.600000e+01 1.628805e+04
7.700000e+01 1.619678e+04
7.800000e+01 1.610577e+04
7.900000e+01 1.601456e+04
8.000000e+01 1.592268e+04
8.100000e+01 1.583046e+04
8.200000e+01 1.573996e+04
8.300000e+01 1.565126e+04
8.400000e+01 1.556393e+04
8.500000e+01 1.547753e+04
8.600000e+01 1.539162e+04
8.700000e+01 1.530577e+04
8.800000e+01 1.521953e+04
8.900000e+01 1.513247e+04
9.000000e+01 1.504526e+04
9.100000e+01 1.496040e+04
9.200000e+01 1.487797e+04
9.300000e+01 1.479748e+04
9.400000e+01 1.471841e+04
9.500000e+01 1.464025e+04
9.600000e+01 1.456249e+04
9.700000e+01 1.448461e+04
9.800000e+01 1.440612e+04
9.900000e+01 1.432653e+04
1.000000e+02 1.424668e+04
1.010000e+02 1.416872e+04
1.020000e+02 1.409267e+04
1.030000e+02 1.401813e+04
1.040000e+02 1.394470e+04
1.050000e+02 1.387200e+04
1.060000e+02 1.379964e+04
1.070000e+02 1.372720e+04
1.080000e+02 1.365431e+04
1.090000e+02 1.358057e+04
1.100000e+02 1.350648e+04
1.110000e+02 1.343382e+04
1.120000e+02 1.336272e+04
1.130000e+02 1.329282e+04
1.140000e+02 1.322377e+04
1.150000e+02 1.315522e+04
1.160000e+02 1.308681e+04
1.170000e+02 1.301820e+04
1.180000e+02 1.294903e+04
1.190000e+02 1.287915e+04
1.200000e+02 1.281041e+04
1.210000e+02 1.274396e+04
1.220000e+02 1.267935e+04
1.230000e+02 1.261609e+04
1.240000e+02 1.255365e+04
1.250000e+02 1.249154e+04
1.260000e+02 1.242924e+04
1.270000e+02 1.236625e+04
1.280000e+02 1.230242e+04
1.290000e+02 1.223996e+04
1.300000e+02 1.217975e+04
1.310000e+02 1.212128e+04
1.320000e+02 1.206398e+04
1.330000e+02 1.200731e+04
1.340000e+02 1.195072e+04
1.350000e+02 1.189366e+04
1.360000e+02 1.183567e+04
1.370000e+02 1.177829e+04
1.380000e+02 1.172324e+04
1.390000e+02 1.167004e+04
1.400000e+02 1.161807e+04
1.410000e+02 1.156673e+04
1.420000e+02 1.151541e+04
1.430000e+02 1.146352e+04
1.440000e+02 1.141072e+04
1.450000e+02 1.135931e+04
1.460000e+02 1.131024e+04
1.470000e+02 1.126283e+04
1.480000e+02 1.121639e+04
1.490000e+02 1.117024e+04
1.500000e+02 1.112368e+04
1.510000e+02 1.107611e+04
1.520000e+02 1.102921e+04
1.530000e+02 1.098474e+04
1.540000e+02 1.094205e+04
1.550000e+02 1.090040e+04
1.560000e+02 1.085903e+04
1.570000e+02 1.081720e+04
1.580000e+02 1.077442e+04
1.590000e+02 1.073302e+04
1.600000e+02 1.069388e+04
1.610000e+02 1.065623e+04
1.620000e+02 1.061926e+04
1.630000e+02 1.058219e+04
1.640000e+02 1.054426e+04
1.650000e+02 1.050671e+04
1.660000e+02 1.047152e+04
1.670000e+02 1.043796e+04
1.680000e+02 1.040519e+04
1.690000e+02 1.037235e+04
1.700000e+02 1.033864e+04
1.710000e+02 1.030561e+04
1.720000e+02 1.027485e+04
1.730000e+02 1.024553e+04
1.740000e+02 1.021673e+04
1.750000e+02 1.018758e+04
1.760000e+02 1.015781e+04
1.770000e+02 1.013000e+04
1.780000e+02 1.010399e+04
1.790000e+02 1.007881e+04
1.800000e+02 1.005348e+04
1.810000e+02 1.002736e+04
1.820000e+02 1.000288e+04
1.830000e+02 9.980287e+03
1.840000e+02 9.958551e+03
1.850000e+02 9.936623e+03
1.860000e+02 9.914112e+03
1.870000e+02 9.893523e+03
1.880000e+02 9.874502e+03
1.890000e+02 9.855956e+03
1.900000e+02 9.836822e+03
1.910000e+02 9.818314e+03
1.920000e+02 9.801781e+03
1.930000e+02 9.786120e+03
1.940000e+02 9.770183e+03
1.950000e+02 9.754288e+03
1.960000e+02 9.740383e+03
1.970000e+02 9.727426e+03
1.980000e+02 9.714187e+03
1.990000e+02 9.701150e+03
2.000000e+02 9.690033e+03
2.010000e+02 9.679637e+03
2.020000e+02 9.668745e+03
2.030000e+02 9.658961e+03
2.040000e+02 9.650657e+03
2.050000e+02 9.642439e+03
2.060000e+02 9.634171e+03
2.070000e+02 9.627681e+03
2.080000e+02 9.621728e+03
2.090000e+02 9.615465e+03
2.100000e+02 9.610810e+03
2.110000e+02 9.606825e+03
2.120000e+02 9.602583e+03
2.130000e+02 9.599898e+03
2.140000e+02 9.597715e+03
2.150000e+02 9.595524e+03
2.160000e+02 9.594835e+03
2.170000e+02 9.594186e+03
2.180000e+02 9.594344e+03
2.190000e+02 9.595420e+03
2.200000e+02 9.596489e+03
2.210000e+02 9.598883e+03
2.220000e+02 9.601246e+03
2.230000e+02 9.604773e+03
2.240000e+02 9.608503e+03
2.250000e+02 9.613179e+03
2.260000e+02 9.618152e+03
2.270000e+02 9.624034e+03
2.280000e+02 9.630188e+03
2.290000e+02 9.637307e+03
2.300000e+02 9.644681e+03
2.310000e+02 9.652868e+03
2.320000e+02 9.661581e+03
2.330000e+02 9.670758e+03
2.340000e+02 9.680666e+03
2.350000e+02 9.691164e+03
2.360000e+02 9.702113e+03
2.370000e+02 9.713644e+03
2.380000e+02 9.725777e+03
2.390000e+02 9.738489e+03
2.400000e+02 9.751883e+03
2.410000e+02 9.765365e+03
2.420000e+02 9.779783e+03
2.430000e+02 9.794712e+03
2.440000e+02 9.810176e+03
2.450000e+02 9.826392e+03
2.460000e+02 9.842636e+03
2.470000e+02 9.859731e+03
2.480000e+02 9.877324e+03
2.490000e+02 1.625051e+03
