1.000000e+00 1.372041e+04
2.000000e+00 1.765238e+04
3.000000e+00 1.729395e+04
4.000000e+00 1.694302e+04
5.000000e+00 1.663459e+04
6.000000e+00 1.632903e+04
7.000000e+00 1.604472e+04
8.000000e+00 1.577542e+04
9.000000e+00 1.551412e+04
1.000000e+01 1.526475e+04
1.100000e+01 1.502715e+04
1.200000e+01 1.479600e+04
1.300000e+01 1.457216e+04
1.400000e+01 1.435392e+04
1.500000e+01 1.414141e+04
1.600000e+01 1.393303e+04
1.700000e+01 1.372926e+04
1.800000e+01 1.352913e+04
1.900000e+01 1.333263e+04
2.000000e+01 1.313984e+04
2.100000e+01 1.294951e+04
2.200000e+01 1.276243e+04
2.300000e+01 1.257883e+04
2.400000e+01 1.239655e+04
2.500000e+01 1.221825e+04
2.600000e+01 1.204283e+04
2.700000e+01 1.186772e+04
2.800000e+01 1.169687e+04
2.900000e+01 1.152936e+04
3.000000e+01 1.136189e+04
3.100000e+01 1.119709e+04
3.200000e+01 1.103700e+04
3.300000e+01 1.087831e+04
3.400000e+01 1.071879e+04
3.500000e+01 1.056433e+04
3.600000e+01 1.041401e+04
3.700000e+01 1.026444e+04
3.800000e+01 1.011342e+04
3.900000e+01 9.967690e+03
4.000000e+01 9.826852e+03
4.100000e+01 9.687654e+03
4.200000e+01 9.546885e+03
4.300000e+01 9.407878e+03
4.400000e+01 9.275513e+03
4.500000e+01 9.146905e+03
4.600000e+01 9.018995e+03
4.700000e+01 8.888886e+03
4.800000e+01 8.761516e+03
4.900000e+01 8.641190e+03
5.000000e+01 8.525099e+03
5.100000e+01 8.410343e+03
5.200000e+01 8.294023e+03
5.300000e+01 8.176540e+03
5.400000e+01 8.066424e+03
5.500000e+01 7.962494e+03
5.600000e+01 7.862002e+03
5.700000e+01 7.762201e+03
5.800000e+01 7.660342e+03
5.900000e+01 7.557254e+03
6.000000e+01 7.462012e+03
6.100000e+01 7.373693e+03
6.200000e+01 7.289686e+03
6.300000e+01 7.207377e+03
6.400000e+01 7.124154e+03
6.500000e+01 7.037630e+03
6.600000e+01 6.953686e+03
6.700000e+01 6.878699e+03
6.800000e+01 6.810478e+03
6.900000e+01 6.746542e+03
7.000000e+01 6.684410e+03
7.100000e+01 6.621600e+03
7.200000e+01 6.555636e+03
7.300000e+01 6.488717e+03
7.400000e+01 6.430648e+03
7.500000e+01 6.380841e+03
7.600000e+01 6.336970e+03
7.700000e+01 6.296710e+03
7.800000e+01 6.257736e+03
7.900000e+01 6.217724e+03
8.000000e+01 6.174349e+03
8.100000e+01 6.129108e+03
8.200000e+01 6.092307e+03
8.300000e+01 6.064451e+03
8.400000e+01 6.043416e+03
8.500000e+01 6.027076e+03
8.600000e+01 6.013308e+03
8.700000e+01 5.999988e+03
8.800000e+01 5.984990e+03
8.900000e+01 5.966205e+03
9.000000e+01 5.945931e+03
9.100000e+01 5.933905e+03
9.200000e+01 5.930613e+03
9.300000e+01 5.934221e+03
9.400000e+01 5.942894e+03
9.500000e+01 5.954797e+03
9.600000e+01 5.968095e+03
9.700000e+01 5.980952e+03
9.800000e+01 5.991535e+03
9.900000e+01 5.998105e+03
1.000000e+02 6.004396e+03
1.010000e+02 6.019214e+03
1.020000e+02 6.042495e+03
1.030000e+02 6.072402e+03
1.040000e+02 6.107104e+03
1.050000e+02 6.144766e+03
1.060000e+02 6.183554e+03
1.070000e+02 6.221635e+03
1.080000e+02 6.257174e+03
1.090000e+02 6.288656e+03
1.100000e+02 6.321888e+03
1.110000e+02 6.364896e+03
1.120000e+02 6.416500e+03
1.130000e+02 6.474498e+03
1.140000e+02 6.536691e+03
1.150000e+02 6.600877e+03
1.160000e+02 6.664856e+03
1.170000e+02 6.726426e+03
1.180000e+02 6.783797e+03
1.190000e+02 6.843387e+03
1.200000e+02 6.912200e+03
1.210000e+02 6.988494e+03
1.220000e+02 7.069968e+03
1.230000e+02 7.154318e+03
1.240000e+02 7.239243e+03
1.250000e+02 7.322440e+03
1.260000e+02 7.401860e+03
1.270000e+02 7.482932e+03
1.280000e+02 7.572284e+03
1.290000e+02 7.668079e+03
1.300000e+02 7.767983e+03
1.310000e+02 7.869664e+03
1.320000e+02 7.970790e+03
1.330000e+02 8.069041e+03
1.340000e+02 8.166619e+03
1.350000e+02 8.271300e+03
1.360000e+02 8.381899e+03
1.370000e+02 8.496072e+03
1.380000e+02 8.611474e+03
1.390000e+02 8.725762e+03
1.400000e+02 8.837257e+03
1.410000e+02 8.952445e+03
1.420000e+02 9.073845e+03
1.430000e+02 9.199087e+03
1.440000e+02 9.325784e+03
1.450000e+02 9.451543e+03
1.460000e+02 9.575039e+03
1.470000e+02 9.702968e+03
1.480000e+02 9.836079e+03
1.490000e+02 9.971893e+03
1.500000e+02 1.010793e+04
1.510000e+02 1.024190e+04
1.520000e+02 1.037804e+04
1.530000e+02 1.051941e+04
1.540000e+02 1.066346e+04
1.550000e+02 1.080759e+04
1.560000e+02 1.094990e+04
1.570000e+02 1.109595e+04
1.580000e+02 1.124609e+04
1.590000e+02 1.139759e+04
1.600000e+02 1.154775e+04
1.610000e+02 1.169971e+04
1.620000e+02 1.185607e+04
1.630000e+02 1.201389e+04
1.640000e+02 1.217043e+04
1.650000e+02 1.232955e+04
1.660000e+02 1.249223e+04
1.670000e+02 1.265538e+04
1.680000e+02 1.281841e+04
1.690000e+02 1.298537e+04
1.700000e+02 1.315351e+04
1.710000e+02 1.332125e+04
1.720000e+02 1.349303e+04
1.730000e+02 1.366562e+04
1.740000e+02 1.383816e+04
1.750000e+02 1.401471e+04
1.760000e+02 1.419092e+04
1.770000e+02 1.436970e+04
1.780000e+02 1.454999e+04
1.790000e+02 1.473125e+04
1.800000e+02 1.491482e+04
1.810000e+02 1.509933e+04
1.820000e+02 1.528570e+04
1.830000e+02 1.547358e+04
1.840000e+02 1.566281e+04
1.850000e+02 1.585414e+04
1.860000e+02 1.604655e+04
1.870000e+02 1.624060e+04
1.880000e+02 1.643625e+04
1.890000e+02 1.663373e+04
1.900000e+02 1.683753e+04
1.910000e+02 1.703132e+04
1.920000e+02 1.723418e+04
1.930000e+02 1.743757e+04
1.940000e+02 1.764310e+04
1.950000e+02 1.785281e+04
1.960000e+02 1.805772e+04
1.970000e+02 1.826821e+04
1.980000e+02 1.848031e+04
1.990000e+02 2.550075e+03
