1.000000e+00 7.593158e+03
2.000000e+00 1.376116e+04
3.000000e+00 1.366531e+04
4.000000e+00 1.354856e+04
5.000000e+00 1.344065e+04
6.000000e+00 1.333810e+04
7.000000e+00 1.324723e+04
8.000000e+00 1.316455e+04
9.000000e+00 1.308399e+04
1.000000e+01 1.301119e+04
1.100000e+01 1.294656e+04
1.200000e+01 1.288465e+04
1.300000e+01 1.282790e+04
1.400000e+01 1.277281e+04
1.500000e+01 1.272212e+04
1.600000e+01 1.267164e+04
1.700000e+01 1.262522e+04
1.800000e+01 1.257809e+04
1.900000e+01 1.253454e+04
2.000000e+01 1.249033e+04
2.100000e+01 1.244790e+04
2.200000e+01 1.240678e+04
2.300000e+01 1.236518e+04
2.400000e+01 1.232566e+04
2.500000e+01 1.228610e+04
2.600000e+01 1.224658e+04
2.700000e+01 1.220854e+04
2.800000e+01 1.217053e+04
2.900000e+01 1.213251e+04
3.000000e+01 1.209532e+04
3.100000e+01 1.205860e+04
3.200000e+01 1.202181e+04
3.300000e+01 1.198529e+04
3.400000e+01 1.194935e+04
3.500000e+01 1.191358e+04
3.600000e+01 1.187792e+04
3.700000e+01 1.184247e+04
3.800000e+01 1.180731e+04
3.900000e+01 1.177239e+04
4.000000e+01 1.173765e+04
4.100000e+01 1.170306e+04
4.200000e+01 1.166857e+04
4.300000e+01 1.163427e+04
4.400000e+01 1.160027e+04
4.500000e+01 1.156646e+04
4.600000e+01 1.153273e+04
4.700000e+01 1.149899e+04
4.800000e+01 1.146543e+04
4.900000e+01 1.143222e+04
5.000000e+01 1.139922e+04
5.100000e+01 1.136632e+04
5.200000e+01 1.133337e+04
5.300000e+01 1.130040e+04
5.400000e+01 1.126781e+04
5.500000e+01 1.123553e+04
5.600000e+01 1.120342e+04
5.700000e+01 1.117137e+04
5.800000e+01 1.113922e+04
5.900000e+01 1.110703e+04
6.000000e+01 1.107523e+04
6.100000e+01 1.104378e+04
6.200000e+01 1.101254e+04
6.300000e+01 1.098139e+04
6.400000e+01 1.095020e+04
6.500000e+01 1.091886e+04
6.600000e+01 1.088764e+04
6.700000e+01 1.085686e+04
6.800000e+01 1.082640e+04
6.900000e+01 1.079615e+04
7.000000e+01 1.076599e+04
7.100000e+01 1.073581e+04
7.200000e+01 1.070547e+04
7.300000e+01 1.067509e+04
7.400000e+01 1.064512e+04
7.500000e+01 1.061556e+04
7.600000e+01 1.058627e+04
7.700000e+01 1.055716e+04
7.800000e+01 1.052811e+04
7.900000e+01 1.049901e+04
8.000000e+01 1.046975e+04
8.100000e+01 1.044041e+04
8.200000e+01 1.041147e+04
8.300000e+01 1.038297e+04
8.400000e+01 1.035480e+04
8.500000e+01 1.032685e+04
8.600000e+01 1.029902e+04
8.700000e+01 1.027120e+04
8.800000e+01 1.024329e+04
8.900000e+01 1.021518e+04
9.000000e+01 1.018704e+04
9.100000e+01 1.015951e+04
9.200000e+01 1.013260e+04
9.300000e+01 1.010619e+04
9.400000e+01 1.008014e+04
9.500000e+01 1.005433e+04
9.600000e+01 1.002863e+04
9.700000e+01 1.000291e+04
9.800000e+01 9.977033e+03
9.900000e+01 9.950880e+03
1.000000e+02 9.924652e+03
1.010000e+02 9.898857e+03
1.020000e+02 9.873504e+03
1.030000e+02 9.848501e+03
1.040000e+02 9.823760e+03
1.050000e+02 9.799189e+03
1.060000e+02 9.774698e+03
1.070000e+02 9.750196e+03
1.080000e+02 9.725593e+03
1.090000e+02 9.700799e+03
1.100000e+02 9.675911e+03
1.110000e+02 9.651293e+03
1.120000e+02 9.626974e+03
1.130000e+02 9.602887e+03
1.140000e+02 9.578963e+03
1.150000e+02 9.555134e+03
1.160000e+02 9.531331e+03
1.170000e+02 9.507486e+03
1.180000e+02 9.483531e+03
1.190000e+02 9.459443e+03
1.200000e+02 9.435622e+03
1.210000e+02 9.412322e+03
1.220000e+02 9.389439e+03
1.230000e+02 9.366858e+03
1.240000e+02 9.344463e+03
1.250000e+02 9.322139e+03
1.260000e+02 9.299770e+03
1.270000e+02 9.277240e+03
1.280000e+02 9.254516e+03
1.290000e+02 9.232107e+03
1.300000e+02 9.210218e+03
1.310000e+02 9.188724e+03
1.320000e+02 9.167499e+03
1.330000e+02 9.146416e+03
1.340000e+02 9.125345e+03
1.350000e+02 9.104161e+03
1.360000e+02 9.082755e+03
1.370000e+02 9.061485e+03
1.380000e+02 9.040747e+03
1.390000e+02 9.020430e+03
1.400000e+02 9.000396e+03
1.410000e+02 8.980507e+03
1.420000e+02 8.960624e+03
1.430000e+02 8.940609e+03
1.440000e+02 8.920388e+03
1.450000e+02 8.900472e+03
1.460000e+02 8.881072e+03
1.470000e+02 8.862041e+03
1.480000e+02 8.843230e+03
1.490000e+02 8.824489e+03
1.500000e+02 8.805666e+03
1.510000e+02 8.786630e+03
1.520000e+02 8.767742e+03
1.530000e+02 8.749384e+03
1.540000e+02 8.731415e+03
1.550000e+02 8.713673e+03
1.560000e+02 8.695994e+03
1.570000e+02 8.678218e+03
1.580000e+02 8.660238e+03
1.590000e+02 8.642567e+03
1.600000e+02 8.625399e+03
1.610000e+02 8.608559e+03
1.620000e+02 8.591872e+03
1.630000e+02 8.575163e+03
1.640000e+02 8.558263e+03
1.650000e+02 8.541451e+03
1.660000e+02 8.525163e+03
1.670000e+02 8.509240e+03
1.680000e+02 8.493492e+03
1.690000e+02 8.477731e+03
1.700000e+02 8.461778e+03
1.710000e+02 8.445980e+03
1.720000e+02 8.430694e+03
1.730000e+02 8.415731e+03
1.740000e+02 8.400888e+03
1.750000e+02 8.385960e+03
1.760000e+02 8.370888e+03
1.770000e+02 8.356262e+03
1.780000e+02 8.342046e+03
1.790000e+02 8.328021e+03
1.800000e+02 8.313969e+03
1.810000e+02 8.299742e+03
1.820000e+02 8.285884e+03
1.830000e+02 8.272453e+03
1.840000e+02 8.259213e+03
1.850000e+02 8.245930e+03
1.860000e+02 8.232518e+03
1.870000e+02 8.219552e+03
1.880000e+02 8.206947e+03
1.890000e+02 8.194451e+03
1.900000e+02 8.181818e+03
1.910000e+02 8.169334e+03
1.920000e+02 8.157315e+03
1.930000e+02 8.145497e+03
1.940000e+02 8.133612e+03
1.950000e+02 8.121734e+03
1.960000e+02 8.110329e+03
1.970000e+02 8.099151e+03
1.980000e+02 8.087910e+03
1.990000e+02 8.076718e+03
2.000000e+02 8.065981e+03
2.010000e+02 8.055414e+03
2.020000e+02 8.044731e+03
2.030000e+02 8.034315e+03
2.040000e+02 8.024256e+03
2.050000e+02 8.014221e+03
2.060000e+02 8.004178e+03
2.070000e+02 7.994565e+03
2.080000e+02 7.985082e+03
2.090000e+02 7.975524e+03
2.100000e+02 7.966366e+03
2.110000e+02 7.957376e+03
2.120000e+02 7.948322e+03
2.130000e+02 7.939655e+03
2.140000e+02 7.931115e+03
2.150000e+02 7.922578e+03
2.160000e+02 7.914419e+03
2.170000e+02 7.906267e+03
2.180000e+02 7.898323e+03
2.190000e+02 7.890616e+03
2.200000e+02 7.882909e+03
2.210000e+02 7.875542e+03
2.220000e+02 7.868172e+03
2.230000e+02 7.861104e+03
2.240000e+02 7.854088e+03
2.250000e+02 7.847322e+03
2.260000e+02 7.840637e+03
2.270000e+02 7.834194e+03
2.280000e+02 7.827823e+03
2.290000e+02 7.821711e+03
2.300000e+02 7.815665e+03
2.310000e+02 7.809844e+03
2.320000e+02 7.804165e+03
2.330000e+02 7.798614e+03
2.340000e+02 7.793265e+03
2.350000e+02 7.788073e+03
2.360000e+02 7.783014e+03
2.370000e+02 7.778116e+03
2.380000e+02 7.773384e+03
2.390000e+02 7.768813e+03
2.400000e+02 7.764360e+03
2.410000e+02 7.760198e+03
2.420000e+02 7.756081e+03
2.430000e+02 7.752129e+03
2.440000e+02 7.748322e+03
2.450000e+02 7.744629e+03
2.460000e+02 7.741198e+03
2.470000e+02 7.737851e+03
2.480000e+02 7.734653e+03
2.490000e+02 1.622569e+03
