1.000000e+00 6.355301e+04
2.000000e+00 7.314945e+04
3.000000e+00 7.246182e+04
4.000000e+00 7.170700e+04
5.000000e+00 7.104408e+04
6.000000e+00 7.041857e+04
7.000000e+00 6.986701e+04
8.000000e+00 6.936764e+04
9.000000e+00 6.889346e+04
1.000000e+01 6.846054e+04
1.100000e+01 6.806657e+04
1.200000e+01 6.769022e+04
1.300000e+01 6.733902e+04
1.400000e+01 6.699854e+04
1.500000e+01 6.667776e+04
1.600000e+01 6.636171e+04
1.700000e+01 6.606282e+04
1.800000e+01 6.576444e+04
1.900000e+01 6.548036e+04
2.000000e+01 6.519681e+04
2.100000e+01 6.492070e+04
2.200000e+01 6.465089e+04
2.300000e+01 6.438159e+04
2.400000e+01 6.411984e+04
2.500000e+01 6.385990e+04
2.600000e+01 6.360160e+04
2.700000e+01 6.334846e+04
2.800000e+01 6.309724e+04
2.900000e+01 6.284734e+04
3.000000e+01 6.260007e+04
3.100000e+01 6.235544e+04
3.200000e+01 6.211254e+04
3.300000e+01 6.187112e+04
3.400000e+01 6.163110e+04
3.500000e+01 6.139346e+04
3.600000e+01 6.115769e+04
3.700000e+01 6.092286e+04
3.800000e+01 6.068839e+04
3.900000e+01 6.045647e+04
4.000000e+01 6.022678e+04
4.100000e+01 5.999809e+04
4.200000e+01 5.976919e+04
4.300000e+01 5.954143e+04
4.400000e+01 5.931670e+04
4.500000e+01 5.909376e+04
4.600000e+01 5.887130e+04
4.700000e+01 5.864806e+04
4.800000e+01 5.842619e+04
4.900000e+01 5.820751e+04
5.000000e+01 5.799079e+04
5.100000e+01 5.777476e+04
5.200000e+01 5.755813e+04
5.300000e+01 5.734106e+04
5.400000e+01 5.712725e+04
5.500000e+01 5.691617e+04
5.600000e+01 5.670663e+04
5.700000e+01 5.649742e+04
5.800000e+01 5.628737e+04
5.900000e+01 5.607678e+04
6.000000e+01 5.586953e+04
6.100000e+01 5.566521e+04
6.200000e+01 5.546272e+04
6.300000e+01 5.526095e+04
6.400000e+01 5.505880e+04
6.500000e+01 5.485525e+04
6.600000e+01 5.465274e+04
6.700000e+01 5.445390e+04
6.800000e+01 5.425783e+04
6.900000e+01 5.406351e+04
7.000000e+01 5.386993e+04
7.100000e+01 5.367606e+04
7.200000e+01 5.348089e+04
7.300000e+01 5.328527e+04
7.400000e+01 5.309315e+04
7.500000e+01 5.290431e+04
7.600000e+01 5.271782e+04
7.700000e+01 5.253279e+04
7.800000e+01 5.234828e+04
7.900000e+01 5.216339e+04
8.000000e+01 5.197720e+04
8.100000e+01 5.179029e+04
8.200000e+01 5.160672e+04
8.300000e+01 5.142666e+04
8.400000e+01 5.124925e+04
8.500000e+01 5.107364e+04
8.600000e+01 5.089898e+04
8.700000e+01 5.072442e+04
8.800000e+01 5.054909e+04
8.900000e+01 5.037215e+04
9.000000e+01 5.019498e+04
9.100000e+01 5.002268e+04
9.200000e+01 4.985543e+04
9.300000e+01 4.969220e+04
9.400000e+01 4.953193e+04
9.500000e+01 4.937359e+04
9.600000e+01 4.921613e+04
9.700000e+01 4.905853e+04
9.800000e+01 4.889973e+04
9.900000e+01 4.873874e+04
1.000000e+02 4.857704e+04
1.010000e+02 4.841850e+04
1.020000e+02 4.826317e+04
1.030000e+02 4.811039e+04
1.040000e+02 4.795946e+04
1.050000e+02 4.780969e+04
1.060000e+02 4.766041e+04
1.070000e+02 4.751092e+04
1.080000e+02 4.736054e+04
1.090000e+02 4.720869e+04
1.100000e+02 4.705704e+04
1.110000e+02 4.690804e+04
1.120000e+02 4.676137e+04
1.130000e+02 4.661643e+04
1.140000e+02 4.647260e+04
1.150000e+02 4.632927e+04
1.160000e+02 4.618583e+04
1.170000e+02 4.604166e+04
1.180000e+02 4.589630e+04
1.190000e+02 4.575240e+04
1.200000e+02 4.561264e+04
1.210000e+02 4.547621e+04
1.220000e+02 4.534209e+04
1.230000e+02 4.520925e+04
1.240000e+02 4.507664e+04
1.250000e+02 4.494325e+04
1.260000e+02 4.480817e+04
1.270000e+02 4.467406e+04
1.280000e+02 4.454410e+04
1.290000e+02 4.441737e+04
1.300000e+02 4.429267e+04
1.310000e+02 4.416884e+04
1.320000e+02 4.404470e+04
1.330000e+02 4.391908e+04
1.340000e+02 4.379324e+04
1.350000e+02 4.367142e+04
1.360000e+02 4.355291e+04
1.370000e+02 4.343638e+04
1.380000e+02 4.332051e+04
1.390000e+02 4.320397e+04
1.400000e+02 4.308583e+04
1.410000e+02 4.297001e+04
1.420000e+02 4.285799e+04
1.430000e+02 4.274832e+04
1.440000e+02 4.263952e+04
1.450000e+02 4.253012e+04
1.460000e+02 4.241934e+04
1.470000e+02 4.231151e+04
1.480000e+02 4.220710e+04
1.490000e+02 4.210444e+04
1.500000e+02 4.200191e+04
1.510000e+02 4.189797e+04
1.520000e+02 4.179559e+04
1.530000e+02 4.169686e+04
1.540000e+02 4.160002e+04
1.550000e+02 4.150327e+04
1.560000e+02 4.140532e+04
1.570000e+02 4.131005e+04
1.580000e+02 4.121769e+04
1.590000e+02 4.112627e+04
1.600000e+02 4.103388e+04
1.610000e+02 4.094284e+04
1.620000e+02 4.085507e+04
1.630000e+02 4.076835e+04
1.640000e+02 4.068062e+04
1.650000e+02 4.059502e+04
1.660000e+02 4.051221e+04
1.670000e+02 4.042956e+04
1.680000e+02 4.034663e+04
1.690000e+02 4.026702e+04
1.700000e+02 4.018841e+04
1.710000e+02 4.010931e+04
1.720000e+02 4.003309e+04
1.730000e+02 3.995778e+04
1.740000e+02 3.988266e+04
1.750000e+02 3.981015e+04
1.760000e+02 3.973774e+04
1.770000e+02 3.966731e+04
1.780000e+02 3.959770e+04
1.790000e+02 3.952899e+04
1.800000e+02 3.946218e+04
1.810000e+02 3.939603e+04
1.820000e+02 3.933136e+04
1.830000e+02 3.926779e+04
1.840000e+02 3.920531e+04
1.850000e+02 3.914430e+04
1.860000e+02 3.908420e+04
1.870000e+02 3.902547e+04
1.880000e+02 3.896786e+04
1.890000e+02 3.891139e+04
1.900000e+02 3.885490e+04
1.910000e+02 3.880271e+04
1.920000e+02 3.874960e+04
1.930000e+02 3.869796e+04
1.940000e+02 3.864734e+04
1.950000e+02 3.859731e+04
1.960000e+02 3.854985e+04
1.970000e+02 3.850268e+04
1.980000e+02 3.845655e+04
1.990000e+02 1.631255e+03
