1.000000e+00 1.010624e+04
2.000000e+00 1.485692e+04
3.000000e+00 1.448787e+04
4.000000e+00 1.409884e+04
5.000000e+00 1.375384e+04
6.000000e+00 1.340525e+04
7.000000e+00 1.307469e+04
8.000000e+00 1.275611e+04
9.000000e+00 1.244372e+04
1.000000e+01 1.214079e+04
1.100000e+01 1.184765e+04
1.200000e+01 1.155936e+04
1.300000e+01 1.127730e+04
1.400000e+01 1.099903e+04
1.500000e+01 1.072533e+04
1.600000e+01 1.045458e+04
1.700000e+01 1.018773e+04
1.800000e+01 9.923025e+03
1.900000e+01 9.661470e+03
2.000000e+01 9.402159e+03
2.100000e+01 9.144913e+03
2.200000e+01 8.890129e+03
2.300000e+01 8.637463e+03
2.400000e+01 8.386126e+03
2.500000e+01 8.137511e+03
2.600000e+01 7.890858e+03
2.700000e+01 7.644744e+03
2.800000e+01 7.401676e+03
2.900000e+01 7.160934e+03
3.000000e+01 6.920315e+03
3.100000e+01 6.681902e+03
3.200000e+01 6.447122e+03
3.300000e+01 6.213394e+03
3.400000e+01 5.979052e+03
3.500000e+01 5.749130e+03
3.600000e+01 5.522781e+03
3.700000e+01 5.297084e+03
3.800000e+01 5.070247e+03
3.900000e+01 4.848998e+03
4.000000e+01 4.632748e+03
4.100000e+01 4.418070e+03
4.200000e+01 4.201595e+03
4.300000e+01 3.988356e+03
4.400000e+01 3.784626e+03
4.500000e+01 3.586128e+03
4.600000e+01 3.388356e+03
4.700000e+01 3.187117e+03
4.800000e+01 2.993322e+03
4.900000e+01 2.815210e+03
5.000000e+01 2.646361e+03
5.100000e+01 2.480175e+03
5.200000e+01 2.310050e+03
5.300000e+01 2.138810e+03
5.400000e+01 1.991668e+03
5.500000e+01 1.864437e+03
5.600000e+01 1.748271e+03
5.700000e+01 1.634325e+03
5.800000e+01 1.513756e+03
5.900000e+01 1.389233e+03
6.000000e+01 1.290015e+03
6.100000e+01 1.213253e+03
6.200000e+01 1.150659e+03
6.300000e+01 1.093948e+03
6.400000e+01 1.034833e+03
6.500000e+01 9.655961e+02
6.600000e+01 8.992294e+02
6.700000e+01 8.514770e+02
6.800000e+01 8.179748e+02
6.900000e+01 7.936728e+02
7.000000e+01 7.735211e+02
7.100000e+01 7.524697e+02
7.200000e+01 7.254763e+02
7.300000e+01 6.940640e+02
7.400000e+01 6.711487e+02
7.500000e+01 6.566431e+02
7.600000e+01 6.482417e+02
7.700000e+01 6.436388e+02
7.800000e+01 6.405288e+02
7.900000e+01 6.366060e+02
8.000000e+01 6.295656e+02
8.100000e+01 6.198047e+02
8.200000e+01 6.141581e+02
8.300000e+01 6.132278e+02
8.400000e+01 6.159061e+02
8.500000e+01 6.210853e+02
8.600000e+01 6.276578e+02
8.700000e+01 6.345157e+02
8.800000e+01 6.405516e+02
8.900000e+01 6.446642e+02
9.000000e+01 6.477340e+02
9.100000e+01 6.540316e+02
9.200000e+01 6.638237e+02
9.300000e+01 6.763668e+02
9.400000e+01 6.909168e+02
9.500000e+01 7.067301e+02
9.600000e+01 7.230629e+02
9.700000e+01 7.391713e+02
9.800000e+01 7.543116e+02
9.900000e+01 7.677850e+02
1.000000e+02 7.814350e+02
1.010000e+02 7.994180e+02
1.020000e+02 8.216433e+02
1.030000e+02 8.471751e+02
1.040000e+02 8.750781e+02
1.050000e+02 9.044165e+02
1.060000e+02 9.342549e+02
1.070000e+02 9.636576e+02
1.080000e+02 9.916892e+02
1.090000e+02 1.017606e+03
1.100000e+02 1.045091e+03
1.110000e+02 1.079070e+03
1.120000e+02 1.118724e+03
1.130000e+02 1.162597e+03
1.140000e+02 1.209236e+03
1.150000e+02 1.257186e+03
1.160000e+02 1.304992e+03
1.170000e+02 1.351199e+03
1.180000e+02 1.394627e+03
1.190000e+02 1.439606e+03
1.200000e+02 1.490849e+03
1.210000e+02 1.547191e+03
1.220000e+02 1.607087e+03
1.230000e+02 1.668992e+03
1.240000e+02 1.731364e+03
1.250000e+02 1.792658e+03
1.260000e+02 1.851473e+03
1.270000e+02 1.910608e+03
1.280000e+02 1.973738e+03
1.290000e+02 2.040022e+03
1.300000e+02 2.108352e+03
1.310000e+02 2.177622e+03
1.320000e+02 2.246724e+03
1.330000e+02 2.314557e+03
1.340000e+02 2.381533e+03
1.350000e+02 2.450113e+03
1.360000e+02 2.520112e+03
1.370000e+02 2.590990e+03
1.380000e+02 2.662208e+03
1.390000e+02 2.733230e+03
1.400000e+02 2.803611e+03
1.410000e+02 2.874097e+03
1.420000e+02 2.945094e+03
1.430000e+02 3.016415e+03
1.440000e+02 3.087868e+03
1.450000e+02 3.159265e+03
1.460000e+02 3.230462e+03
1.470000e+02 3.301711e+03
1.480000e+02 3.373077e+03
1.490000e+02 3.444501e+03
1.500000e+02 3.515923e+03
1.510000e+02 3.587288e+03
1.520000e+02 3.658666e+03
1.530000e+02 3.730114e+03
1.540000e+02 3.801589e+03
1.550000e+02 3.873047e+03
1.560000e+02 3.944460e+03
1.570000e+02 4.015957e+03
1.580000e+02 4.087549e+03
1.590000e+02 4.159175e+03
1.600000e+02 4.230780e+03
1.610000e+02 4.302469e+03
1.620000e+02 4.374318e+03
1.630000e+02 4.446239e+03
1.640000e+02 4.518148e+03
1.650000e+02 4.590164e+03
1.660000e+02 4.662334e+03
1.670000e+02 4.734592e+03
1.680000e+02 4.806941e+03
1.690000e+02 4.879485e+03
1.700000e+02 4.952086e+03
1.710000e+02 5.024733e+03
1.720000e+02 5.097793e+03
1.730000e+02 5.170866e+03
1.740000e+02 5.243909e+03
1.750000e+02 5.317464e+03
1.760000e+02 5.390910e+03
1.770000e+02 5.464659e+03
1.780000e+02 5.538685e+03
1.790000e+02 5.612823e+03
1.800000e+02 5.687187e+03
1.810000e+02 5.761749e+03
1.820000e+02 5.836504e+03
1.830000e+02 5.911484e+03
1.840000e+02 5.986705e+03
1.850000e+02 6.062255e+03
1.860000e+02 6.137891e+03
1.870000e+02 6.213842e+03
1.880000e+02 6.290077e+03
1.890000e+02 6.366631e+03
1.900000e+02 6.445219e+03
1.910000e+02 6.519666e+03
1.920000e+02 6.597202e+03
1.930000e+02 6.674625e+03
1.940000e+02 6.752629e+03
1.950000e+02 6.831832e+03
1.960000e+02 6.908934e+03
1.970000e+02 6.987874e+03
1.980000e+02 7.067135e+03
1.990000e+02 1.631231e+03
