1.000000e+00 2.839223e+04
2.000000e+00 3.703540e+04
3.000000e+00 3.654498e+04
4.000000e+00 3.601515e+04
5.000000e+00 3.554763e+04
6.000000e+00 3.509293e+04
7.000000e+00 3.467812e+04
8.000000e+00 3.429116e+04
9.000000e+00 3.391747e+04
1.000000e+01 3.356624e+04
1.100000e+01 3.323595e+04
1.200000e+01 3.291562e+04
1.300000e+01 3.260858e+04
1.400000e+01 3.230843e+04
1.500000e+01 3.201863e+04
1.600000e+01 3.173249e+04
1.700000e+01 3.145532e+04
1.800000e+01 3.117967e+04
1.900000e+01 3.091160e+04
2.000000e+01 3.064487e+04
2.100000e+01 3.038244e+04
2.200000e+01 3.012400e+04
2.300000e+01 2.986678e+04
2.400000e+01 2.961337e+04
2.500000e+01 2.936224e+04
2.600000e+01 2.911279e+04
2.700000e+01 2.886556e+04
2.800000e+01 2.862078e+04
2.900000e+01 2.837788e+04
3.000000e+01 2.813618e+04
3.100000e+01 2.789651e+04
3.200000e+01 2.765921e+04
3.300000e+01 2.742310e+04
3.400000e+01 2.718742e+04
3.500000e+01 2.695449e+04
3.600000e+01 2.672380e+04
3.700000e+01 2.649383e+04
3.800000e+01 2.626364e+04
3.900000e+01 2.603644e+04
4.000000e+01 2.581191e+04
4.100000e+01 2.558834e+04
4.200000e+01 2.536403e+04
4.300000e+01 2.514085e+04
4.400000e+01 2.492146e+04
4.500000e+01 2.470425e+04
4.600000e+01 2.448751e+04
4.700000e+01 2.426961e+04
4.800000e+01 2.405325e+04
4.900000e+01 2.384078e+04
5.000000e+01 2.363066e+04
5.100000e+01 2.342129e+04
5.200000e+01 2.321110e+04
5.300000e+01 2.300028e+04
5.400000e+01 2.279347e+04
5.500000e+01 2.259005e+04
5.600000e+01 2.238853e+04
5.700000e+01 2.218742e+04
5.800000e+01 2.198526e+04
5.900000e+01 2.178246e+04
6.000000e+01 2.158382e+04
6.100000e+01 2.138884e+04
6.200000e+01 2.119614e+04
6.300000e+01 2.100432e+04
6.400000e+01 2.081198e+04
6.500000e+01 2.061786e+04
6.600000e+01 2.042511e+04
6.700000e+01 2.023715e+04
6.800000e+01 2.005280e+04
6.900000e+01 1.987073e+04
7.000000e+01 1.968960e+04
7.100000e+01 1.950809e+04
7.200000e+01 1.932486e+04
7.300000e+01 1.914109e+04
7.400000e+01 1.896206e+04
7.500000e+01 1.878743e+04
7.600000e+01 1.861598e+04
7.700000e+01 1.844645e+04
7.800000e+01 1.827759e+04
7.900000e+01 1.810816e+04
8.000000e+01 1.793691e+04
8.100000e+01 1.776469e+04
8.200000e+01 1.759716e+04
8.300000e+01 1.743457e+04
8.400000e+01 1.727573e+04
8.500000e+01 1.711944e+04
8.600000e+01 1.696451e+04
8.700000e+01 1.680976e+04
8.800000e+01 1.665398e+04
8.900000e+01 1.649599e+04
9.000000e+01 1.633755e+04
9.100000e+01 1.618528e+04
9.200000e+01 1.603943e+04
9.300000e+01 1.589868e+04
9.400000e+01 1.576168e+04
9.500000e+01 1.562710e+04
9.600000e+01 1.549359e+04
9.700000e+01 1.535983e+04
9.800000e+01 1.522447e+04
9.900000e+01 1.508624e+04
1.000000e+02 1.494740e+04
1.010000e+02 1.481353e+04
1.020000e+02 1.468467e+04
1.030000e+02 1.455973e+04
1.040000e+02 1.443764e+04
1.050000e+02 1.431732e+04
1.060000e+02 1.419769e+04
1.070000e+02 1.407767e+04
1.080000e+02 1.395618e+04
1.090000e+02 1.383232e+04
1.100000e+02 1.370919e+04
1.110000e+02 1.359116e+04
1.120000e+02 1.347760e+04
1.130000e+02 1.336735e+04
1.140000e+02 1.325925e+04
1.150000e+02 1.315211e+04
1.160000e+02 1.304477e+04
1.170000e+02 1.293606e+04
1.180000e+02 1.282508e+04
1.190000e+02 1.271613e+04
1.200000e+02 1.261374e+04
1.210000e+02 1.251663e+04
1.220000e+02 1.242319e+04
1.230000e+02 1.233176e+04
1.240000e+02 1.224072e+04
1.250000e+02 1.214844e+04
1.260000e+02 1.205347e+04
1.270000e+02 1.196003e+04
1.280000e+02 1.187318e+04
1.290000e+02 1.179141e+04
1.300000e+02 1.171290e+04
1.310000e+02 1.163577e+04
1.320000e+02 1.155816e+04
1.330000e+02 1.147825e+04
1.340000e+02 1.139802e+04
1.350000e+02 1.132416e+04
1.360000e+02 1.125556e+04
1.370000e+02 1.119011e+04
1.380000e+02 1.112569e+04
1.390000e+02 1.106020e+04
1.400000e+02 1.099215e+04
1.410000e+02 1.092784e+04
1.420000e+02 1.086965e+04
1.430000e+02 1.081522e+04
1.440000e+02 1.076218e+04
1.450000e+02 1.070818e+04
1.460000e+02 1.065192e+04
1.470000e+02 1.060035e+04
1.480000e+02 1.055419e+04
1.490000e+02 1.051086e+04
1.500000e+02 1.046777e+04
1.510000e+02 1.042250e+04
1.520000e+02 1.037963e+04
1.530000e+02 1.034239e+04
1.540000e+02 1.030805e+04
1.550000e+02 1.027381e+04
1.560000e+02 1.023765e+04
1.570000e+02 1.020570e+04
1.580000e+02 1.017830e+04
1.590000e+02 1.015234e+04
1.600000e+02 1.012484e+04
1.610000e+02 1.009931e+04
1.620000e+02 1.007874e+04
1.630000e+02 1.005980e+04
1.640000e+02 1.003940e+04
1.650000e+02 1.002199e+04
1.660000e+02 1.000858e+04
1.670000e+02 9.995492e+03
1.680000e+02 9.982094e+03
1.690000e+02 9.973341e+03
1.700000e+02 9.965966e+03
1.710000e+02 9.957927e+03
1.720000e+02 9.954072e+03
1.730000e+02 9.951393e+03
1.740000e+02 9.948860e+03
1.750000e+02 9.950098e+03
1.760000e+02 9.951201e+03
1.770000e+02 9.954976e+03
1.780000e+02 9.960185e+03
1.790000e+02 9.966502e+03
1.800000e+02 9.975080e+03
1.810000e+02 9.984528e+03
1.820000e+02 9.995939e+03
1.830000e+02 1.000883e+04
1.840000e+02 1.002288e+04
1.850000e+02 1.003911e+04
1.860000e+02 1.005626e+04
1.870000e+02 1.007487e+04
1.880000e+02 1.009508e+04
1.890000e+02 1.011673e+04
1.900000e+02 1.014045e+04
1.910000e+02 1.016412e+04
1.920000e+02 1.019002e+04
1.930000e+02 1.021719e+04
1.940000e+02 1.024565e+04
1.950000e+02 1.027601e+04
1.960000e+02 1.030657e+04
1.970000e+02 1.033917e+04
1.980000e+02 1.037297e+04
1.990000e+02 1.631231e+03
