1.000000e+00 6.978578e+03
2.000000e+00 7.721355e+03
3.000000e+00 7.406227e+03
4.000000e+00 7.087875e+03
5.000000e+00 6.805146e+03
6.000000e+00 6.515203e+03
7.000000e+00 6.235558e+03
8.000000e+00 5.962768e+03
9.000000e+00 5.693427e+03
1.000000e+01 5.429574e+03
1.100000e+01 5.171495e+03
1.200000e+01 4.916521e+03
1.300000e+01 4.664931e+03
1.400000e+01 4.416270e+03
1.500000e+01 4.170117e+03
1.600000e+01 3.926208e+03
1.700000e+01 3.684388e+03
1.800000e+01 3.444665e+03
1.900000e+01 3.206557e+03
2.000000e+01 2.971270e+03
2.100000e+01 2.737170e+03
2.200000e+01 2.506867e+03
2.300000e+01 2.281008e+03
2.400000e+01 2.055290e+03
2.500000e+01 1.843282e+03
2.600000e+01 1.639557e+03
2.700000e+01 1.433992e+03
2.800000e+01 1.258833e+03
2.900000e+01 1.105160e+03
3.000000e+01 9.465869e+02
3.100000e+01 8.103580e+02
3.200000e+01 7.156108e+02
3.300000e+01 6.314906e+02
3.400000e+01 5.353599e+02
3.500000e+01 4.686801e+02
3.600000e+01 4.280291e+02
3.700000e+01 3.924819e+02
3.800000e+01 3.459739e+02
3.900000e+01 3.124250e+02
4.000000e+01 2.932327e+02
4.100000e+01 2.790943e+02
4.200000e+01 2.607898e+02
4.300000e+01 2.412864e+02
4.400000e+01 2.294843e+02
4.500000e+01 2.221758e+02
4.600000e+01 2.158735e+02
4.700000e+01 2.072075e+02
4.800000e+01 1.985995e+02
4.900000e+01 1.932518e+02
5.000000e+01 1.899100e+02
5.100000e+01 1.872626e+02
5.200000e+01 1.839983e+02
5.300000e+01 1.797863e+02
5.400000e+01 1.769448e+02
5.500000e+01 1.753513e+02
5.600000e+01 1.744668e+02
5.700000e+01 1.737523e+02
5.800000e+01 1.726688e+02
5.900000e+01 1.711754e+02
6.000000e+01 1.704555e+02
6.100000e+01 1.704573e+02
6.200000e+01 1.709123e+02
6.300000e+01 1.715521e+02
6.400000e+01 1.721086e+02
6.500000e+01 1.723328e+02
6.600000e+01 1.726890e+02
6.700000e+01 1.737195e+02
6.800000e+01 1.752598e+02
6.900000e+01 1.771213e+02
7.000000e+01 1.791155e+02
7.100000e+01 1.810536e+02
7.200000e+01 1.827474e+02
7.300000e+01 1.843860e+02
7.400000e+01 1.867658e+02
7.500000e+01 1.898302e+02
7.600000e+01 1.933807e+02
7.700000e+01 1.972189e+02
7.800000e+01 2.011463e+02
7.900000e+01 2.049644e+02
8.000000e+01 2.084750e+02
8.100000e+01 2.119023e+02
8.200000e+01 2.164258e+02
8.300000e+01 2.220719e+02
8.400000e+01 2.285621e+02
8.500000e+01 2.356174e+02
8.600000e+01 2.429592e+02
8.700000e+01 2.503088e+02
8.800000e+01 2.573872e+02
8.900000e+01 2.639188e+02
9.000000e+01 2.704936e+02
9.100000e+01 2.791160e+02
9.200000e+01 2.898091e+02
9.300000e+01 3.021044e+02
9.400000e+01 3.155332e+02
9.500000e+01 3.296270e+02
9.600000e+01 3.439173e+02
9.700000e+01 3.579355e+02
9.800000e+01 3.712130e+02
9.900000e+01 3.833267e+02
1.000000e+02 3.964085e+02
1.010000e+02 4.148027e+02
1.020000e+02 4.382490e+02
1.030000e+02 4.655760e+02
1.040000e+02 4.956124e+02
1.050000e+02 5.271866e+02
1.060000e+02 5.591274e+02
1.070000e+02 5.902634e+02
1.080000e+02 6.194232e+02
1.090000e+02 6.457802e+02
1.100000e+02 6.764547e+02
1.110000e+02 7.204902e+02
1.120000e+02 7.760493e+02
1.130000e+02 8.400916e+02
1.140000e+02 9.095769e+02
1.150000e+02 9.814650e+02
1.160000e+02 1.052716e+03
1.170000e+02 1.120289e+03
1.180000e+02 1.181891e+03
1.190000e+02 1.250216e+03
1.200000e+02 1.338323e+03
1.210000e+02 1.442412e+03
1.220000e+02 1.557605e+03
1.230000e+02 1.679025e+03
1.240000e+02 1.801794e+03
1.250000e+02 1.921035e+03
1.260000e+02 2.032358e+03
1.270000e+02 2.145882e+03
1.280000e+02 2.274406e+03
1.290000e+02 2.414744e+03
1.300000e+02 2.562774e+03
1.310000e+02 2.714378e+03
1.320000e+02 2.865434e+03
1.330000e+02 3.011835e+03
1.340000e+02 3.154498e+03
1.350000e+02 3.301397e+03
1.360000e+02 3.452192e+03
1.370000e+02 3.605433e+03
1.380000e+02 3.759668e+03
1.390000e+02 3.913446e+03
1.400000e+02 4.065482e+03
1.410000e+02 4.216614e+03
1.420000e+02 4.367662e+03
1.430000e+02 4.518676e+03
1.440000e+02 4.669703e+03
1.450000e+02 4.820789e+03
1.460000e+02 4.971889e+03
1.470000e+02 5.122309e+03
1.480000e+02 5.272035e+03
1.490000e+02 5.421373e+03
1.500000e+02 5.570631e+03
1.510000e+02 5.720103e+03
1.520000e+02 5.869488e+03
1.530000e+02 6.018497e+03
1.540000e+02 6.167280e+03
1.550000e+02 6.315993e+03
1.560000e+02 6.464782e+03
1.570000e+02 6.613655e+03
1.580000e+02 6.762570e+03
1.590000e+02 6.911498e+03
1.600000e+02 7.060413e+03
1.610000e+02 7.209571e+03
1.620000e+02 7.359095e+03
1.630000e+02 7.508763e+03
1.640000e+02 7.658376e+03
1.650000e+02 7.808345e+03
1.660000e+02 7.958781e+03
1.670000e+02 8.109407e+03
1.680000e+02 8.260238e+03
1.690000e+02 8.411719e+03
1.700000e+02 8.563379e+03
1.710000e+02 8.715094e+03
1.720000e+02 8.867957e+03
1.730000e+02 9.020945e+03
1.740000e+02 9.173898e+03
1.750000e+02 9.328168e+03
1.760000e+02 9.482256e+03
1.770000e+02 9.637183e+03
1.780000e+02 9.792785e+03
1.790000e+02 9.948674e+03
1.800000e+02 1.010532e+04
1.810000e+02 1.026260e+04
1.820000e+02 1.042024e+04
1.830000e+02 1.057850e+04
1.840000e+02 1.073755e+04
1.850000e+02 1.089733e+04
1.860000e+02 1.105768e+04
1.870000e+02 1.121842e+04
1.880000e+02 1.138018e+04
1.890000e+02 1.154280e+04
1.900000e+02 1.170980e+04
1.910000e+02 1.186827e+04
1.920000e+02 1.203347e+04
1.930000e+02 1.219848e+04
1.940000e+02 1.236489e+04
1.950000e+02 1.253420e+04
1.960000e+02 1.269904e+04
1.970000e+02 1.286777e+04
1.980000e+02 1.303744e+04
1.990000e+02 1.639323e+03
