1.000000e+00 1.070700e+04
2.000000e+00 1.384274e+04
3.000000e+00 1.359977e+04
4.000000e+00 1.332217e+04
5.000000e+00 1.307649e+04
6.000000e+00 1.283192e+04
7.000000e+00 1.260354e+04
8.000000e+00 1.238685e+04
9.000000e+00 1.217639e+04
1.000000e+01 1.197537e+04
1.100000e+01 1.178288e+04
1.200000e+01 1.159519e+04
1.300000e+01 1.141312e+04
1.400000e+01 1.123455e+04
1.500000e+01 1.106041e+04
1.600000e+01 1.088855e+04
1.700000e+01 1.072058e+04
1.800000e+01 1.055412e+04
1.900000e+01 1.039066e+04
2.000000e+01 1.022907e+04
2.100000e+01 1.006915e+04
2.200000e+01 9.911286e+03
2.300000e+01 9.755201e+03
2.400000e+01 9.600314e+03
2.500000e+01 9.447410e+03
2.600000e+01 9.295997e+03
2.700000e+01 9.145183e+03
2.800000e+01 8.996455e+03
2.900000e+01 8.849333e+03
3.000000e+01 8.702435e+03
3.100000e+01 8.556961e+03
3.200000e+01 8.413758e+03
3.300000e+01 8.271287e+03
3.400000e+01 8.128508e+03
3.500000e+01 7.988130e+03
3.600000e+01 7.849731e+03
3.700000e+01 7.711769e+03
3.800000e+01 7.573218e+03
3.900000e+01 7.437070e+03
4.000000e+01 7.303148e+03
4.100000e+01 7.169998e+03
4.200000e+01 7.036187e+03
4.300000e+01 6.903175e+03
4.400000e+01 6.773113e+03
4.500000e+01 6.644730e+03
4.600000e+01 6.516677e+03
4.700000e+01 6.387677e+03
4.800000e+01 6.259857e+03
4.900000e+01 6.135091e+03
5.000000e+01 6.012165e+03
5.100000e+01 5.889829e+03
5.200000e+01 5.766833e+03
5.300000e+01 5.643342e+03
5.400000e+01 5.523015e+03
5.500000e+01 5.405343e+03
5.600000e+01 5.289144e+03
5.700000e+01 5.173237e+03
5.800000e+01 5.056440e+03
5.900000e+01 4.939139e+03
6.000000e+01 4.825323e+03
6.100000e+01 4.714571e+03
6.200000e+01 4.605719e+03
6.300000e+01 4.497603e+03
6.400000e+01 4.389059e+03
6.500000e+01 4.279031e+03
6.600000e+01 4.170366e+03
6.700000e+01 4.066080e+03
6.800000e+01 3.965090e+03
6.900000e+01 3.866171e+03
7.000000e+01 3.768097e+03
7.100000e+01 3.669646e+03
7.200000e+01 3.569594e+03
7.300000e+01 3.469293e+03
7.400000e+01 3.374215e+03
7.500000e+01 3.283961e+03
7.600000e+01 3.197157e+03
7.700000e+01 3.112427e+03
7.800000e+01 3.028396e+03
7.900000e+01 2.943691e+03
8.000000e+01 2.856936e+03
8.100000e+01 2.769310e+03
8.200000e+01 2.687819e+03
8.300000e+01 2.612729e+03
8.400000e+01 2.542509e+03
8.500000e+01 2.475628e+03
8.600000e+01 2.410555e+03
8.700000e+01 2.345760e+03
8.800000e+01 2.279712e+03
8.900000e+01 2.210890e+03
9.000000e+01 2.141212e+03
9.100000e+01 2.078354e+03
9.200000e+01 2.022660e+03
9.300000e+01 1.972636e+03
9.400000e+01 1.926790e+03
9.500000e+01 1.883628e+03
9.600000e+01 1.841657e+03
9.700000e+01 1.799383e+03
9.800000e+01 1.755314e+03
9.900000e+01 1.708027e+03
1.000000e+02 1.660144e+03
1.010000e+02 1.618091e+03
1.020000e+02 1.581924e+03
1.030000e+02 1.550425e+03
1.040000e+02 1.522378e+03
1.050000e+02 1.496565e+03
1.060000e+02 1.471770e+03
1.070000e+02 1.446774e+03
1.080000e+02 1.420362e+03
1.090000e+02 1.391338e+03
1.100000e+02 1.361309e+03
1.110000e+02 1.335906e+03
1.120000e+02 1.315534e+03
1.130000e+02 1.299080e+03
1.140000e+02 1.285433e+03
1.150000e+02 1.273479e+03
1.160000e+02 1.262106e+03
1.170000e+02 1.250202e+03
1.180000e+02 1.236656e+03
1.190000e+02 1.220904e+03
1.200000e+02 1.207506e+03
1.210000e+02 1.199491e+03
1.220000e+02 1.195798e+03
1.230000e+02 1.195219e+03
1.240000e+02 1.196546e+03
1.250000e+02 1.198572e+03
1.260000e+02 1.200087e+03
1.270000e+02 1.199884e+03
1.280000e+02 1.197693e+03
1.290000e+02 1.199335e+03
1.300000e+02 1.207086e+03
1.310000e+02 1.219468e+03
1.320000e+02 1.234959e+03
1.330000e+02 1.252036e+03
1.340000e+02 1.269174e+03
1.350000e+02 1.284850e+03
1.360000e+02 1.297816e+03
1.370000e+02 1.313448e+03
1.380000e+02 1.337410e+03
1.390000e+02 1.367926e+03
1.400000e+02 1.402800e+03
1.410000e+02 1.439835e+03
1.420000e+02 1.476836e+03
1.430000e+02 1.511606e+03
1.440000e+02 1.543167e+03
1.450000e+02 1.581477e+03
1.460000e+02 1.630444e+03
1.470000e+02 1.687019e+03
1.480000e+02 1.748087e+03
1.490000e+02 1.810536e+03
1.500000e+02 1.871252e+03
1.510000e+02 1.927484e+03
1.520000e+02 1.987568e+03
1.530000e+02 2.060070e+03
1.540000e+02 2.141682e+03
1.550000e+02 2.228624e+03
1.560000e+02 2.317118e+03
1.570000e+02 2.403384e+03
1.580000e+02 2.484886e+03
1.590000e+02 2.572731e+03
1.600000e+02 2.671212e+03
1.610000e+02 2.776720e+03
1.620000e+02 2.885607e+03
1.630000e+02 2.994222e+03
1.640000e+02 3.099015e+03
1.650000e+02 3.204319e+03
1.660000e+02 3.317676e+03
1.670000e+02 3.436715e+03
1.680000e+02 3.558574e+03
1.690000e+02 3.680395e+03
1.700000e+02 3.799453e+03
1.710000e+02 3.919363e+03
1.720000e+02 4.044455e+03
1.730000e+02 4.172867e+03
1.740000e+02 4.302574e+03
1.750000e+02 4.431555e+03
1.760000e+02 4.558920e+03
1.770000e+02 4.689056e+03
1.780000e+02 4.821915e+03
1.790000e+02 4.956083e+03
1.800000e+02 5.090147e+03
1.810000e+02 5.223076e+03
1.820000e+02 5.357559e+03
1.830000e+02 5.494016e+03
1.840000e+02 5.631388e+03
1.850000e+02 5.768619e+03
1.860000e+02 5.905240e+03
1.870000e+02 6.043435e+03
1.880000e+02 6.182946e+03
1.890000e+02 6.322871e+03
1.900000e+02 6.462328e+03
1.910000e+02 6.602270e+03
1.920000e+02 6.743756e+03
1.930000e+02 6.885872e+03
1.940000e+02 7.027669e+03
1.950000e+02 7.169410e+03
1.960000e+02 7.312738e+03
1.970000e+02 7.456843e+03
1.980000e+02 7.600760e+03
1.990000e+02 7.744810e+03
2.000000e+02 7.890274e+03
2.010000e+02 8.036273e+03
2.020000e+02 8.181912e+03
2.030000e+02 8.328370e+03
2.040000e+02 8.475939e+03
2.050000e+02 8.623621e+03
2.060000e+02 8.771327e+03
2.070000e+02 8.920376e+03
2.080000e+02 9.069857e+03
2.090000e+02 9.219180e+03
2.100000e+02 9.369854e+03
2.110000e+02 9.521079e+03
2.120000e+02 9.672064e+03
2.130000e+02 9.824295e+03
2.140000e+02 9.977140e+03
2.150000e+02 1.013023e+04
2.160000e+02 1.028443e+04
2.170000e+02 1.043860e+04
2.180000e+02 1.059354e+04
2.190000e+02 1.074949e+04
2.200000e+02 1.090571e+04
2.210000e+02 1.106299e+04
2.220000e+02 1.122023e+04
2.230000e+02 1.137873e+04
2.240000e+02 1.153755e+04
2.250000e+02 1.169733e+04
2.260000e+02 1.185737e+04
2.270000e+02 1.201848e+04
2.280000e+02 1.217992e+04
2.290000e+02 1.234254e+04
2.300000e+02 1.250552e+04
2.310000e+02 1.266926e+04
2.320000e+02 1.283352e+04
2.330000e+02 1.299900e+04
2.340000e+02 1.316484e+04
2.350000e+02 1.333175e+04
2.360000e+02 1.349890e+04
2.370000e+02 1.366715e+04
2.380000e+02 1.383599e+04
2.390000e+02 1.400581e+04
2.400000e+02 1.417797e+04
2.410000e+02 1.434533e+04
2.420000e+02 1.451835e+04
2.430000e+02 1.469114e+04
2.440000e+02 1.486556e+04
2.450000e+02 1.504299e+04
2.460000e+02 1.521575e+04
2.470000e+02 1.539271e+04
2.480000e+02 1.557054e+04
2.490000e+02 2.539034e+03
