2 157885.236051
3 154137.828983
4 148521.789126
5 143750.263384
6 138788.043828
7 134036.266845
8 129390.013489
9 124797.614956
10 120301.084688
11 115832.259789
12 111457.19052
13 107083.568224
14 102810.618575
15 98546.5091863
16 94323.806769
17 90189.3639022
18 86051.3245987
19 81939.6440255
20 77936.0252754
21 73967.1152878
22 69965.0912692
23 66043.5461779
24 62242.2220407
25 58487.297173
26 54704.5762221
27 50921.443871
28 47340.3944424
29 43907.2566653
30 40529.845437
31 37115.9756549
32 33620.3929305
33 30419.391572
34 27648.2251036
35 25158.763279
36 22799.8347094
37 20420.2680061
38 17871.3405632
39 15313.005831
40 13313.5033191
41 11853.5668323
42 10777.4205867
43 9929.28879858
44 9153.39568392
45 8293.96545893
46 7205.54323738
47 6036.30338387
48 5160.95264959
49 4596.79699099
50 4275.28454083
51 4127.86343187
52 4085.98179685
53 4081.08776853
54 4044.62947967
55 3908.06414324
56 3645.28042317
57 3369.48471221
58 3164.38143577
59 3025.09874014
60 2939.38241587
61 2894.97825355
62 2879.63204372
63 2881.08957697
64 2887.09664385
65 2885.39903492
66 2863.74254076
67 2812.40919226
68 2744.78657539
69 2685.26075403
70 2642.27205239
71 2613.72060135
72 2597.32270905
73 2590.79468365
74 2591.85283331
75 2598.21346617
76 2607.59289041
77 2617.70741416
78 2626.27334559
79 2631.00699285
80 2629.62533698
81 2621.6905848
82 2612.63302628
83 2608.81161906
84 2612.66515738
85 2623.39552474
86 2640.10763074
87 2661.906385
88 2687.89669714
89 2717.18347676
90 2748.87163348
91 2782.06607691
92 2815.87171667
93 2849.39346236
94 2881.73622361
95 2912.00491002
96 2939.3044312
97 2962.93603287
98 2985.08473531
99 3010.12819861
100 3042.3208385
101 3083.09416737
102 3131.62280382
103 3187.01825597
104 3248.39203197
105 3314.85563995
106 3385.52058806
107 3459.49838444
108 3535.90053722
109 3613.83855455
110 3692.42394456
111 3770.76821539
112 3847.98287518
113 3923.17943207
114 3995.4693942
115 4063.96426972
116 4127.77556675
117 4186.60946569
118 4245.50638747
119 4312.32193603
120 4394.93542316
121 4498.98933119
122 4623.47970793
123 4766.17377776
124 4924.83876509
125 5097.24189429
126 5281.15038977
127 5474.3314759
128 5674.55237709
129 5879.58031771
130 6087.18252216
131 6295.12621483
132 6501.17862012
133 6703.1069624
134 6898.67846607
135 7085.66035553
136 7261.81985515
137 7425.27113297
138 7583.83345426
139 7756.09913034
140 7961.22173591
141 8215.65260813
142 8519.51764693
143 8866.84280243
144 9251.64348578
145 9667.93510809
146 10109.7330805
147 10571.0528141
148 11045.9097202
149 11528.3192097
150 12012.2966938
151 12491.8575837
152 12961.0172906
153 13413.7912254
154 13844.1947994
155 14251.2521929
156 14660.1065972
157 15104.3873988
158 15612.5646031
159 16184.9209003
160 16812.1690554
161 17485.0140149
162 18194.1607254
163 18930.3141335
164 19684.1791859
165 20446.4608291
166 21207.8640097
167 21959.0936744
168 22690.8547696
169 23393.921271
170 24073.7012775
171 24768.2535505
172 25517.3628316
173 26330.0079294
174 27195.5217027
175 28102.9197076
176 29041.2175004
177 29999.4306371
178 30966.5746738
179 31931.6651667
180 32883.7176719
181 33811.7477455
182 34711.897425
183 35623.3630396
184 36596.6111364
185 37639.3614196
186 38736.9436873
187 39874.4915066
188 41037.1384446
189 42210.0180684
190 43378.2639452
191 44527.0096421
192 45643.5335014
193 46759.8997335
194 47943.9359989
195 49206.2202837
196 50526.4914201
197 51884.2179579
198 53258.868447
199 54629.9114373
200 55976.8154784
201 57291.5520462
202 58643.9861171
203 60084.7620342
204 61592.5339836
205 63140.3381463
206 64701.2107035
207 66248.1878362
208 67759.394293
209 69294.8213678
210 70921.2834926
211 72612.8219838
212 74335.230424
213 76054.3023957
214 77739.536453
215 79450.012384
216 81251.2736454
217 83106.8555573
218 84974.1429774
219 86812.6209262
220 88673.6173864
221 90622.9523456
222 92613.5179155
223 94592.7378253
224 96569.6167538
225 98631.9138968
226 100730.459811
227 102809.26269
228 104941.937303
229 107130.439994
230 109304.411967
231 111536.347479
232 113804.899037
233 116079.947989
234 118417.286535
235 120757.875323
236 123151.289218
237 125568.336605
238 128022.23575
239 130511.639383
240 133116.357139
241 135596.043501
242 138179.948173
243 140793.576117
244 143442.801676
245 146161.336189
246 148834.60684
247 151596.129056
248 154393.254086
