1.000000e+00 1.216843e+04
2.000000e+00 2.057253e+04
3.000000e+00 2.044675e+04
4.000000e+00 2.029412e+04
5.000000e+00 2.015608e+04
6.000000e+00 2.002987e+04
7.000000e+00 1.992340e+04
8.000000e+00 1.983144e+04
9.000000e+00 1.974512e+04
1.000000e+01 1.967018e+04
1.100000e+01 1.960698e+04
1.200000e+01 1.954834e+04
1.300000e+01 1.949643e+04
1.400000e+01 1.944776e+04
1.500000e+01 1.940418e+04
1.600000e+01 1.936196e+04
1.700000e+01 1.932465e+04
1.800000e+01 1.928699e+04
1.900000e+01 1.925335e+04
2.000000e+01 1.921944e+04
2.100000e+01 1.918793e+04
2.200000e+01 1.915799e+04
2.300000e+01 1.912750e+04
2.400000e+01 1.909947e+04
2.500000e+01 1.907151e+04
2.600000e+01 1.904374e+04
2.700000e+01 1.901782e+04
2.800000e+01 1.899188e+04
2.900000e+01 1.896585e+04
3.000000e+01 1.894078e+04
3.100000e+01 1.891627e+04
3.200000e+01 1.889166e+04
3.300000e+01 1.886742e+04
3.400000e+01 1.884386e+04
3.500000e+01 1.882038e+04
3.600000e+01 1.879695e+04
3.700000e+01 1.877381e+04
3.800000e+01 1.875114e+04
3.900000e+01 1.872863e+04
4.000000e+01 1.870617e+04
4.100000e+01 1.868377e+04
4.200000e+01 1.866146e+04
4.300000e+01 1.863935e+04
4.400000e+01 1.861754e+04
4.500000e+01 1.859591e+04
4.600000e+01 1.857436e+04
4.700000e+01 1.855279e+04
4.800000e+01 1.853133e+04
4.900000e+01 1.851014e+04
5.000000e+01 1.848912e+04
5.100000e+01 1.846818e+04
5.200000e+01 1.844722e+04
5.300000e+01 1.842626e+04
5.400000e+01 1.840554e+04
5.500000e+01 1.838503e+04
5.600000e+01 1.836464e+04
5.700000e+01 1.834428e+04
5.800000e+01 1.832388e+04
5.900000e+01 1.830345e+04
6.000000e+01 1.828328e+04
6.100000e+01 1.826334e+04
6.200000e+01 1.824355e+04
6.300000e+01 1.822383e+04
6.400000e+01 1.820410e+04
6.500000e+01 1.818429e+04
6.600000e+01 1.816456e+04
6.700000e+01 1.814509e+04
6.800000e+01 1.812583e+04
6.900000e+01 1.810670e+04
7.000000e+01 1.808763e+04
7.100000e+01 1.806853e+04
7.200000e+01 1.804934e+04
7.300000e+01 1.803012e+04
7.400000e+01 1.801116e+04
7.500000e+01 1.799244e+04
7.600000e+01 1.797391e+04
7.700000e+01 1.795550e+04
7.800000e+01 1.793714e+04
7.900000e+01 1.791876e+04
8.000000e+01 1.790031e+04
8.100000e+01 1.788183e+04
8.200000e+01 1.786359e+04
8.300000e+01 1.784560e+04
8.400000e+01 1.782780e+04
8.500000e+01 1.781013e+04
8.600000e+01 1.779253e+04
8.700000e+01 1.777493e+04
8.800000e+01 1.775727e+04
8.900000e+01 1.773949e+04
9.000000e+01 1.772171e+04
9.100000e+01 1.770434e+04
9.200000e+01 1.768739e+04
9.300000e+01 1.767078e+04
9.400000e+01 1.765442e+04
9.500000e+01 1.763823e+04
9.600000e+01 1.762213e+04
9.700000e+01 1.760602e+04
9.800000e+01 1.758984e+04
9.900000e+01 1.757348e+04
1.000000e+02 1.755707e+04
1.010000e+02 1.754086e+04
1.020000e+02 1.752488e+04
1.030000e+02 1.750908e+04
1.040000e+02 1.749340e+04
1.050000e+02 1.747781e+04
1.060000e+02 1.746226e+04
1.070000e+02 1.744669e+04
1.080000e+02 1.743108e+04
1.090000e+02 1.741536e+04
1.100000e+02 1.739966e+04
1.110000e+02 1.738412e+04
1.120000e+02 1.736872e+04
1.130000e+02 1.735343e+04
1.140000e+02 1.733819e+04
1.150000e+02 1.732297e+04
1.160000e+02 1.730773e+04
1.170000e+02 1.729242e+04
1.180000e+02 1.727702e+04
1.190000e+02 1.726174e+04
1.200000e+02 1.724680e+04
1.210000e+02 1.723212e+04
1.220000e+02 1.721764e+04
1.230000e+02 1.720327e+04
1.240000e+02 1.718892e+04
1.250000e+02 1.717450e+04
1.260000e+02 1.715995e+04
1.270000e+02 1.714546e+04
1.280000e+02 1.713126e+04
1.290000e+02 1.711730e+04
1.300000e+02 1.710350e+04
1.310000e+02 1.708977e+04
1.320000e+02 1.707605e+04
1.330000e+02 1.706224e+04
1.340000e+02 1.704844e+04
1.350000e+02 1.703493e+04
1.360000e+02 1.702165e+04
1.370000e+02 1.700849e+04
1.380000e+02 1.699536e+04
1.390000e+02 1.698214e+04
1.400000e+02 1.696877e+04
1.410000e+02 1.695558e+04
1.420000e+02 1.694272e+04
1.430000e+02 1.693007e+04
1.440000e+02 1.691752e+04
1.450000e+02 1.690495e+04
1.460000e+02 1.689230e+04
1.470000e+02 1.687983e+04
1.480000e+02 1.686757e+04
1.490000e+02 1.685542e+04
1.500000e+02 1.684328e+04
1.510000e+02 1.683108e+04
1.520000e+02 1.681902e+04
1.530000e+02 1.680723e+04
1.540000e+02 1.679557e+04
1.550000e+02 1.678386e+04
1.560000e+02 1.677202e+04
1.570000e+02 1.676045e+04
1.580000e+02 1.674917e+04
1.590000e+02 1.673795e+04
1.600000e+02 1.672655e+04
1.610000e+02 1.671521e+04
1.620000e+02 1.670419e+04
1.630000e+02 1.669332e+04
1.640000e+02 1.668246e+04
1.650000e+02 1.667169e+04
1.660000e+02 1.666103e+04
1.670000e+02 1.665037e+04
1.680000e+02 1.663975e+04
1.690000e+02 1.662945e+04
1.700000e+02 1.661913e+04
1.710000e+02 1.660863e+04
1.720000e+02 1.659847e+04
1.730000e+02 1.658848e+04
1.740000e+02 1.657851e+04
1.750000e+02 1.656864e+04
1.760000e+02 1.655880e+04
1.770000e+02 1.654908e+04
1.780000e+02 1.653948e+04
1.790000e+02 1.653008e+04
1.800000e+02 1.652059e+04
1.810000e+02 1.651114e+04
1.820000e+02 1.650191e+04
1.830000e+02 1.649272e+04
1.840000e+02 1.648366e+04
1.850000e+02 1.647474e+04
1.860000e+02 1.646583e+04
1.870000e+02 1.645698e+04
1.880000e+02 1.644828e+04
1.890000e+02 1.643970e+04
1.900000e+02 1.643099e+04
1.910000e+02 1.642277e+04
1.920000e+02 1.641424e+04
1.930000e+02 1.640604e+04
1.940000e+02 1.639790e+04
1.950000e+02 1.638967e+04
1.960000e+02 1.638179e+04
1.970000e+02 1.637383e+04
1.980000e+02 1.636601e+04
1.990000e+02 1.618827e+03
