1.000000e+00 5.031075e+03
2.000000e+00 8.476532e+03
3.000000e+00 8.412743e+03
4.000000e+00 8.334354e+03
5.000000e+00 8.263021e+03
6.000000e+00 8.195564e+03
7.000000e+00 8.136617e+03
8.000000e+00 8.083831e+03
9.000000e+00 8.033418e+03
1.000000e+01 7.987890e+03
1.100000e+01 7.947474e+03
1.200000e+01 7.909069e+03
1.300000e+01 7.873540e+03
1.400000e+01 7.839537e+03
1.500000e+01 7.807762e+03
1.600000e+01 7.776619e+03
1.700000e+01 7.747498e+03
1.800000e+01 7.718410e+03
1.900000e+01 7.691123e+03
2.000000e+01 7.663775e+03
2.100000e+01 7.637369e+03
2.200000e+01 7.611709e+03
2.300000e+01 7.586003e+03
2.400000e+01 7.561307e+03
2.500000e+01 7.536736e+03
2.600000e+01 7.512306e+03
2.700000e+01 7.488593e+03
2.800000e+01 7.465004e+03
2.900000e+01 7.441503e+03
3.000000e+01 7.418405e+03
3.100000e+01 7.395599e+03
3.200000e+01 7.372870e+03
3.300000e+01 7.350309e+03
3.400000e+01 7.327995e+03
3.500000e+01 7.305871e+03
3.600000e+01 7.283890e+03
3.700000e+01 7.262028e+03
3.800000e+01 7.240273e+03
3.900000e+01 7.218724e+03
4.000000e+01 7.197351e+03
4.100000e+01 7.176082e+03
4.200000e+01 7.154845e+03
4.300000e+01 7.133734e+03
4.400000e+01 7.112864e+03
4.500000e+01 7.092143e+03
4.600000e+01 7.071471e+03
4.700000e+01 7.050756e+03
4.800000e+01 7.030173e+03
4.900000e+01 7.009866e+03
5.000000e+01 6.989731e+03
5.100000e+01 6.969661e+03
5.200000e+01 6.949549e+03
5.300000e+01 6.929409e+03
5.400000e+01 6.909555e+03
5.500000e+01 6.889942e+03
5.600000e+01 6.870466e+03
5.700000e+01 6.851025e+03
5.800000e+01 6.831516e+03
5.900000e+01 6.811969e+03
6.000000e+01 6.792718e+03
6.100000e+01 6.773729e+03
6.200000e+01 6.754903e+03
6.300000e+01 6.736142e+03
6.400000e+01 6.717348e+03
6.500000e+01 6.698431e+03
6.600000e+01 6.679610e+03
6.700000e+01 6.661123e+03
6.800000e+01 6.642889e+03
6.900000e+01 6.624817e+03
7.000000e+01 6.606814e+03
7.100000e+01 6.588790e+03
7.200000e+01 6.570652e+03
7.300000e+01 6.552480e+03
7.400000e+01 6.534631e+03
7.500000e+01 6.517084e+03
7.600000e+01 6.499753e+03
7.700000e+01 6.482553e+03
7.800000e+01 6.465399e+03
7.900000e+01 6.448207e+03
8.000000e+01 6.430891e+03
8.100000e+01 6.413508e+03
8.200000e+01 6.396443e+03
8.300000e+01 6.379713e+03
8.400000e+01 6.363237e+03
8.500000e+01 6.346935e+03
8.600000e+01 6.330724e+03
8.700000e+01 6.314525e+03
8.800000e+01 6.298256e+03
8.900000e+01 6.281838e+03
9.000000e+01 6.265391e+03
9.100000e+01 6.249374e+03
9.200000e+01 6.233804e+03
9.300000e+01 6.218589e+03
9.400000e+01 6.203636e+03
9.500000e+01 6.188852e+03
9.600000e+01 6.174143e+03
9.700000e+01 6.159418e+03
9.800000e+01 6.144584e+03
9.900000e+01 6.129552e+03
1.000000e+02 6.114474e+03
1.010000e+02 6.099733e+03
1.020000e+02 6.085333e+03
1.030000e+02 6.071203e+03
1.040000e+02 6.057272e+03
1.050000e+02 6.043472e+03
1.060000e+02 6.029730e+03
1.070000e+02 6.015977e+03
1.080000e+02 6.002142e+03
1.090000e+02 5.988156e+03
1.100000e+02 5.974107e+03
1.110000e+02 5.960309e+03
1.120000e+02 5.946785e+03
1.130000e+02 5.933472e+03
1.140000e+02 5.920308e+03
1.150000e+02 5.907232e+03
1.160000e+02 5.894182e+03
1.170000e+02 5.881094e+03
1.180000e+02 5.867908e+03
1.190000e+02 5.854599e+03
1.200000e+02 5.841489e+03
1.210000e+02 5.828787e+03
1.220000e+02 5.816413e+03
1.230000e+02 5.804277e+03
1.240000e+02 5.792287e+03
1.250000e+02 5.780355e+03
1.260000e+02 5.768390e+03
1.270000e+02 5.756301e+03
1.280000e+02 5.744062e+03
1.290000e+02 5.732068e+03
1.300000e+02 5.720476e+03
1.310000e+02 5.709190e+03
1.320000e+02 5.698113e+03
1.330000e+02 5.687144e+03
1.340000e+02 5.676185e+03
1.350000e+02 5.665138e+03
1.360000e+02 5.653919e+03
1.370000e+02 5.642806e+03
1.380000e+02 5.632106e+03
1.390000e+02 5.621733e+03
1.400000e+02 5.611582e+03
1.410000e+02 5.601544e+03
1.420000e+02 5.591514e+03
1.430000e+02 5.581384e+03
1.440000e+02 5.571096e+03
1.450000e+02 5.561046e+03
1.460000e+02 5.551395e+03
1.470000e+02 5.542030e+03
1.480000e+02 5.532834e+03
1.490000e+02 5.523691e+03
1.500000e+02 5.514483e+03
1.510000e+02 5.505107e+03
1.520000e+02 5.495848e+03
1.530000e+02 5.487003e+03
1.540000e+02 5.478463e+03
1.550000e+02 5.470100e+03
1.560000e+02 5.461788e+03
1.570000e+02 5.453400e+03
1.580000e+02 5.444853e+03
1.590000e+02 5.436548e+03
1.600000e+02 5.428634e+03
1.610000e+02 5.420974e+03
1.620000e+02 5.413431e+03
1.630000e+02 5.405865e+03
1.640000e+02 5.398145e+03
1.650000e+02 5.390493e+03
1.660000e+02 5.383255e+03
1.670000e+02 5.376303e+03
1.680000e+02 5.369490e+03
1.690000e+02 5.362665e+03
1.700000e+02 5.355688e+03
1.710000e+02 5.348827e+03
1.720000e+02 5.342362e+03
1.730000e+02 5.336147e+03
1.740000e+02 5.330025e+03
1.750000e+02 5.323841e+03
1.760000e+02 5.317548e+03
1.770000e+02 5.311595e+03
1.780000e+02 5.305955e+03
1.790000e+02 5.300462e+03
1.800000e+02 5.294946e+03
1.810000e+02 5.289298e+03
1.820000e+02 5.283934e+03
1.830000e+02 5.278896e+03
1.840000e+02 5.274005e+03
1.850000e+02 5.269077e+03
1.860000e+02 5.264047e+03
1.870000e+02 5.259360e+03
1.880000e+02 5.254951e+03
1.890000e+02 5.250628e+03
1.900000e+02 5.246199e+03
1.910000e+02 5.241878e+03
1.920000e+02 5.237905e+03
1.930000e+02 5.234090e+03
1.940000e+02 5.230236e+03
1.950000e+02 5.226394e+03
1.960000e+02 5.222895e+03
1.970000e+02 5.219559e+03
1.980000e+02 5.216177e+03
1.990000e+02 5.212836e+03
2.000000e+02 5.209839e+03
2.010000e+02 5.206970e+03
2.020000e+02 5.204009e+03
2.030000e+02 5.201247e+03
2.040000e+02 5.198754e+03
2.050000e+02 5.196286e+03
2.060000e+02 5.193818e+03
2.070000e+02 5.191667e+03
2.080000e+02 5.189603e+03
2.090000e+02 5.187472e+03
2.100000e+02 5.185654e+03
2.110000e+02 5.183963e+03
2.120000e+02 5.182219e+03
2.130000e+02 5.180773e+03
2.140000e+02 5.179413e+03
2.150000e+02 5.178036e+03
2.160000e+02 5.176954e+03
2.170000e+02 5.175892e+03
2.180000e+02 5.174977e+03
2.190000e+02 5.174226e+03
2.200000e+02 5.173477e+03
2.210000e+02 5.172983e+03
2.220000e+02 5.172467e+03
2.230000e+02 5.172193e+03
2.240000e+02 5.171943e+03
2.250000e+02 5.171880e+03
2.260000e+02 5.171881e+03
2.270000e+02 5.172057e+03
2.280000e+02 5.172274e+03
2.290000e+02 5.172686e+03
2.300000e+02 5.173157e+03
2.310000e+02 5.173773e+03
2.320000e+02 5.174493e+03
2.330000e+02 5.175320e+03
2.340000e+02 5.176279e+03
2.350000e+02 5.177360e+03
2.360000e+02 5.178530e+03
2.370000e+02 5.179812e+03
2.380000e+02 5.181214e+03
2.390000e+02 5.182745e+03
2.400000e+02 5.184388e+03
2.410000e+02 5.186091e+03
2.420000e+02 5.187960e+03
2.430000e+02 5.189911e+03
2.440000e+02 5.192000e+03
2.450000e+02 5.194215e+03
2.460000e+02 5.196460e+03
2.470000e+02 5.198876e+03
2.480000e+02 5.203849e+03
2.490000e+02 1.618288e+03
