0.0 0.0 1.000e+00 0.0 0.0 4.188e+04
0.0 0.0 1.500e+00 0.0 0.0 5.153e+04
0.0 0.0 2.000e+00 0.0 0.0 5.131e+04
0.0 0.0 2.500e+00 0.0 0.0 5.106e+04
0.0 0.0 3.000e+00 0.0 0.0 5.084e+04
0.0 0.0 3.500e+00 0.0 0.0 5.054e+04
0.0 0.0 4.000e+00 0.0 0.0 5.030e+04
0.0 0.0 4.500e+00 0.0 0.0 5.008e+04
0.0 0.0 5.000e+00 0.0 0.0 4.983e+04
0.0 0.0 5.500e+00 0.0 0.0 4.962e+04
0.0 0.0 6.000e+00 0.0 0.0 4.938e+04
0.0 0.0 6.500e+00 0.0 0.0 4.918e+04
0.0 0.0 7.000e+00 0.0 0.0 4.898e+04
0.0 0.0 7.500e+00 0.0 0.0 4.879e+04
0.0 0.0 8.000e+00 0.0 0.0 4.862e+04
0.0 0.0 8.500e+00 0.0 0.0 4.843e+04
0.0 0.0 9.000e+00 0.0 0.0 4.827e+04
0.0 0.0 9.500e+00 0.0 0.0 4.812e+04
0.0 0.0 1.000e+01 0.0 0.0 4.796e+04
0.0 0.0 1.050e+01 0.0 0.0 4.782e+04
0.0 0.0 1.100e+01 0.0 0.0 4.767e+04
0.0 0.0 1.150e+01 0.0 0.0 4.753e+04
0.0 0.0 1.200e+01 0.0 0.0 4.740e+04
0.0 0.0 1.250e+01 0.0 0.0 4.727e+04
0.0 0.0 1.300e+01 0.0 0.0 4.714e+04
0.0 0.0 1.350e+01 0.0 0.0 4.702e+04
0.0 0.0 1.400e+01 0.0 0.0 4.690e+04
0.0 0.0 1.450e+01 0.0 0.0 4.678e+04
0.0 0.0 1.500e+01 0.0 0.0 4.666e+04
0.0 0.0 1.550e+01 0.0 0.0 4.654e+04
0.0 0.0 1.600e+01 0.0 0.0 4.643e+04
0.0 0.0 1.650e+01 0.0 0.0 4.632e+04
0.0 0.0 1.700e+01 0.0 0.0 4.621e+04
0.0 0.0 1.750e+01 0.0 0.0 4.610e+04
0.0 0.0 1.800e+01 0.0 0.0 4.599e+04
0.0 0.0 1.850e+01 0.0 0.0 4.589e+04
0.0 0.0 1.900e+01 0.0 0.0 4.578e+04
0.0 0.0 1.950e+01 0.0 0.0 4.568e+04
0.0 0.0 2.000e+01 0.0 0.0 4.557e+04
0.0 0.0 2.050e+01 0.0 0.0 4.547e+04
0.0 0.0 2.100e+01 0.0 0.0 4.537e+04
0.0 0.0 2.150e+01 0.0 0.0 4.527e+04
0.0 0.0 2.200e+01 0.0 0.0 4.517e+04
0.0 0.0 2.250e+01 0.0 0.0 4.507e+04
0.0 0.0 2.300e+01 0.0 0.0 4.497e+04
0.0 0.0 2.350e+01 0.0 0.0 4.488e+04
0.0 0.0 2.400e+01 0.0 0.0 4.478e+04
0.0 0.0 2.450e+01 0.0 0.0 4.468e+04
0.0 0.0 2.500e+01 0.0 0.0 4.459e+04
0.0 0.0 2.550e+01 0.0 0.0 4.449e+04
0.0 0.0 2.600e+01 0.0 0.0 4.440e+04
0.0 0.0 2.650e+01 0.0 0.0 4.430e+04
0.0 0.0 2.700e+01 0.0 0.0 4.421e+04
0.0 0.0 2.750e+01 0.0 0.0 4.412e+04
0.0 0.0 2.800e+01 0.0 0.0 4.402e+04
0.0 0.0 2.850e+01 0.0 0.0 4.393e+04
0.0 0.0 2.900e+01 0.0 0.0 4.384e+04
0.0 0.0 2.950e+01 0.0 0.0 4.375e+04
0.0 0.0 3.000e+01 0.0 0.0 4.366e+04
0.0 0.0 3.050e+01 0.0 0.0 4.357e+04
0.0 0.0 3.100e+01 0.0 0.0 4.348e+04
0.0 0.0 3.150e+01 0.0 0.0 4.339e+04
0.0 0.0 3.200e+01 0.0 0.0 4.330e+04
0.0 0.0 3.250e+01 0.0 0.0 4.321e+04
0.0 0.0 3.300e+01 0.0 0.0 4.312e+04
0.0 0.0 3.350e+01 0.0 0.0 4.303e+04
0.0 0.0 3.400e+01 0.0 0.0 4.294e+04
0.0 0.0 3.450e+01 0.0 0.0 4.285e+04
0.0 0.0 3.500e+01 0.0 0.0 4.276e+04
0.0 0.0 3.550e+01 0.0 0.0 4.267e+04
0.0 0.0 3.600e+01 0.0 0.0 4.259e+04
0.0 0.0 3.650e+01 0.0 0.0 4.250e+04
0.0 0.0 3.700e+01 0.0 0.0 4.241e+04
0.0 0.0 3.750e+01 0.0 0.0 4.232e+04
0.0 0.0 3.800e+01 0.0 0.0 4.224e+04
0.0 0.0 3.850e+01 0.0 0.0 4.215e+04
0.0 0.0 3.900e+01 0.0 0.0 4.206e+04
0.0 0.0 3.950e+01 0.0 0.0 4.198e+04
0.0 0.0 4.000e+01 0.0 0.0 4.189e+04
0.0 0.0 4.050e+01 0.0 0.0 4.181e+04
0.0 0.0 4.100e+01 0.0 0.0 4.172e+04
0.0 0.0 4.150e+01 0.0 0.0 4.164e+04
0.0 0.0 4.200e+01 0.0 0.0 4.155e+04
0.0 0.0 4.250e+01 0.0 0.0 4.147e+04
0.0 0.0 4.300e+01 0.0 0.0 4.138e+04
0.0 0.0 4.350e+01 0.0 0.0 4.130e+04
0.0 0.0 4.400e+01 0.0 0.0 4.122e+04
0.0 0.0 4.450e+01 0.0 0.0 4.113e+04
0.0 0.0 4.500e+01 0.0 0.0 4.105e+04
0.0 0.0 4.550e+01 0.0 0.0 4.097e+04
0.0 0.0 4.600e+01 0.0 0.0 4.088e+04
0.0 0.0 4.650e+01 0.0 0.0 4.080e+04
0.0 0.0 4.700e+01 0.0 0.0 4.072e+04
0.0 0.0 4.750e+01 0.0 0.0 4.063e+04
0.0 0.0 4.800e+01 0.0 0.0 4.055e+04
0.0 0.0 4.850e+01 0.0 0.0 4.047e+04
0.0 0.0 4.900e+01 0.0 0.0 4.039e+04
0.0 0.0 4.950e+01 0.0 0.0 4.030e+04
0.0 0.0 5.000e+01 0.0 0.0 4.022e+04
0.0 0.0 5.050e+01 0.0 0.0 4.014e+04
0.0 0.0 5.100e+01 0.0 0.0 4.006e+04
0.0 0.0 5.150e+01 0.0 0.0 3.998e+04
0.0 0.0 5.200e+01 0.0 0.0 3.990e+04
0.0 0.0 5.250e+01 0.0 0.0 3.982e+04
0.0 0.0 5.300e+01 0.0 0.0 3.974e+04
0.0 0.0 5.350e+01 0.0 0.0 3.966e+04
0.0 0.0 5.400e+01 0.0 0.0 3.958e+04
0.0 0.0 5.450e+01 0.0 0.0 3.950e+04
0.0 0.0 5.500e+01 0.0 0.0 3.942e+04
0.0 0.0 5.550e+01 0.0 0.0 3.934e+04
0.0 0.0 5.600e+01 0.0 0.0 3.926e+04
0.0 0.0 5.650e+01 0.0 0.0 3.918e+04
0.0 0.0 5.700e+01 0.0 0.0 3.910e+04
0.0 0.0 5.750e+01 0.0 0.0 3.902e+04
0.0 0.0 5.800e+01 0.0 0.0 3.894e+04
0.0 0.0 5.850e+01 0.0 0.0 3.887e+04
0.0 0.0 5.900e+01 0.0 0.0 3.879e+04
0.0 0.0 5.950e+01 0.0 0.0 3.871e+04
0.0 0.0 6.000e+01 0.0 0.0 3.863e+04
0.0 0.0 6.050e+01 0.0 0.0 3.855e+04
0.0 0.0 6.100e+01 0.0 0.0 3.848e+04
0.0 0.0 6.150e+01 0.0 0.0 3.840e+04
0.0 0.0 6.200e+01 0.0 0.0 3.832e+04
0.0 0.0 6.250e+01 0.0 0.0 3.825e+04
0.0 0.0 6.300e+01 0.0 0.0 3.817e+04
0.0 0.0 6.350e+01 0.0 0.0 3.809e+04
0.0 0.0 6.400e+01 0.0 0.0 3.802e+04
0.0 0.0 6.450e+01 0.0 0.0 3.794e+04
0.0 0.0 6.500e+01 0.0 0.0 3.786e+04
0.0 0.0 6.550e+01 0.0 0.0 3.779e+04
0.0 0.0 6.600e+01 0.0 0.0 3.771e+04
0.0 0.0 6.650e+01 0.0 0.0 3.764e+04
0.0 0.0 6.700e+01 0.0 0.0 3.756e+04
0.0 0.0 6.750e+01 0.0 0.0 3.749e+04
0.0 0.0 6.800e+01 0.0 0.0 3.741e+04
0.0 0.0 6.850e+01 0.0 0.0 3.734e+04
0.0 0.0 6.900e+01 0.0 0.0 3.727e+04
0.0 0.0 6.950e+01 0.0 0.0 3.719e+04
0.0 0.0 7.000e+01 0.0 0.0 3.712e+04
0.0 0.0 7.050e+01 0.0 0.0 3.705e+04
0.0 0.0 7.100e+01 0.0 0.0 3.697e+04
0.0 0.0 7.150e+01 0.0 0.0 3.690e+04
0.0 0.0 7.200e+01 0.0 0.0 3.682e+04
0.0 0.0 7.250e+01 0.0 0.0 3.675e+04
0.0 0.0 7.300e+01 0.0 0.0 3.668e+04
0.0 0.0 7.350e+01 0.0 0.0 3.660e+04
0.0 0.0 7.400e+01 0.0 0.0 3.653e+04
0.0 0.0 7.450e+01 0.0 0.0 3.646e+04
0.0 0.0 7.500e+01 0.0 0.0 3.639e+04
0.0 0.0 7.550e+01 0.0 0.0 3.631e+04
0.0 0.0 7.600e+01 0.0 0.0 3.624e+04
0.0 0.0 7.650e+01 0.0 0.0 3.617e+04
0.0 0.0 7.700e+01 0.0 0.0 3.610e+04
0.0 0.0 7.750e+01 0.0 0.0 3.603e+04
0.0 0.0 7.800e+01 0.0 0.0 3.596e+04
0.0 0.0 7.850e+01 0.0 0.0 3.589e+04
0.0 0.0 7.900e+01 0.0 0.0 3.582e+04
0.0 0.0 7.950e+01 0.0 0.0 3.575e+04
0.0 0.0 8.000e+01 0.0 0.0 3.568e+04
0.0 0.0 8.050e+01 0.0 0.0 3.561e+04
0.0 0.0 8.100e+01 0.0 0.0 3.554e+04
0.0 0.0 8.150e+01 0.0 0.0 3.547e+04
0.0 0.0 8.200e+01 0.0 0.0 3.540e+04
0.0 0.0 8.250e+01 0.0 0.0 3.533e+04
0.0 0.0 8.300e+01 0.0 0.0 3.526e+04
0.0 0.0 8.350e+01 0.0 0.0 3.519e+04
0.0 0.0 8.400e+01 0.0 0.0 3.512e+04
0.0 0.0 8.450e+01 0.0 0.0 3.506e+04
0.0 0.0 8.500e+01 0.0 0.0 3.499e+04
0.0 0.0 8.550e+01 0.0 0.0 3.492e+04
0.0 0.0 8.600e+01 0.0 0.0 3.485e+04
0.0 0.0 8.650e+01 0.0 0.0 3.479e+04
0.0 0.0 8.700e+01 0.0 0.0 3.472e+04
0.0 0.0 8.750e+01 0.0 0.0 3.465e+04
0.0 0.0 8.800e+01 0.0 0.0 3.459e+04
0.0 0.0 8.850e+01 0.0 0.0 3.452e+04
0.0 0.0 8.900e+01 0.0 0.0 3.445e+04
0.0 0.0 8.950e+01 0.0 0.0 3.438e+04
0.0 0.0 9.000e+01 0.0 0.0 3.431e+04
0.0 0.0 9.050e+01 0.0 0.0 3.425e+04
0.0 0.0 9.100e+01 0.0 0.0 3.418e+04
0.0 0.0 9.150e+01 0.0 0.0 3.412e+04
0.0 0.0 9.200e+01 0.0 0.0 3.405e+04
0.0 0.0 9.250e+01 0.0 0.0 3.399e+04
0.0 0.0 9.300e+01 0.0 0.0 3.393e+04
0.0 0.0 9.350e+01 0.0 0.0 3.386e+04
0.0 0.0 9.400e+01 0.0 0.0 3.380e+04
0.0 0.0 9.450e+01 0.0 0.0 3.374e+04
0.0 0.0 9.500e+01 0.0 0.0 3.368e+04
0.0 0.0 9.550e+01 0.0 0.0 3.362e+04
0.0 0.0 9.600e+01 0.0 0.0 3.355e+04
0.0 0.0 9.650e+01 0.0 0.0 3.349e+04
0.0 0.0 9.700e+01 0.0 0.0 3.343e+04
0.0 0.0 9.750e+01 0.0 0.0 3.337e+04
0.0 0.0 9.800e+01 0.0 0.0 3.331e+04
0.0 0.0 9.850e+01 0.0 0.0 3.324e+04
0.0 0.0 9.900e+01 0.0 0.0 3.318e+04
0.0 0.0 9.950e+01 0.0 0.0 3.312e+04
0.0 0.0 1.000e+02 0.0 0.0 3.306e+04
0.0 0.0 1.005e+02 0.0 0.0 3.299e+04
0.0 0.0 1.010e+02 0.0 0.0 3.293e+04
0.0 0.0 1.015e+02 0.0 0.0 3.287e+04
0.0 0.0 1.020e+02 0.0 0.0 3.281e+04
0.0 0.0 1.025e+02 0.0 0.0 3.275e+04
0.0 0.0 1.030e+02 0.0 0.0 3.269e+04
0.0 0.0 1.035e+02 0.0 0.0 3.263e+04
0.0 0.0 1.040e+02 0.0 0.0 3.258e+04
0.0 0.0 1.045e+02 0.0 0.0 3.252e+04
0.0 0.0 1.050e+02 0.0 0.0 3.246e+04
0.0 0.0 1.055e+02 0.0 0.0 3.240e+04
0.0 0.0 1.060e+02 0.0 0.0 3.234e+04
0.0 0.0 1.065e+02 0.0 0.0 3.228e+04
0.0 0.0 1.070e+02 0.0 0.0 3.223e+04
0.0 0.0 1.075e+02 0.0 0.0 3.217e+04
0.0 0.0 1.080e+02 0.0 0.0 3.211e+04
0.0 0.0 1.085e+02 0.0 0.0 3.205e+04
0.0 0.0 1.090e+02 0.0 0.0 3.199e+04
0.0 0.0 1.095e+02 0.0 0.0 3.193e+04
0.0 0.0 1.100e+02 0.0 0.0 3.187e+04
0.0 0.0 1.105e+02 0.0 0.0 3.181e+04
0.0 0.0 1.110e+02 0.0 0.0 3.176e+04
0.0 0.0 1.115e+02 0.0 0.0 3.170e+04
0.0 0.0 1.120e+02 0.0 0.0 3.164e+04
0.0 0.0 1.125e+02 0.0 0.0 3.158e+04
0.0 0.0 1.130e+02 0.0 0.0 3.153e+04
0.0 0.0 1.135e+02 0.0 0.0 3.147e+04
0.0 0.0 1.140e+02 0.0 0.0 3.142e+04
0.0 0.0 1.145e+02 0.0 0.0 3.136e+04
0.0 0.0 1.150e+02 0.0 0.0 3.130e+04
0.0 0.0 1.155e+02 0.0 0.0 3.125e+04
0.0 0.0 1.160e+02 0.0 0.0 3.119e+04
0.0 0.0 1.165e+02 0.0 0.0 3.114e+04
0.0 0.0 1.170e+02 0.0 0.0 3.108e+04
0.0 0.0 1.175e+02 0.0 0.0 3.102e+04
0.0 0.0 1.180e+02 0.0 0.0 3.097e+04
0.0 0.0 1.185e+02 0.0 0.0 3.091e+04
0.0 0.0 1.190e+02 0.0 0.0 3.085e+04
0.0 0.0 1.195e+02 0.0 0.0 3.080e+04
0.0 0.0 1.200e+02 0.0 0.0 3.074e+04
0.0 0.0 1.205e+02 0.0 0.0 3.069e+04
0.0 0.0 1.210e+02 0.0 0.0 3.063e+04
0.0 0.0 1.215e+02 0.0 0.0 3.058e+04
0.0 0.0 1.220e+02 0.0 0.0 3.052e+04
0.0 0.0 1.225e+02 0.0 0.0 3.047e+04
0.0 0.0 1.230e+02 0.0 0.0 3.042e+04
0.0 0.0 1.235e+02 0.0 0.0 3.037e+04
0.0 0.0 1.240e+02 0.0 0.0 3.031e+04
0.0 0.0 1.245e+02 0.0 0.0 3.026e+04
0.0 0.0 1.250e+02 0.0 0.0 3.021e+04
0.0 0.0 1.255e+02 0.0 0.0 3.016e+04
0.0 0.0 1.260e+02 0.0 0.0 3.011e+04
0.0 0.0 1.265e+02 0.0 0.0 3.005e+04
0.0 0.0 1.270e+02 0.0 0.0 3.000e+04
0.0 0.0 1.275e+02 0.0 0.0 2.995e+04
0.0 0.0 1.280e+02 0.0 0.0 2.989e+04
0.0 0.0 1.285e+02 0.0 0.0 2.984e+04
0.0 0.0 1.290e+02 0.0 0.0 2.979e+04
0.0 0.0 1.295e+02 0.0 0.0 2.974e+04
0.0 0.0 1.300e+02 0.0 0.0 2.969e+04
0.0 0.0 1.305e+02 0.0 0.0 2.964e+04
0.0 0.0 1.310e+02 0.0 0.0 2.959e+04
0.0 0.0 1.315e+02 0.0 0.0 2.954e+04
0.0 0.0 1.320e+02 0.0 0.0 2.949e+04
0.0 0.0 1.325e+02 0.0 0.0 2.944e+04
0.0 0.0 1.330e+02 0.0 0.0 2.939e+04
0.0 0.0 1.335e+02 0.0 0.0 2.935e+04
0.0 0.0 1.340e+02 0.0 0.0 2.930e+04
0.0 0.0 1.345e+02 0.0 0.0 2.925e+04
0.0 0.0 1.350e+02 0.0 0.0 2.920e+04
0.0 0.0 1.355e+02 0.0 0.0 2.915e+04
0.0 0.0 1.360e+02 0.0 0.0 2.910e+04
0.0 0.0 1.365e+02 0.0 0.0 2.905e+04
0.0 0.0 1.370e+02 0.0 0.0 2.900e+04
0.0 0.0 1.375e+02 0.0 0.0 2.895e+04
0.0 0.0 1.380e+02 0.0 0.0 2.891e+04
0.0 0.0 1.385e+02 0.0 0.0 2.886e+04
0.0 0.0 1.390e+02 0.0 0.0 2.881e+04
0.0 0.0 1.395e+02 0.0 0.0 2.877e+04
0.0 0.0 1.400e+02 0.0 0.0 2.872e+04
0.0 0.0 1.405e+02 0.0 0.0 2.868e+04
0.0 0.0 1.410e+02 0.0 0.0 2.863e+04
0.0 0.0 1.415e+02 0.0 0.0 2.859e+04
0.0 0.0 1.420e+02 0.0 0.0 2.854e+04
0.0 0.0 1.425e+02 0.0 0.0 2.849e+04
0.0 0.0 1.430e+02 0.0 0.0 2.845e+04
0.0 0.0 1.435e+02 0.0 0.0 2.840e+04
0.0 0.0 1.440e+02 0.0 0.0 2.836e+04
0.0 0.0 1.445e+02 0.0 0.0 2.831e+04
0.0 0.0 1.450e+02 0.0 0.0 2.826e+04
0.0 0.0 1.455e+02 0.0 0.0 2.822e+04
0.0 0.0 1.460e+02 0.0 0.0 2.818e+04
0.0 0.0 1.465e+02 0.0 0.0 2.813e+04
0.0 0.0 1.470e+02 0.0 0.0 2.809e+04
0.0 0.0 1.475e+02 0.0 0.0 2.805e+04
0.0 0.0 1.480e+02 0.0 0.0 2.800e+04
0.0 0.0 1.485e+02 0.0 0.0 2.796e+04
0.0 0.0 1.490e+02 0.0 0.0 2.792e+04
0.0 0.0 1.495e+02 0.0 0.0 2.788e+04
0.0 0.0 1.500e+02 0.0 0.0 2.784e+04
0.0 0.0 1.505e+02 0.0 0.0 2.779e+04
0.0 0.0 1.510e+02 0.0 0.0 2.775e+04
0.0 0.0 1.515e+02 0.0 0.0 2.771e+04
0.0 0.0 1.520e+02 0.0 0.0 2.766e+04
0.0 0.0 1.525e+02 0.0 0.0 2.762e+04
0.0 0.0 1.530e+02 0.0 0.0 2.758e+04
0.0 0.0 1.535e+02 0.0 0.0 2.754e+04
0.0 0.0 1.540e+02 0.0 0.0 2.750e+04
0.0 0.0 1.545e+02 0.0 0.0 2.746e+04
0.0 0.0 1.550e+02 0.0 0.0 2.742e+04
0.0 0.0 1.555e+02 0.0 0.0 2.738e+04
0.0 0.0 1.560e+02 0.0 0.0 2.734e+04
0.0 0.0 1.565e+02 0.0 0.0 2.730e+04
0.0 0.0 1.570e+02 0.0 0.0 2.726e+04
0.0 0.0 1.575e+02 0.0 0.0 2.722e+04
0.0 0.0 1.580e+02 0.0 0.0 2.718e+04
0.0 0.0 1.585e+02 0.0 0.0 2.714e+04
0.0 0.0 1.590e+02 0.0 0.0 2.710e+04
0.0 0.0 1.595e+02 0.0 0.0 2.706e+04
0.0 0.0 1.600e+02 0.0 0.0 2.703e+04
0.0 0.0 1.605e+02 0.0 0.0 2.699e+04
0.0 0.0 1.610e+02 0.0 0.0 2.695e+04
0.0 0.0 1.615e+02 0.0 0.0 2.691e+04
0.0 0.0 1.620e+02 0.0 0.0 2.688e+04
0.0 0.0 1.625e+02 0.0 0.0 2.684e+04
0.0 0.0 1.630e+02 0.0 0.0 2.680e+04
0.0 0.0 1.635e+02 0.0 0.0 2.677e+04
0.0 0.0 1.640e+02 0.0 0.0 2.673e+04
0.0 0.0 1.645e+02 0.0 0.0 2.669e+04
0.0 0.0 1.650e+02 0.0 0.0 2.665e+04
0.0 0.0 1.655e+02 0.0 0.0 2.662e+04
0.0 0.0 1.660e+02 0.0 0.0 2.658e+04
0.0 0.0 1.665e+02 0.0 0.0 2.655e+04
0.0 0.0 1.670e+02 0.0 0.0 2.651e+04
0.0 0.0 1.675e+02 0.0 0.0 2.648e+04
0.0 0.0 1.680e+02 0.0 0.0 2.644e+04
0.0 0.0 1.685e+02 0.0 0.0 2.641e+04
0.0 0.0 1.690e+02 0.0 0.0 2.637e+04
0.0 0.0 1.695e+02 0.0 0.0 2.634e+04
0.0 0.0 1.700e+02 0.0 0.0 2.630e+04
0.0 0.0 1.705e+02 0.0 0.0 2.627e+04
0.0 0.0 1.710e+02 0.0 0.0 2.623e+04
0.0 0.0 1.715e+02 0.0 0.0 2.620e+04
0.0 0.0 1.720e+02 0.0 0.0 2.617e+04
0.0 0.0 1.725e+02 0.0 0.0 2.614e+04
0.0 0.0 1.730e+02 0.0 0.0 2.610e+04
0.0 0.0 1.735e+02 0.0 0.0 2.607e+04
0.0 0.0 1.740e+02 0.0 0.0 2.604e+04
0.0 0.0 1.745e+02 0.0 0.0 2.601e+04
0.0 0.0 1.750e+02 0.0 0.0 2.597e+04
0.0 0.0 1.755e+02 0.0 0.0 2.594e+04
0.0 0.0 1.760e+02 0.0 0.0 2.591e+04
0.0 0.0 1.765e+02 0.0 0.0 2.588e+04
0.0 0.0 1.770e+02 0.0 0.0 2.585e+04
0.0 0.0 1.775e+02 0.0 0.0 2.582e+04
0.0 0.0 1.780e+02 0.0 0.0 2.579e+04
0.0 0.0 1.785e+02 0.0 0.0 2.576e+04
0.0 0.0 1.790e+02 0.0 0.0 2.573e+04
0.0 0.0 1.795e+02 0.0 0.0 2.570e+04
0.0 0.0 1.800e+02 0.0 0.0 2.567e+04
0.0 0.0 1.805e+02 0.0 0.0 2.564e+04
0.0 0.0 1.810e+02 0.0 0.0 2.560e+04
0.0 0.0 1.815e+02 0.0 0.0 2.558e+04
0.0 0.0 1.820e+02 0.0 0.0 2.555e+04
0.0 0.0 1.825e+02 0.0 0.0 2.552e+04
0.0 0.0 1.830e+02 0.0 0.0 2.549e+04
0.0 0.0 1.835e+02 0.0 0.0 2.546e+04
0.0 0.0 1.840e+02 0.0 0.0 2.543e+04
0.0 0.0 1.845e+02 0.0 0.0 2.541e+04
0.0 0.0 1.850e+02 0.0 0.0 2.538e+04
0.0 0.0 1.855e+02 0.0 0.0 2.535e+04
0.0 0.0 1.860e+02 0.0 0.0 2.532e+04
0.0 0.0 1.865e+02 0.0 0.0 2.529e+04
0.0 0.0 1.870e+02 0.0 0.0 2.527e+04
0.0 0.0 1.875e+02 0.0 0.0 2.524e+04
0.0 0.0 1.880e+02 0.0 0.0 2.521e+04
0.0 0.0 1.885e+02 0.0 0.0 2.519e+04
0.0 0.0 1.890e+02 0.0 0.0 2.516e+04
0.0 0.0 1.895e+02 0.0 0.0 2.514e+04
0.0 0.0 1.900e+02 0.0 0.0 2.511e+04
0.0 0.0 1.905e+02 0.0 0.0 2.508e+04
0.0 0.0 1.910e+02 0.0 0.0 2.506e+04
0.0 0.0 1.915e+02 0.0 0.0 2.503e+04
0.0 0.0 1.920e+02 0.0 0.0 2.501e+04
0.0 0.0 1.925e+02 0.0 0.0 2.498e+04
0.0 0.0 1.930e+02 0.0 0.0 2.496e+04
0.0 0.0 1.935e+02 0.0 0.0 2.494e+04
0.0 0.0 1.940e+02 0.0 0.0 2.491e+04
0.0 0.0 1.945e+02 0.0 0.0 2.489e+04
0.0 0.0 1.950e+02 0.0 0.0 2.486e+04
0.0 0.0 1.955e+02 0.0 0.0 2.484e+04
0.0 0.0 1.960e+02 0.0 0.0 2.482e+04
0.0 0.0 1.965e+02 0.0 0.0 2.479e+04
0.0 0.0 1.970e+02 0.0 0.0 2.477e+04
0.0 0.0 1.975e+02 0.0 0.0 2.475e+04
0.0 0.0 1.980e+02 0.0 0.0 2.473e+04
0.0 0.0 1.985e+02 0.0 0.0 2.470e+04
0.0 0.0 1.990e+02 0.0 0.0 2.468e+04
0.0 0.0 1.995e+02 0.0 0.0 2.466e+04
0.0 0.0 2.000e+02 0.0 0.0 2.464e+04
0.0 0.0 2.005e+02 0.0 0.0 2.462e+04
0.0 0.0 2.010e+02 0.0 0.0 2.460e+04
0.0 0.0 2.015e+02 0.0 0.0 2.457e+04
0.0 0.0 2.020e+02 0.0 0.0 2.455e+04
0.0 0.0 2.025e+02 0.0 0.0 2.453e+04
0.0 0.0 2.030e+02 0.0 0.0 2.451e+04
0.0 0.0 2.035e+02 0.0 0.0 2.449e+04
0.0 0.0 2.040e+02 0.0 0.0 2.447e+04
0.0 0.0 2.045e+02 0.0 0.0 2.445e+04
0.0 0.0 2.050e+02 0.0 0.0 2.443e+04
0.0 0.0 2.055e+02 0.0 0.0 2.441e+04
0.0 0.0 2.060e+02 0.0 0.0 2.439e+04
0.0 0.0 2.065e+02 0.0 0.0 2.438e+04
0.0 0.0 2.070e+02 0.0 0.0 2.436e+04
0.0 0.0 2.075e+02 0.0 0.0 2.434e+04
0.0 0.0 2.080e+02 0.0 0.0 2.432e+04
0.0 0.0 2.085e+02 0.0 0.0 2.430e+04
0.0 0.0 2.090e+02 0.0 0.0 2.428e+04
0.0 0.0 2.095e+02 0.0 0.0 2.427e+04
0.0 0.0 2.100e+02 0.0 0.0 2.425e+04
0.0 0.0 2.105e+02 0.0 0.0 2.423e+04
0.0 0.0 2.110e+02 0.0 0.0 2.422e+04
0.0 0.0 2.115e+02 0.0 0.0 2.420e+04
0.0 0.0 2.120e+02 0.0 0.0 2.418e+04
0.0 0.0 2.125e+02 0.0 0.0 2.417e+04
0.0 0.0 2.130e+02 0.0 0.0 2.415e+04
0.0 0.0 2.135e+02 0.0 0.0 2.413e+04
0.0 0.0 2.140e+02 0.0 0.0 2.412e+04
0.0 0.0 2.145e+02 0.0 0.0 2.410e+04
0.0 0.0 2.150e+02 0.0 0.0 2.409e+04
0.0 0.0 2.155e+02 0.0 0.0 2.407e+04
0.0 0.0 2.160e+02 0.0 0.0 2.406e+04
0.0 0.0 2.165e+02 0.0 0.0 2.404e+04
0.0 0.0 2.170e+02 0.0 0.0 2.403e+04
0.0 0.0 2.175e+02 0.0 0.0 2.401e+04
0.0 0.0 2.180e+02 0.0 0.0 2.400e+04
0.0 0.0 2.185e+02 0.0 0.0 2.399e+04
0.0 0.0 2.190e+02 0.0 0.0 2.397e+04
0.0 0.0 2.195e+02 0.0 0.0 2.396e+04
0.0 0.0 2.200e+02 0.0 0.0 2.395e+04
0.0 0.0 2.205e+02 0.0 0.0 2.393e+04
0.0 0.0 2.210e+02 0.0 0.0 2.392e+04
0.0 0.0 2.215e+02 0.0 0.0 2.391e+04
0.0 0.0 2.220e+02 0.0 0.0 2.390e+04
0.0 0.0 2.225e+02 0.0 0.0 2.388e+04
0.0 0.0 2.230e+02 0.0 0.0 2.387e+04
0.0 0.0 2.235e+02 0.0 0.0 2.386e+04
0.0 0.0 2.240e+02 0.0 0.0 2.385e+04
0.0 0.0 2.245e+02 0.0 0.0 2.384e+04
0.0 0.0 2.250e+02 0.0 0.0 2.383e+04
0.0 0.0 2.255e+02 0.0 0.0 2.381e+04
0.0 0.0 2.260e+02 0.0 0.0 2.380e+04
0.0 0.0 2.265e+02 0.0 0.0 2.379e+04
0.0 0.0 2.270e+02 0.0 0.0 2.378e+04
0.0 0.0 2.275e+02 0.0 0.0 2.377e+04
0.0 0.0 2.280e+02 0.0 0.0 2.376e+04
0.0 0.0 2.285e+02 0.0 0.0 2.375e+04
0.0 0.0 2.290e+02 0.0 0.0 2.374e+04
0.0 0.0 2.295e+02 0.0 0.0 2.373e+04
0.0 0.0 2.300e+02 0.0 0.0 2.372e+04
0.0 0.0 2.305e+02 0.0 0.0 2.372e+04
0.0 0.0 2.310e+02 0.0 0.0 2.371e+04
0.0 0.0 2.315e+02 0.0 0.0 2.370e+04
0.0 0.0 2.320e+02 0.0 0.0 2.369e+04
0.0 0.0 2.325e+02 0.0 0.0 2.368e+04
0.0 0.0 2.330e+02 0.0 0.0 2.367e+04
0.0 0.0 2.335e+02 0.0 0.0 2.367e+04
0.0 0.0 2.340e+02 0.0 0.0 2.366e+04
0.0 0.0 2.345e+02 0.0 0.0 2.365e+04
0.0 0.0 2.350e+02 0.0 0.0 2.365e+04
0.0 0.0 2.355e+02 0.0 0.0 2.364e+04
0.0 0.0 2.360e+02 0.0 0.0 2.363e+04
0.0 0.0 2.365e+02 0.0 0.0 2.362e+04
0.0 0.0 2.370e+02 0.0 0.0 2.362e+04
0.0 0.0 2.375e+02 0.0 0.0 2.361e+04
0.0 0.0 2.380e+02 0.0 0.0 2.361e+04
0.0 0.0 2.385e+02 0.0 0.0 2.360e+04
0.0 0.0 2.390e+02 0.0 0.0 2.360e+04
0.0 0.0 2.395e+02 0.0 0.0 2.359e+04
0.0 0.0 2.400e+02 0.0 0.0 2.359e+04
0.0 0.0 2.405e+02 0.0 0.0 2.358e+04
0.0 0.0 2.410e+02 0.0 0.0 2.358e+04
0.0 0.0 2.415e+02 0.0 0.0 2.357e+04
0.0 0.0 2.420e+02 0.0 0.0 2.357e+04
0.0 0.0 2.425e+02 0.0 0.0 2.356e+04
0.0 0.0 2.430e+02 0.0 0.0 2.356e+04
0.0 0.0 2.435e+02 0.0 0.0 2.356e+04
0.0 0.0 2.440e+02 0.0 0.0 2.355e+04
0.0 0.0 2.445e+02 0.0 0.0 2.355e+04
0.0 0.0 2.450e+02 0.0 0.0 2.355e+04
0.0 0.0 2.455e+02 0.0 0.0 2.354e+04
0.0 0.0 2.460e+02 0.0 0.0 2.354e+04
0.0 0.0 2.465e+02 0.0 0.0 2.354e+04
0.0 0.0 2.470e+02 0.0 0.0 2.354e+04
0.0 0.0 2.475e+02 0.0 0.0 2.353e+04
0.0 0.0 2.480e+02 0.0 0.0 2.353e+04
0.0 0.0 2.485e+02 0.0 0.0 2.337e+04
0.0 0.0 2.490e+02 0.0 0.0 1.628e+03
