1.000000e+00 3.427759e+04
2.000000e+00 4.331357e+04
3.000000e+00 4.274089e+04
4.000000e+00 4.209490e+04
5.000000e+00 4.153093e+04
6.000000e+00 4.098453e+04
7.000000e+00 4.048790e+04
8.000000e+00 4.002634e+04
9.000000e+00 3.958385e+04
1.000000e+01 3.916883e+04
1.100000e+01 3.877926e+04
1.200000e+01 3.840262e+04
1.300000e+01 3.804253e+04
1.400000e+01 3.769104e+04
1.500000e+01 3.735295e+04
1.600000e+01 3.701962e+04
1.700000e+01 3.669716e+04
1.800000e+01 3.637795e+04
1.900000e+01 3.606731e+04
2.000000e+01 3.575991e+04
2.100000e+01 3.545758e+04
2.200000e+01 3.516041e+04
2.300000e+01 3.486615e+04
2.400000e+01 3.457588e+04
2.500000e+01 3.428965e+04
2.600000e+01 3.400640e+04
2.700000e+01 3.372533e+04
2.800000e+01 3.344850e+04
2.900000e+01 3.317490e+04
3.000000e+01 3.290224e+04
3.100000e+01 3.263276e+04
3.200000e+01 3.236785e+04
3.300000e+01 3.210461e+04
3.400000e+01 3.184113e+04
3.500000e+01 3.158270e+04
3.600000e+01 3.132836e+04
3.700000e+01 3.107495e+04
3.800000e+01 3.082041e+04
3.900000e+01 3.057111e+04
4.000000e+01 3.032664e+04
4.100000e+01 3.008386e+04
4.200000e+01 2.983970e+04
4.300000e+01 2.959731e+04
4.400000e+01 2.936134e+04
4.500000e+01 2.912905e+04
4.600000e+01 2.889752e+04
4.700000e+01 2.866398e+04
4.800000e+01 2.843306e+04
4.900000e+01 2.820884e+04
5.000000e+01 2.798863e+04
5.100000e+01 2.776969e+04
5.200000e+01 2.754929e+04
5.300000e+01 2.732776e+04
5.400000e+01 2.711312e+04
5.500000e+01 2.690427e+04
5.600000e+01 2.669863e+04
5.700000e+01 2.649365e+04
5.800000e+01 2.628674e+04
5.900000e+01 2.607863e+04
6.000000e+01 2.587763e+04
6.100000e+01 2.568293e+04
6.200000e+01 2.549215e+04
6.300000e+01 2.530292e+04
6.400000e+01 2.511287e+04
6.500000e+01 2.491982e+04
6.600000e+01 2.472900e+04
6.700000e+01 2.454609e+04
6.800000e+01 2.436917e+04
6.900000e+01 2.419604e+04
7.000000e+01 2.402451e+04
7.100000e+01 2.385237e+04
7.200000e+01 2.367745e+04
7.300000e+01 2.350166e+04
7.400000e+01 2.333359e+04
7.500000e+01 2.317274e+04
7.600000e+01 2.301706e+04
7.700000e+01 2.286453e+04
7.800000e+01 2.271311e+04
7.900000e+01 2.256076e+04
8.000000e+01 2.240547e+04
8.100000e+01 2.224855e+04
8.200000e+01 2.209910e+04
8.300000e+01 2.195753e+04
8.400000e+01 2.182196e+04
8.500000e+01 2.169050e+04
8.600000e+01 2.156126e+04
8.700000e+01 2.143235e+04
8.800000e+01 2.130188e+04
8.900000e+01 2.116797e+04
9.000000e+01 2.103296e+04
9.100000e+01 2.090630e+04
9.200000e+01 2.078841e+04
9.300000e+01 2.067744e+04
9.400000e+01 2.057158e+04
9.500000e+01 2.046898e+04
9.600000e+01 2.036782e+04
9.700000e+01 2.026626e+04
9.800000e+01 2.016248e+04
9.900000e+01 2.005473e+04
1.000000e+02 1.994646e+04
1.010000e+02 1.984599e+04
1.020000e+02 1.975333e+04
1.030000e+02 1.966687e+04
1.040000e+02 1.958498e+04
1.050000e+02 1.950603e+04
1.060000e+02 1.942839e+04
1.070000e+02 1.935044e+04
1.080000e+02 1.927056e+04
1.090000e+02 1.918715e+04
1.100000e+02 1.910268e+04
1.110000e+02 1.902543e+04
1.120000e+02 1.895593e+04
1.130000e+02 1.889246e+04
1.140000e+02 1.883329e+04
1.150000e+02 1.877670e+04
1.160000e+02 1.872098e+04
1.170000e+02 1.866440e+04
1.180000e+02 1.860525e+04
1.190000e+02 1.854268e+04
1.200000e+02 1.848414e+04
1.210000e+02 1.843453e+04
1.220000e+02 1.839210e+04
1.230000e+02 1.835487e+04
1.240000e+02 1.832086e+04
1.250000e+02 1.828808e+04
1.260000e+02 1.825456e+04
1.270000e+02 1.821830e+04
1.280000e+02 1.817871e+04
1.290000e+02 1.814419e+04
1.300000e+02 1.811814e+04
1.310000e+02 1.809855e+04
1.320000e+02 1.808336e+04
1.330000e+02 1.807049e+04
1.340000e+02 1.805788e+04
1.350000e+02 1.804345e+04
1.360000e+02 1.802544e+04
1.370000e+02 1.800948e+04
1.380000e+02 1.800179e+04
1.390000e+02 1.800069e+04
1.400000e+02 1.800401e+04
1.410000e+02 1.800959e+04
1.420000e+02 1.801528e+04
1.430000e+02 1.801893e+04
1.440000e+02 1.801936e+04
1.450000e+02 1.802427e+04
1.460000e+02 1.803689e+04
1.470000e+02 1.805504e+04
1.480000e+02 1.807649e+04
1.490000e+02 1.809900e+04
1.500000e+02 1.812035e+04
1.510000e+02 1.813853e+04
1.520000e+02 1.815873e+04
1.530000e+02 1.818646e+04
1.540000e+02 1.821972e+04
1.550000e+02 1.825621e+04
1.560000e+02 1.829361e+04
1.570000e+02 1.832964e+04
1.580000e+02 1.836278e+04
1.590000e+02 1.840009e+04
1.600000e+02 1.844425e+04
1.610000e+02 1.849288e+04
1.620000e+02 1.854360e+04
1.630000e+02 1.859401e+04
1.640000e+02 1.864180e+04
1.650000e+02 1.869062e+04
1.660000e+02 1.874628e+04
1.670000e+02 1.880670e+04
1.680000e+02 1.886945e+04
1.690000e+02 1.893207e+04
1.700000e+02 1.899225e+04
1.710000e+02 1.905429e+04
1.720000e+02 1.912269e+04
1.730000e+02 1.919510e+04
1.740000e+02 1.926899e+04
1.750000e+02 1.934182e+04
1.760000e+02 1.941282e+04
1.770000e+02 1.948920e+04
1.780000e+02 1.957054e+04
1.790000e+02 1.965420e+04
1.800000e+02 1.973754e+04
1.810000e+02 1.981875e+04
1.820000e+02 1.990424e+04
1.830000e+02 1.999471e+04
1.840000e+02 2.008739e+04
1.850000e+02 2.017954e+04
1.860000e+02 2.027011e+04
1.870000e+02 2.036573e+04
1.880000e+02 2.046547e+04
1.890000e+02 2.056650e+04
1.900000e+02 2.066601e+04
1.910000e+02 2.076713e+04
1.920000e+02 2.087331e+04
1.930000e+02 2.098169e+04
1.940000e+02 2.108928e+04
1.950000e+02 2.119690e+04
1.960000e+02 2.130962e+04
1.970000e+02 2.142483e+04
1.980000e+02 2.153942e+04
1.990000e+02 2.165450e+04
2.000000e+02 2.177430e+04
2.010000e+02 2.189589e+04
2.020000e+02 2.201629e+04
2.030000e+02 2.213945e+04
2.040000e+02 2.226627e+04
2.050000e+02 2.239331e+04
2.060000e+02 2.252023e+04
2.070000e+02 2.265155e+04
2.080000e+02 2.278423e+04
2.090000e+02 2.291617e+04
2.100000e+02 2.305207e+04
2.110000e+02 2.318970e+04
2.120000e+02 2.332676e+04
2.130000e+02 2.346738e+04
2.140000e+02 2.360943e+04
2.150000e+02 2.375185e+04
2.160000e+02 2.389764e+04
2.170000e+02 2.404334e+04
2.180000e+02 2.419118e+04
2.190000e+02 2.434147e+04
2.200000e+02 2.449168e+04
2.210000e+02 2.464506e+04
2.220000e+02 2.479892e+04
2.230000e+02 2.495533e+04
2.240000e+02 2.511212e+04
2.250000e+02 2.527147e+04
2.260000e+02 2.543146e+04
2.270000e+02 2.559376e+04
2.280000e+02 2.575708e+04
2.290000e+02 2.592265e+04
2.300000e+02 2.608885e+04
2.310000e+02 2.625710e+04
2.320000e+02 2.642665e+04
2.330000e+02 2.659786e+04
2.340000e+02 2.677051e+04
2.350000e+02 2.694507e+04
2.360000e+02 2.712030e+04
2.370000e+02 2.729745e+04
2.380000e+02 2.747611e+04
2.390000e+02 2.765638e+04
2.400000e+02 2.783995e+04
2.410000e+02 2.801880e+04
2.420000e+02 2.820455e+04
2.430000e+02 2.839067e+04
2.440000e+02 2.857886e+04
2.450000e+02 2.877106e+04
2.460000e+02 2.895875e+04
2.470000e+02 2.915169e+04
2.480000e+02 2.934601e+04
2.490000e+02 1.640183e+03
