1.000000e+00 2.512472e+04
2.000000e+00 3.377019e+04
3.000000e+00 3.338439e+04
4.000000e+00 3.294066e+04
5.000000e+00 3.254823e+04
6.000000e+00 3.216859e+04
7.000000e+00 3.182481e+04
8.000000e+00 3.150627e+04
9.000000e+00 3.119986e+04
1.000000e+01 3.091339e+04
1.100000e+01 3.064619e+04
1.200000e+01 3.038773e+04
1.300000e+01 3.014121e+04
1.400000e+01 2.990052e+04
1.500000e+01 2.966931e+04
1.600000e+01 2.944088e+04
1.700000e+01 2.922072e+04
1.800000e+01 2.900131e+04
1.900000e+01 2.878893e+04
2.000000e+01 2.857732e+04
2.100000e+01 2.836926e+04
2.200000e+01 2.816458e+04
2.300000e+01 2.796077e+04
2.400000e+01 2.776039e+04
2.500000e+01 2.756159e+04
2.600000e+01 2.736406e+04
2.700000e+01 2.716872e+04
2.800000e+01 2.697498e+04
2.900000e+01 2.678244e+04
3.000000e+01 2.659105e+04
3.100000e+01 2.640129e+04
3.200000e+01 2.621313e+04
3.300000e+01 2.602585e+04
3.400000e+01 2.583899e+04
3.500000e+01 2.565408e+04
3.600000e+01 2.547074e+04
3.700000e+01 2.528797e+04
3.800000e+01 2.510510e+04
3.900000e+01 2.492427e+04
4.000000e+01 2.474527e+04
4.100000e+01 2.456702e+04
4.200000e+01 2.438842e+04
4.300000e+01 2.421062e+04
4.400000e+01 2.403528e+04
4.500000e+01 2.386137e+04
4.600000e+01 2.368781e+04
4.700000e+01 2.351357e+04
4.800000e+01 2.334041e+04
4.900000e+01 2.316985e+04
5.000000e+01 2.300086e+04
5.100000e+01 2.283239e+04
5.200000e+01 2.266338e+04
5.300000e+01 2.249397e+04
5.400000e+01 2.232727e+04
5.500000e+01 2.216287e+04
5.600000e+01 2.199975e+04
5.700000e+01 2.183690e+04
5.800000e+01 2.167333e+04
5.900000e+01 2.150932e+04
6.000000e+01 2.134810e+04
6.100000e+01 2.118935e+04
6.200000e+01 2.103215e+04
6.300000e+01 2.087557e+04
6.400000e+01 2.071868e+04
6.500000e+01 2.056062e+04
6.600000e+01 2.040346e+04
6.700000e+01 2.024944e+04
6.800000e+01 2.009778e+04
6.900000e+01 1.994763e+04
7.000000e+01 1.979811e+04
7.100000e+01 1.964836e+04
7.200000e+01 1.949751e+04
7.300000e+01 1.934633e+04
7.400000e+01 1.919824e+04
7.500000e+01 1.905304e+04
7.600000e+01 1.890993e+04
7.700000e+01 1.876808e+04
7.800000e+01 1.862668e+04
7.900000e+01 1.848493e+04
8.000000e+01 1.834201e+04
8.100000e+01 1.819848e+04
8.200000e+01 1.805801e+04
8.300000e+01 1.792076e+04
8.400000e+01 1.778595e+04
8.500000e+01 1.765281e+04
8.600000e+01 1.752056e+04
8.700000e+01 1.738840e+04
8.800000e+01 1.725557e+04
8.900000e+01 1.712129e+04
9.000000e+01 1.698671e+04
9.100000e+01 1.685619e+04
9.200000e+01 1.672991e+04
9.300000e+01 1.660698e+04
9.400000e+01 1.648652e+04
9.500000e+01 1.636764e+04
9.600000e+01 1.624946e+04
9.700000e+01 1.613110e+04
9.800000e+01 1.601168e+04
9.900000e+01 1.589035e+04
1.000000e+02 1.576866e+04
1.010000e+02 1.565039e+04
1.020000e+02 1.553557e+04
1.030000e+02 1.542349e+04
1.040000e+02 1.531342e+04
1.050000e+02 1.520466e+04
1.060000e+02 1.509647e+04
1.070000e+02 1.498815e+04
1.080000e+02 1.487898e+04
1.090000e+02 1.476824e+04
1.100000e+02 1.465692e+04
1.110000e+02 1.454842e+04
1.120000e+02 1.444295e+04
1.130000e+02 1.433985e+04
1.140000e+02 1.423841e+04
1.150000e+02 1.413796e+04
1.160000e+02 1.403780e+04
1.170000e+02 1.393726e+04
1.180000e+02 1.383565e+04
1.190000e+02 1.373267e+04
1.200000e+02 1.363175e+04
1.210000e+02 1.353508e+04
1.220000e+02 1.344184e+04
1.230000e+02 1.335109e+04
1.240000e+02 1.326187e+04
1.250000e+02 1.317324e+04
1.260000e+02 1.308425e+04
1.270000e+02 1.299397e+04
1.280000e+02 1.290212e+04
1.290000e+02 1.281287e+04
1.300000e+02 1.272787e+04
1.310000e+02 1.264611e+04
1.320000e+02 1.256654e+04
1.330000e+02 1.248811e+04
1.340000e+02 1.240979e+04
1.350000e+02 1.233051e+04
1.360000e+02 1.224939e+04
1.370000e+02 1.216941e+04
1.380000e+02 1.209385e+04
1.390000e+02 1.202181e+04
1.400000e+02 1.195212e+04
1.410000e+02 1.188364e+04
1.420000e+02 1.181523e+04
1.430000e+02 1.174572e+04
1.440000e+02 1.167452e+04
1.450000e+02 1.160586e+04
1.460000e+02 1.154150e+04
1.470000e+02 1.148022e+04
1.480000e+02 1.142074e+04
1.490000e+02 1.136181e+04
1.500000e+02 1.130217e+04
1.510000e+02 1.124070e+04
1.520000e+02 1.118047e+04
1.530000e+02 1.112469e+04
1.540000e+02 1.107219e+04
1.550000e+02 1.102158e+04
1.560000e+02 1.097151e+04
1.570000e+02 1.092060e+04
1.580000e+02 1.086796e+04
1.590000e+02 1.081789e+04
1.600000e+02 1.077199e+04
1.610000e+02 1.072882e+04
1.620000e+02 1.068689e+04
1.630000e+02 1.064475e+04
1.640000e+02 1.060097e+04
1.650000e+02 1.055786e+04
1.660000e+02 1.051907e+04
1.670000e+02 1.048328e+04
1.680000e+02 1.044894e+04
1.690000e+02 1.041451e+04
1.700000e+02 1.037854e+04
1.710000e+02 1.034377e+04
1.720000e+02 1.031309e+04
1.730000e+02 1.028496e+04
1.740000e+02 1.025776e+04
1.750000e+02 1.022985e+04
1.760000e+02 1.020074e+04
1.770000e+02 1.017518e+04
1.780000e+02 1.015288e+04
1.790000e+02 1.013209e+04
1.800000e+02 1.011106e+04
1.810000e+02 1.008861e+04
1.820000e+02 1.006895e+04
1.830000e+02 1.005258e+04
1.840000e+02 1.003772e+04
1.850000e+02 1.002258e+04
1.860000e+02 1.000649e+04
1.870000e+02 9.993626e+03
1.880000e+02 9.983399e+03
1.890000e+02 9.973972e+03
1.900000e+02 9.963552e+03
1.910000e+02 9.954209e+03
1.920000e+02 9.948222e+03
1.930000e+02 9.943705e+03
1.940000e+02 9.938700e+03
1.950000e+02 9.933719e+03
1.960000e+02 9.932066e+03
1.970000e+02 9.932016e+03
1.980000e+02 9.931533e+03
1.990000e+02 9.931364e+03
2.000000e+02 9.934296e+03
2.010000e+02 9.938402e+03
2.020000e+02 9.941722e+03
2.030000e+02 9.946812e+03
2.040000e+02 9.954272e+03
2.050000e+02 9.961894e+03
2.060000e+02 9.969442e+03
2.070000e+02 9.979780e+03
2.080000e+02 9.990965e+03
2.090000e+02 1.000165e+04
2.100000e+02 1.001481e+04
2.110000e+02 1.002910e+04
2.120000e+02 1.004314e+04
2.130000e+02 1.005935e+04
2.140000e+02 1.007631e+04
2.150000e+02 1.009337e+04
2.160000e+02 1.011269e+04
2.170000e+02 1.013207e+04
2.180000e+02 1.015260e+04
2.190000e+02 1.017460e+04
2.200000e+02 1.019679e+04
2.210000e+02 1.022069e+04
2.220000e+02 1.024457e+04
2.230000e+02 1.027025e+04
2.240000e+02 1.029614e+04
2.250000e+02 1.032351e+04
2.260000e+02 1.035120e+04
2.270000e+02 1.038026e+04
2.280000e+02 1.040983e+04
2.290000e+02 1.044064e+04
2.300000e+02 1.047189e+04
2.310000e+02 1.050432e+04
2.320000e+02 1.053744e+04
2.330000e+02 1.057142e+04
2.340000e+02 1.060620e+04
2.350000e+02 1.064194e+04
2.360000e+02 1.067824e+04
2.370000e+02 1.071542e+04
2.380000e+02 1.075346e+04
2.390000e+02 1.079239e+04
2.400000e+02 1.083227e+04
2.410000e+02 1.087171e+04
2.420000e+02 1.091307e+04
2.430000e+02 1.095500e+04
2.440000e+02 1.099778e+04
2.450000e+02 1.104192e+04
2.460000e+02 1.108542e+04
2.470000e+02 1.113038e+04
2.480000e+02 1.117615e+04
2.490000e+02 1.628718e+03
