1.000000e+00 5.544521e+03
2.000000e+00 9.653980e+03
3.000000e+00 9.582162e+03
4.000000e+00 9.494513e+03
5.000000e+00 9.413353e+03
6.000000e+00 9.335594e+03
7.000000e+00 9.266118e+03
8.000000e+00 9.202460e+03
9.000000e+00 9.140215e+03
1.000000e+01 9.083484e+03
1.100000e+01 9.032665e+03
1.200000e+01 8.983780e+03
1.300000e+01 8.938551e+03
1.400000e+01 8.894591e+03
1.500000e+01 8.853725e+03
1.600000e+01 8.813088e+03
1.700000e+01 8.775313e+03
1.800000e+01 8.737097e+03
1.900000e+01 8.701413e+03
2.000000e+01 8.665321e+03
2.100000e+01 8.630495e+03
2.200000e+01 8.596629e+03
2.300000e+01 8.562459e+03
2.400000e+01 8.529767e+03
2.500000e+01 8.497088e+03
2.600000e+01 8.464474e+03
2.700000e+01 8.432907e+03
2.800000e+01 8.401406e+03
2.900000e+01 8.369934e+03
3.000000e+01 8.339049e+03
3.100000e+01 8.308530e+03
3.200000e+01 8.278011e+03
3.300000e+01 8.247709e+03
3.400000e+01 8.217798e+03
3.500000e+01 8.188069e+03
3.600000e+01 8.158468e+03
3.700000e+01 8.129022e+03
3.800000e+01 8.099765e+03
3.900000e+01 8.070744e+03
4.000000e+01 8.041912e+03
4.100000e+01 8.013200e+03
4.200000e+01 7.984538e+03
4.300000e+01 7.956040e+03
4.400000e+01 7.927829e+03
4.500000e+01 7.899801e+03
4.600000e+01 7.871840e+03
4.700000e+01 7.843842e+03
4.800000e+01 7.816008e+03
4.900000e+01 7.788504e+03
5.000000e+01 7.761206e+03
5.100000e+01 7.733988e+03
5.200000e+01 7.706722e+03
5.300000e+01 7.679428e+03
5.400000e+01 7.652488e+03
5.500000e+01 7.625844e+03
5.600000e+01 7.599370e+03
5.700000e+01 7.572936e+03
5.800000e+01 7.546417e+03
5.900000e+01 7.519849e+03
6.000000e+01 7.493653e+03
6.100000e+01 7.467786e+03
6.200000e+01 7.442125e+03
6.300000e+01 7.416547e+03
6.400000e+01 7.390931e+03
6.500000e+01 7.365165e+03
6.600000e+01 7.339519e+03
6.700000e+01 7.314291e+03
6.800000e+01 7.289378e+03
6.900000e+01 7.264665e+03
7.000000e+01 7.240038e+03
7.100000e+01 7.215381e+03
7.200000e+01 7.190579e+03
7.300000e+01 7.165734e+03
7.400000e+01 7.141298e+03
7.500000e+01 7.117245e+03
7.600000e+01 7.093466e+03
7.700000e+01 7.069853e+03
7.800000e+01 7.046301e+03
7.900000e+01 7.022700e+03
8.000000e+01 6.998943e+03
8.100000e+01 6.975103e+03
8.200000e+01 6.951665e+03
8.300000e+01 6.928651e+03
8.400000e+01 6.905960e+03
8.500000e+01 6.883486e+03
8.600000e+01 6.861129e+03
8.700000e+01 6.838786e+03
8.800000e+01 6.816353e+03
8.900000e+01 6.793728e+03
9.000000e+01 6.771072e+03
9.100000e+01 6.748976e+03
9.200000e+01 6.727462e+03
9.300000e+01 6.706410e+03
9.400000e+01 6.685699e+03
9.500000e+01 6.665207e+03
9.600000e+01 6.644813e+03
9.700000e+01 6.624397e+03
9.800000e+01 6.603837e+03
9.900000e+01 6.583019e+03
1.000000e+02 6.562139e+03
1.010000e+02 6.541691e+03
1.020000e+02 6.521681e+03
1.030000e+02 6.502020e+03
1.040000e+02 6.482616e+03
1.050000e+02 6.463380e+03
1.060000e+02 6.444222e+03
1.070000e+02 6.425050e+03
1.080000e+02 6.405776e+03
1.090000e+02 6.386310e+03
1.100000e+02 6.366760e+03
1.110000e+02 6.347519e+03
1.120000e+02 6.328616e+03
1.130000e+02 6.309975e+03
1.140000e+02 6.291519e+03
1.150000e+02 6.273171e+03
1.160000e+02 6.254856e+03
1.170000e+02 6.236497e+03
1.180000e+02 6.218018e+03
1.190000e+02 6.199389e+03
1.200000e+02 6.181022e+03
1.210000e+02 6.163182e+03
1.220000e+02 6.145764e+03
1.230000e+02 6.128651e+03
1.240000e+02 6.111727e+03
1.250000e+02 6.094873e+03
1.260000e+02 6.077974e+03
1.270000e+02 6.060912e+03
1.280000e+02 6.043654e+03
1.290000e+02 6.026717e+03
1.300000e+02 6.010308e+03
1.310000e+02 5.994300e+03
1.320000e+02 5.978566e+03
1.330000e+02 5.962974e+03
1.340000e+02 5.947397e+03
1.350000e+02 5.931703e+03
1.360000e+02 5.915784e+03
1.370000e+02 5.900004e+03
1.380000e+02 5.884768e+03
1.390000e+02 5.869963e+03
1.400000e+02 5.855446e+03
1.410000e+02 5.841077e+03
1.420000e+02 5.826715e+03
1.430000e+02 5.812217e+03
1.440000e+02 5.797509e+03
1.450000e+02 5.783114e+03
1.460000e+02 5.769248e+03
1.470000e+02 5.755761e+03
1.480000e+02 5.742500e+03
1.490000e+02 5.729309e+03
1.500000e+02 5.716036e+03
1.510000e+02 5.702543e+03
1.520000e+02 5.689204e+03
1.530000e+02 5.676409e+03
1.540000e+02 5.664014e+03
1.550000e+02 5.651852e+03
1.560000e+02 5.639756e+03
1.570000e+02 5.627559e+03
1.580000e+02 5.615153e+03
1.590000e+02 5.603066e+03
1.600000e+02 5.591496e+03
1.610000e+02 5.580263e+03
1.620000e+02 5.569189e+03
1.630000e+02 5.558092e+03
1.640000e+02 5.546798e+03
1.650000e+02 5.535594e+03
1.660000e+02 5.524931e+03
1.670000e+02 5.514643e+03
1.680000e+02 5.504536e+03
1.690000e+02 5.494415e+03
1.700000e+02 5.484097e+03
1.710000e+02 5.473937e+03
1.720000e+02 5.464305e+03
1.730000e+02 5.455005e+03
1.740000e+02 5.445828e+03
1.750000e+02 5.436564e+03
1.760000e+02 5.427153e+03
1.770000e+02 5.418198e+03
1.780000e+02 5.409665e+03
1.790000e+02 5.401329e+03
1.800000e+02 5.392964e+03
1.810000e+02 5.384420e+03
1.820000e+02 5.376254e+03
1.830000e+02 5.368525e+03
1.840000e+02 5.360993e+03
1.850000e+02 5.353416e+03
1.860000e+02 5.345707e+03
1.870000e+02 5.338453e+03
1.880000e+02 5.331568e+03
1.890000e+02 5.324795e+03
1.900000e+02 5.317881e+03
1.910000e+02 5.311120e+03
1.920000e+02 5.304830e+03
1.930000e+02 5.298747e+03
1.940000e+02 5.292594e+03
1.950000e+02 5.286449e+03
1.960000e+02 5.280783e+03
1.970000e+02 5.275348e+03
1.980000e+02 5.269847e+03
1.990000e+02 5.264397e+03
2.000000e+02 5.259406e+03
2.010000e+02 5.254587e+03
2.020000e+02 5.249651e+03
2.030000e+02 5.244983e+03
2.040000e+02 5.240674e+03
2.050000e+02 5.236389e+03
2.060000e+02 5.232095e+03
2.070000e+02 5.228233e+03
2.080000e+02 5.224500e+03
2.090000e+02 5.220692e+03
2.100000e+02 5.217283e+03
2.110000e+02 5.214041e+03
2.120000e+02 5.210735e+03
2.130000e+02 5.207813e+03
2.140000e+02 5.205018e+03
2.150000e+02 5.202225e+03
2.160000e+02 5.199805e+03
2.170000e+02 5.197392e+03
2.180000e+02 5.195185e+03
2.190000e+02 5.193210e+03
2.200000e+02 5.191234e+03
2.210000e+02 5.189593e+03
2.220000e+02 5.187948e+03
2.230000e+02 5.186598e+03
2.240000e+02 5.185297e+03
2.250000e+02 5.184241e+03
2.260000e+02 5.183263e+03
2.270000e+02 5.182520e+03
2.280000e+02 5.181846e+03
2.290000e+02 5.181422e+03
2.300000e+02 5.181062e+03
2.310000e+02 5.180918e+03
2.320000e+02 5.180911e+03
2.330000e+02 5.181025e+03
2.340000e+02 5.181333e+03
2.350000e+02 5.181792e+03
2.360000e+02 5.182376e+03
2.370000e+02 5.183114e+03
2.380000e+02 5.184009e+03
2.390000e+02 5.185057e+03
2.400000e+02 5.186266e+03
2.410000e+02 5.187580e+03
2.420000e+02 5.189074e+03
2.430000e+02 5.190718e+03
2.440000e+02 5.192496e+03
2.450000e+02 5.194452e+03
2.460000e+02 5.196491e+03
2.470000e+02 5.198710e+03
2.480000e+02 5.203227e+03
2.490000e+02 1.622045e+03
