1.000000e+00 2.196628e+04
2.000000e+00 2.961681e+04
3.000000e+00 2.905079e+04
4.000000e+00 2.841698e+04
5.000000e+00 2.786267e+04
6.000000e+00 2.731285e+04
7.000000e+00 2.680030e+04
8.000000e+00 2.631388e+04
9.000000e+00 2.584287e+04
1.000000e+01 2.539233e+04
1.100000e+01 2.496045e+04
1.200000e+01 2.453936e+04
1.300000e+01 2.413096e+04
1.400000e+01 2.373037e+04
1.500000e+01 2.333958e+04
1.600000e+01 2.295444e+04
1.700000e+01 2.257712e+04
1.800000e+01 2.220469e+04
1.900000e+01 2.183830e+04
2.000000e+01 2.147690e+04
2.100000e+01 2.111946e+04
2.200000e+01 2.076708e+04
2.300000e+01 2.041938e+04
2.400000e+01 2.007370e+04
2.500000e+01 1.973393e+04
2.600000e+01 1.939845e+04
2.700000e+01 1.906360e+04
2.800000e+01 1.873498e+04
2.900000e+01 1.841118e+04
3.000000e+01 1.808741e+04
3.100000e+01 1.776778e+04
3.200000e+01 1.745528e+04
3.300000e+01 1.714475e+04
3.400000e+01 1.683277e+04
3.500000e+01 1.652866e+04
3.600000e+01 1.623101e+04
3.700000e+01 1.593457e+04
3.800000e+01 1.563591e+04
3.900000e+01 1.534556e+04
4.000000e+01 1.506285e+04
4.100000e+01 1.478262e+04
4.200000e+01 1.449982e+04
4.300000e+01 1.421994e+04
4.400000e+01 1.395091e+04
4.500000e+01 1.368801e+04
4.600000e+01 1.342623e+04
4.700000e+01 1.316085e+04
4.800000e+01 1.290012e+04
4.900000e+01 1.265118e+04
5.000000e+01 1.240932e+04
5.100000e+01 1.216969e+04
5.200000e+01 1.192743e+04
5.300000e+01 1.168334e+04
5.400000e+01 1.145209e+04
5.500000e+01 1.123160e+04
5.600000e+01 1.101709e+04
5.700000e+01 1.080378e+04
5.800000e+01 1.058690e+04
5.900000e+01 1.036803e+04
6.000000e+01 1.016339e+04
6.100000e+01 9.971267e+03
6.200000e+01 9.786932e+03
6.300000e+01 9.605649e+03
6.400000e+01 9.422683e+03
6.500000e+01 9.233722e+03
6.600000e+01 9.049714e+03
6.700000e+01 8.882454e+03
6.800000e+01 8.727842e+03
6.900000e+01 8.581240e+03
7.000000e+01 8.438008e+03
7.100000e+01 8.293510e+03
7.200000e+01 8.143116e+03
7.300000e+01 7.990952e+03
7.400000e+01 7.855388e+03
7.500000e+01 7.735322e+03
7.600000e+01 7.626404e+03
7.700000e+01 7.524282e+03
7.800000e+01 7.424606e+03
7.900000e+01 7.323023e+03
8.000000e+01 7.215184e+03
8.100000e+01 7.103713e+03
8.200000e+01 7.007348e+03
8.300000e+01 6.927058e+03
8.400000e+01 6.859040e+03
8.500000e+01 6.799492e+03
8.600000e+01 6.744612e+03
8.700000e+01 6.690596e+03
8.800000e+01 6.633643e+03
8.900000e+01 6.569975e+03
9.000000e+01 6.503344e+03
9.100000e+01 6.450270e+03
9.200000e+01 6.411665e+03
9.300000e+01 6.384515e+03
9.400000e+01 6.365804e+03
9.500000e+01 6.352518e+03
9.600000e+01 6.341642e+03
9.700000e+01 6.330162e+03
9.800000e+01 6.315063e+03
9.900000e+01 6.293476e+03
1.000000e+02 6.270640e+03
1.010000e+02 6.259446e+03
1.020000e+02 6.260007e+03
1.030000e+02 6.269887e+03
1.040000e+02 6.286652e+03
1.050000e+02 6.307864e+03
1.060000e+02 6.331088e+03
1.070000e+02 6.353888e+03
1.080000e+02 6.373828e+03
1.090000e+02 6.388519e+03
1.100000e+02 6.401350e+03
1.110000e+02 6.424000e+03
1.120000e+02 6.457284e+03
1.130000e+02 6.498874e+03
1.140000e+02 6.546438e+03
1.150000e+02 6.597646e+03
1.160000e+02 6.650166e+03
1.170000e+02 6.701668e+03
1.180000e+02 6.749822e+03
1.190000e+02 6.793344e+03
1.200000e+02 6.840698e+03
1.210000e+02 6.897635e+03
1.220000e+02 6.962307e+03
1.230000e+02 7.032593e+03
1.240000e+02 7.106371e+03
1.250000e+02 7.181518e+03
1.260000e+02 7.255913e+03
1.270000e+02 7.327433e+03
1.280000e+02 7.395315e+03
1.290000e+02 7.467669e+03
1.300000e+02 7.547861e+03
1.310000e+02 7.634047e+03
1.320000e+02 7.724319e+03
1.330000e+02 7.816769e+03
1.340000e+02 7.909489e+03
1.350000e+02 8.000571e+03
1.360000e+02 8.088368e+03
1.370000e+02 8.177549e+03
1.380000e+02 8.273421e+03
1.390000e+02 8.374623e+03
1.400000e+02 8.479417e+03
1.410000e+02 8.586065e+03
1.420000e+02 8.692829e+03
1.430000e+02 8.797971e+03
1.440000e+02 8.900500e+03
1.450000e+02 9.006180e+03
1.460000e+02 9.117479e+03
1.470000e+02 9.232819e+03
1.480000e+02 9.350581e+03
1.490000e+02 9.469151e+03
1.500000e+02 9.586910e+03
1.510000e+02 9.702406e+03
1.520000e+02 9.819184e+03
1.530000e+02 9.941071e+03
1.540000e+02 1.006671e+04
1.550000e+02 1.019453e+04
1.560000e+02 1.032298e+04
1.570000e+02 1.045048e+04
1.580000e+02 1.057600e+04
1.590000e+02 1.070422e+04
1.600000e+02 1.083694e+04
1.610000e+02 1.097262e+04
1.620000e+02 1.110973e+04
1.630000e+02 1.124671e+04
1.640000e+02 1.138205e+04
1.650000e+02 1.151805e+04
1.660000e+02 1.165837e+04
1.670000e+02 1.180171e+04
1.680000e+02 1.194653e+04
1.690000e+02 1.209132e+04
1.700000e+02 1.223461e+04
1.710000e+02 1.237914e+04
1.720000e+02 1.252778e+04
1.730000e+02 1.267903e+04
1.740000e+02 1.283125e+04
1.750000e+02 1.298285e+04
1.760000e+02 1.313333e+04
1.770000e+02 1.328733e+04
1.780000e+02 1.344458e+04
1.790000e+02 1.360336e+04
1.800000e+02 1.376194e+04
1.810000e+02 1.391919e+04
1.820000e+02 1.407933e+04
1.830000e+02 1.424282e+04
1.840000e+02 1.440784e+04
1.850000e+02 1.457254e+04
1.860000e+02 1.473626e+04
1.870000e+02 1.490346e+04
1.880000e+02 1.507349e+04
1.890000e+02 1.524443e+04
1.900000e+02 1.541437e+04
1.910000e+02 1.558555e+04
1.920000e+02 1.576036e+04
1.930000e+02 1.593671e+04
1.940000e+02 1.611247e+04
1.950000e+02 1.628826e+04
1.960000e+02 1.646788e+04
1.970000e+02 1.664938e+04
1.980000e+02 1.683050e+04
1.990000e+02 1.701206e+04
2.000000e+02 1.719717e+04
2.010000e+02 1.738358e+04
2.020000e+02 1.756907e+04
2.030000e+02 1.775677e+04
2.040000e+02 1.794737e+04
2.050000e+02 1.813810e+04
2.060000e+02 1.832874e+04
2.070000e+02 1.852296e+04
2.080000e+02 1.871830e+04
2.090000e+02 1.891304e+04
2.100000e+02 1.911102e+04
2.110000e+02 1.931039e+04
2.120000e+02 1.950928e+04
2.130000e+02 1.971122e+04
2.140000e+02 1.991436e+04
2.150000e+02 2.011785e+04
2.160000e+02 2.032426e+04
2.170000e+02 2.053041e+04
2.180000e+02 2.073831e+04
2.190000e+02 2.094859e+04
2.200000e+02 2.115910e+04
2.210000e+02 2.137203e+04
2.220000e+02 2.158533e+04
2.230000e+02 2.180099e+04
2.240000e+02 2.201710e+04
2.250000e+02 2.223552e+04
2.260000e+02 2.245422e+04
2.270000e+02 2.267525e+04
2.280000e+02 2.289723e+04
2.290000e+02 2.312131e+04
2.300000e+02 2.334607e+04
2.310000e+02 2.357253e+04
2.320000e+02 2.380015e+04
2.330000e+02 2.402955e+04
2.340000e+02 2.426028e+04
2.350000e+02 2.449280e+04
2.360000e+02 2.472606e+04
2.370000e+02 2.496105e+04
2.380000e+02 2.519748e+04
2.390000e+02 2.543552e+04
2.400000e+02 2.567730e+04
2.410000e+02 2.591259e+04
2.420000e+02 2.615636e+04
2.430000e+02 2.640023e+04
2.440000e+02 2.664640e+04
2.450000e+02 2.689712e+04
2.460000e+02 2.714179e+04
2.470000e+02 2.739272e+04
2.480000e+02 2.764516e+04
2.490000e+02 1.643039e+03
