1.000000e+00 1.705638e+04
2.000000e+00 2.171236e+04
3.000000e+00 2.140037e+04
4.000000e+00 2.108540e+04
5.000000e+00 2.080823e+04
6.000000e+00 2.053915e+04
7.000000e+00 2.029440e+04
8.000000e+00 2.006703e+04
9.000000e+00 1.984850e+04
1.000000e+01 1.964365e+04
1.100000e+01 1.945233e+04
1.200000e+01 1.926792e+04
1.300000e+01 1.909165e+04
1.400000e+01 1.892099e+04
1.500000e+01 1.875696e+04
1.600000e+01 1.859628e+04
1.700000e+01 1.844117e+04
1.800000e+01 1.828871e+04
1.900000e+01 1.814062e+04
2.000000e+01 1.799519e+04
2.100000e+01 1.785254e+04
2.200000e+01 1.771304e+04
2.300000e+01 1.757598e+04
2.400000e+01 1.744076e+04
2.500000e+01 1.730862e+04
2.600000e+01 1.717874e+04
2.700000e+01 1.704972e+04
2.800000e+01 1.692395e+04
2.900000e+01 1.680069e+04
3.000000e+01 1.667774e+04
3.100000e+01 1.655702e+04
3.200000e+01 1.643984e+04
3.300000e+01 1.632373e+04
3.400000e+01 1.620704e+04
3.500000e+01 1.609420e+04
3.600000e+01 1.598456e+04
3.700000e+01 1.587560e+04
3.800000e+01 1.576569e+04
3.900000e+01 1.565958e+04
4.000000e+01 1.555703e+04
4.100000e+01 1.545572e+04
4.200000e+01 1.535338e+04
4.300000e+01 1.525234e+04
4.400000e+01 1.515601e+04
4.500000e+01 1.506236e+04
4.600000e+01 1.496924e+04
4.700000e+01 1.487461e+04
4.800000e+01 1.478189e+04
4.900000e+01 1.469410e+04
5.000000e+01 1.460926e+04
5.100000e+01 1.452537e+04
5.200000e+01 1.444041e+04
5.300000e+01 1.435462e+04
5.400000e+01 1.427379e+04
5.500000e+01 1.419714e+04
5.600000e+01 1.412283e+04
5.700000e+01 1.404902e+04
5.800000e+01 1.397384e+04
5.900000e+01 1.389781e+04
6.000000e+01 1.382688e+04
6.100000e+01 1.376045e+04
6.200000e+01 1.369683e+04
6.300000e+01 1.363432e+04
6.400000e+01 1.357123e+04
6.500000e+01 1.350600e+04
6.600000e+01 1.344235e+04
6.700000e+01 1.338434e+04
6.800000e+01 1.333058e+04
6.900000e+01 1.327951e+04
7.000000e+01 1.322956e+04
7.100000e+01 1.317918e+04
7.200000e+01 1.312680e+04
7.300000e+01 1.307377e+04
7.400000e+01 1.302617e+04
7.500000e+01 1.298365e+04
7.600000e+01 1.294477e+04
7.700000e+01 1.290810e+04
7.800000e+01 1.287221e+04
7.900000e+01 1.283566e+04
8.000000e+01 1.279702e+04
8.100000e+01 1.275719e+04
8.200000e+01 1.272248e+04
8.300000e+01 1.269320e+04
8.400000e+01 1.266806e+04
8.500000e+01 1.264577e+04
8.600000e+01 1.262503e+04
8.700000e+01 1.260455e+04
8.800000e+01 1.258305e+04
8.900000e+01 1.255924e+04
9.000000e+01 1.253455e+04
9.100000e+01 1.251501e+04
9.200000e+01 1.250090e+04
9.300000e+01 1.249109e+04
9.400000e+01 1.248442e+04
9.500000e+01 1.247977e+04
9.600000e+01 1.247598e+04
9.700000e+01 1.247191e+04
9.800000e+01 1.246643e+04
9.900000e+01 1.245845e+04
1.000000e+02 1.245028e+04
1.010000e+02 1.244738e+04
1.020000e+02 1.244970e+04
1.030000e+02 1.245612e+04
1.040000e+02 1.246551e+04
1.050000e+02 1.247672e+04
1.060000e+02 1.248862e+04
1.070000e+02 1.250009e+04
1.080000e+02 1.250998e+04
1.090000e+02 1.251737e+04
1.100000e+02 1.252585e+04
1.110000e+02 1.254040e+04
1.120000e+02 1.256030e+04
1.130000e+02 1.258417e+04
1.140000e+02 1.261063e+04
1.150000e+02 1.263831e+04
1.160000e+02 1.266584e+04
1.170000e+02 1.269185e+04
1.180000e+02 1.271523e+04
1.190000e+02 1.274017e+04
1.200000e+02 1.277118e+04
1.210000e+02 1.280712e+04
1.220000e+02 1.284646e+04
1.230000e+02 1.288769e+04
1.240000e+02 1.292928e+04
1.250000e+02 1.296971e+04
1.260000e+02 1.300763e+04
1.270000e+02 1.304683e+04
1.280000e+02 1.309184e+04
1.290000e+02 1.314138e+04
1.300000e+02 1.319379e+04
1.310000e+02 1.324745e+04
1.320000e+02 1.330072e+04
1.330000e+02 1.335195e+04
1.340000e+02 1.340284e+04
1.350000e+02 1.345911e+04
1.360000e+02 1.351984e+04
1.370000e+02 1.358325e+04
1.380000e+02 1.364756e+04
1.390000e+02 1.371100e+04
1.400000e+02 1.377231e+04
1.410000e+02 1.383667e+04
1.420000e+02 1.390605e+04
1.430000e+02 1.397853e+04
1.440000e+02 1.405218e+04
1.450000e+02 1.412508e+04
1.460000e+02 1.419617e+04
1.470000e+02 1.427104e+04
1.480000e+02 1.435029e+04
1.490000e+02 1.443182e+04
1.500000e+02 1.451353e+04
1.510000e+02 1.459351e+04
1.520000e+02 1.467543e+04
1.530000e+02 1.476191e+04
1.540000e+02 1.485075e+04
1.550000e+02 1.493966e+04
1.560000e+02 1.502702e+04
1.570000e+02 1.511774e+04
1.580000e+02 1.521214e+04
1.590000e+02 1.530772e+04
1.600000e+02 1.540208e+04
1.610000e+02 1.549808e+04
1.620000e+02 1.559810e+04
1.630000e+02 1.569947e+04
1.640000e+02 1.579968e+04
1.650000e+02 1.590223e+04
1.660000e+02 1.600800e+04
1.670000e+02 1.611426e+04
1.680000e+02 1.622045e+04
1.690000e+02 1.633018e+04
1.700000e+02 1.644098e+04
1.710000e+02 1.655142e+04
1.720000e+02 1.666548e+04
1.730000e+02 1.678038e+04
1.740000e+02 1.689527e+04
1.750000e+02 1.701360e+04
1.760000e+02 1.713185e+04
1.770000e+02 1.725240e+04
1.780000e+02 1.737424e+04
1.790000e+02 1.749700e+04
1.800000e+02 1.762174e+04
1.810000e+02 1.774748e+04
1.820000e+02 1.787471e+04
1.830000e+02 1.800331e+04
1.840000e+02 1.813324e+04
1.850000e+02 1.826504e+04
1.860000e+02 1.839766e+04
1.870000e+02 1.853166e+04
1.880000e+02 1.866741e+04
1.890000e+02 1.880438e+04
1.900000e+02 1.894613e+04
1.910000e+02 1.908139e+04
1.920000e+02 1.922291e+04
1.930000e+02 1.936518e+04
1.940000e+02 1.950930e+04
1.950000e+02 1.965639e+04
1.960000e+02 1.980049e+04
1.970000e+02 1.994872e+04
1.980000e+02 2.009825e+04
1.990000e+02 2.553237e+03
