2 15189.7333885
3 14736.3724272
4 14096.6574051
5 13532.8138413
6 12936.406966
7 12356.6935906
8 11784.8595747
9 11217.3959614
10 10657.5566244
11 10101.5714765
12 9555.58889826
13 9010.70221765
14 8480.20317344
15 7950.55889814
16 7429.85129189
17 6925.30885424
18 6419.30524093
19 5922.73401573
20 5454.58338808
21 4994.28004001
22 4523.84330088
23 4091.67065849
24 3711.27180144
25 3350.84529843
26 2978.44195024
27 2605.1734921
28 2317.52302407
29 2095.45636869
30 1903.09065139
31 1704.54299761
32 1474.05219463
33 1278.46982198
34 1148.81332777
35 1063.92555853
36 1002.08829842
37 941.583331606
38 860.892937648
39 763.773009447
40 690.370594511
41 642.573446584
42 613.134169346
43 594.805366477
44 580.339641658
45 562.489598568
46 534.394335005
47 500.18870465
48 472.891441121
49 453.6065771
50 440.559532739
51 431.97572819
52 426.080583609
53 421.099519146
54 415.257954957
55 406.781565103
56 395.082533091
57 383.467278029
58 374.332511688
59 367.469737852
60 362.453330252
61 358.857662623
62 356.257108695
63 354.226042203
64 352.338836879
65 350.169866456
66 347.293504666
67 343.380053205
68 338.97373286
69 335.031937219
70 331.875375947
71 329.404068974
72 327.510699328
73 326.087950041
74 325.028504142
75 324.225044661
76 323.570254627
77 322.956817072
78 322.277415025
79 321.424731515
80 320.291477676
81 318.847430073
82 317.307444421
83 315.925799484
84 314.803674142
85 313.915831458
86 313.233247233
87 312.726897267
88 312.367757361
89 312.126803313
90 311.975010926
91 311.883355998
92 311.82281433
93 311.764361723
94 311.678973976
95 311.53762689
96 311.311296265
97 310.974989207
98 310.562924453
99 310.154341514
100 309.826562738
101 309.608671123
102 309.491182607
103 309.463534661
104 309.515164756
105 309.635510363
106 309.814008953
107 310.040097997
108 310.303214966
109 310.59279733
110 310.898282562
111 311.209108131
112 311.514711509
113 311.804530167
114 312.068001576
115 312.294563207
116 312.47365253
117 312.5991997
118 312.705434465
119 312.847854967
120 313.082139521
121 313.448475264
122 313.94101941
123 314.545418947
124 315.247320865
125 316.032372152
126 316.886219797
127 317.79451079
128 318.74289212
129 319.717010775
130 320.702513744
131 321.685048017
132 322.650260582
133 323.583798429
134 324.471308546
135 325.298437923
136 326.050833548
137 326.716766947
138 327.357926128
139 328.117494331
140 329.142900605
141 330.560024756
142 332.36455789
143 334.503546501
144 336.92395304
145 339.572739955
146 342.396869698
147 345.343304718
148 348.359007466
149 351.390940391
150 354.386065945
151 357.291346577
152 360.053744736
153 362.620222874
154 364.93774344
155 367.033535843
156 369.353394101
157 372.479105939
158 376.896918765
159 382.571174566
160 389.28902229
161 396.837466124
162 405.003510255
163 413.574158872
164 422.336416161
165 431.077286311
166 439.583773508
167 447.642881941
168 455.041615797
169 461.570471383
170 467.760274414
171 475.79362329
172 487.911012474
173 504.457802769
174 524.570766362
175 547.367155456
176 571.964222256
177 597.479218965
178 623.029397788
179 647.732010928
180 670.704310588
181 691.063548974
182 709.085156592
183 732.041642036
184 768.903393486
185 820.506157574
186 883.425329268
187 954.198964704
188 1029.36512002
189 1105.46185135
190 1179.02721483
191 1246.5992666
192 1305.53940334
193 1370.40150888
194 1469.17362337
195 1605.24891579
196 1768.81172618
197 1949.93062895
198 2138.67419851
199 2325.11100928
200 2499.30963569
201 2658.03025969
202 2839.71021628
203 3071.91546574
204 3342.83879992
205 3637.60044991
206 3941.32064677
207 4239.11962156
208 4518.13687675
209 4798.04809888
210 5104.27799947
211 5430.19298584
212 5766.30067959
213 6103.10870229
214 6431.65189289
215 6755.83245883
216 7084.27845423
217 7415.6007057
218 7747.7944963
219 8078.90743992
220 8409.31024911
221 8740.55348405
222 9072.20548522
223 9403.73524862
224 9735.62965828
225 10069.4197364
226 10403.9717458
227 10738.1196602
228 11074.7000101
229 11413.349204
230 11751.2132242
231 12092.4088784
232 12435.5440138
233 12779.1980356
234 13126.6684311
235 13474.4050591
236 13825.575611
237 14178.3635713
238 14534.0721166
239 14892.5601764
240 15265.0558969
241 15617.1634847
242 15981.7702594
243 16348.2482129
244 16717.8152466
245 17094.9935273
246 17463.4111851
247 17842.3708062
248 18224.3251073
