2 50872.6405201
3 50149.2287196
4 49095.8229311
5 48167.2514318
6 47183.0460306
7 46224.0411508
8 45275.6846766
9 44332.5055362
10 43396.414944
11 42465.527372
12 41543.8216979
13 40624.2195566
14 39717.4701861
15 38812.0181438
16 37913.751078
17 37028.6983599
18 36143.2507306
19 35262.2646743
20 34398.1488355
21 33539.583332
22 32676.0417286
23 31823.8667611
24 30989.1540975
25 30161.5098406
26 29330.4852226
27 28497.6335706
28 27686.2067631
29 26891.1526439
30 26103.1626568
31 25312.9282458
32 24514.4090305
33 23731.2151934
34 22972.9764694
35 22231.1415239
36 21496.9637124
37 20761.69639
38 20016.7315006
39 19270.9304571
40 18556.224947
41 17871.1752029
42 17206.5904829
43 16553.2800456
44 15902.0531492
45 15243.719052
46 14570.1056997
47 13902.022621
48 13280.7537209
49 12705.3978099
50 12164.9965922
51 11648.591772
52 11145.2250533
53 10643.9381402
54 10133.772737
55 9603.77361228
56 9057.30633757
57 8544.62715817
58 8098.71893501
59 7711.58850838
60 7371.827588
61 7068.02788359
62 6788.78110484
63 6522.67896148
64 6258.31316322
65 5984.27541977
66 5689.15744083
67 5365.26457392
68 5038.73400094
69 4751.3136465
70 4515.5310456
71 4324.62705837
72 4171.50618219
73 4049.07291439
74 3950.23175235
75 3867.88719341
76 3794.94373493
77 3724.30587426
78 3648.87810877
79 3561.5649358
80 3455.27292509
81 3328.59172995
82 3198.18402576
83 3083.57927747
84 2992.34329942
85 2922.16342242
86 2870.43103003
87 2834.53750582
88 2811.87423334
89 2799.83259618
90 2795.80397788
91 2797.17976201
92 2801.35133214
93 2805.71007182
94 2807.64736463
95 2804.55459413
96 2793.82314387
97 2773.20650713
98 2745.77682611
99 2718.65020727
100 2698.77088227
101 2688.75529669
102 2687.75985783
103 2694.84421853
104 2709.06803163
105 2729.49094997
106 2755.17262638
107 2785.17271372
108 2818.55086482
109 2854.36673252
110 2891.67996966
111 2929.55022908
112 2967.03716362
113 3003.20042612
114 3037.09966942
115 3067.79454637
116 3094.34470979
117 3116.18384614
118 3136.10074258
119 3158.65486425
120 3188.42070808
121 3228.72530367
122 3279.18900105
123 3338.74684227
124 3406.33386938
125 3480.88512443
126 3561.33564947
127 3646.62048656
128 3735.67467773
129 3827.43326505
130 3920.83129055
131 4014.8037963
132 4108.28582434
133 4200.21241672
134 4289.51861549
135 4375.13946269
136 4456.01000039
137 4531.19940155
138 4603.52889979
139 4679.98466613
140 4767.76986008
141 4873.08721427
142 4996.09543103
143 5134.69487919
144 5286.78202582
145 5450.25333799
146 5623.00528278
147 5802.93432724
148 5987.93693846
149 6175.9095835
150 6364.74872942
151 6552.35084331
152 6736.61239223
153 6915.42984325
154 7086.69966344
155 7249.85508049
156 7412.34300083
157 7584.21401463
158 7774.0004024
159 7981.9391362
160 8205.45083309
161 8441.95380932
162 8688.86638112
163 8943.60686471
164 9203.59357633
165 9466.24483222
166 9728.97894859
167 9989.21424168
168 10244.3690277
169 10491.8778817
170 10732.6222386
171 10975.1739328
172 11228.5501887
173 11494.9570416
174 11772.2568097
175 12058.2416554
176 12350.7037411
177 12647.4352293
178 12946.2282823
179 13244.8750628
180 13541.167733
181 13832.8984554
182 14119.0653695
183 14405.9524659
184 14701.7966555
185 15008.0070304
186 15322.4162753
187 15642.8257302
188 15967.0367352
189 16292.8506303
190 16618.0687556
191 16940.4924512
192 17258.2214333
193 17575.5859265
194 17901.9081988
195 18238.6944885
196 18583.2384474
197 18932.7968069
198 19284.6262986
199 19635.9836539
200 19984.1256044
201 20327.9589205
202 20676.6706783
203 21036.9376482
204 21405.9738477
205 21780.2548325
206 22156.2561582
207 22530.4533803
208 22899.9867068
209 23272.6895392
210 23657.2895115
211 24050.4012499
212 24447.5624988
213 24844.3110026
214 25236.6686061
215 25632.3617635
216 26039.9522645
217 26454.6623695
218 26870.9100755
219 27283.389422
220 27698.8655288
221 28125.9936743
222 28558.5711877
223 28989.675974
224 29420.475105
225 29862.4985419
226 30309.3173245
227 30753.6087146
228 31205.0542972
229 31663.7876787
230 32120.4195135
231 32584.7522286
232 33053.9521194
233 33523.9285884
234 34002.0538534
235 34480.3946981
236 34965.5991854
237 35453.7364728
238 35946.6820918
239 36444.203312
240 36961.8524392
241 37452.1719303
242 37960.299761
243 38471.5792336
244 38987.3189282
245 39513.9227009
246 40028.7033868
247 40558.1770945
248 41091.6843426
