1.000000e+00 4.008845e+04
2.000000e+00 4.934216e+04
3.000000e+00 4.893142e+04
4.000000e+00 4.845568e+04
5.000000e+00 4.803942e+04
6.000000e+00 4.765157e+04
7.000000e+00 4.731568e+04
8.000000e+00 4.701649e+04
9.000000e+00 4.673596e+04
1.000000e+01 4.648436e+04
1.100000e+01 4.626003e+04
1.200000e+01 4.604847e+04
1.300000e+01 4.585411e+04
1.400000e+01 4.566796e+04
1.500000e+01 4.549566e+04
1.600000e+01 4.532696e+04
1.700000e+01 4.517022e+04
1.800000e+01 4.501457e+04
1.900000e+01 4.486845e+04
2.000000e+01 4.472355e+04
2.100000e+01 4.458399e+04
2.200000e+01 4.444893e+04
2.300000e+01 4.431474e+04
2.400000e+01 4.418573e+04
2.500000e+01 4.405858e+04
2.600000e+01 4.393294e+04
2.700000e+01 4.381065e+04
2.800000e+01 4.369035e+04
2.900000e+01 4.357149e+04
3.000000e+01 4.345435e+04
3.100000e+01 4.333936e+04
3.200000e+01 4.322627e+04
3.300000e+01 4.311431e+04
3.400000e+01 4.300302e+04
3.500000e+01 4.289416e+04
3.600000e+01 4.278724e+04
3.700000e+01 4.268109e+04
3.800000e+01 4.257494e+04
3.900000e+01 4.247127e+04
4.000000e+01 4.236981e+04
4.100000e+01 4.226921e+04
4.200000e+01 4.216814e+04
4.300000e+01 4.206806e+04
4.400000e+01 4.197101e+04
4.500000e+01 4.187575e+04
4.600000e+01 4.178092e+04
4.700000e+01 4.168526e+04
4.800000e+01 4.159086e+04
4.900000e+01 4.149955e+04
5.000000e+01 4.141011e+04
5.100000e+01 4.132129e+04
5.200000e+01 4.123183e+04
5.300000e+01 4.114187e+04
5.400000e+01 4.105502e+04
5.500000e+01 4.097080e+04
5.600000e+01 4.088807e+04
5.700000e+01 4.080570e+04
5.800000e+01 4.072254e+04
5.900000e+01 4.063890e+04
6.000000e+01 4.055834e+04
6.100000e+01 4.048053e+04
6.200000e+01 4.040443e+04
6.300000e+01 4.032901e+04
6.400000e+01 4.025325e+04
6.500000e+01 4.017621e+04
6.600000e+01 4.010014e+04
6.700000e+01 4.002752e+04
6.800000e+01 3.995749e+04
6.900000e+01 3.988910e+04
7.000000e+01 3.982138e+04
7.100000e+01 3.975340e+04
7.200000e+01 3.968418e+04
7.300000e+01 3.961455e+04
7.400000e+01 3.954822e+04
7.500000e+01 3.948497e+04
7.600000e+01 3.942393e+04
7.700000e+01 3.936424e+04
7.800000e+01 3.930501e+04
7.900000e+01 3.924539e+04
8.000000e+01 3.918451e+04
8.100000e+01 3.912290e+04
8.200000e+01 3.906438e+04
8.300000e+01 3.900914e+04
8.400000e+01 3.895638e+04
8.500000e+01 3.890533e+04
8.600000e+01 3.885522e+04
8.700000e+01 3.880524e+04
8.800000e+01 3.875463e+04
8.900000e+01 3.870261e+04
9.000000e+01 3.865012e+04
9.100000e+01 3.860100e+04
9.200000e+01 3.855544e+04
9.300000e+01 3.851267e+04
9.400000e+01 3.847197e+04
9.500000e+01 3.843259e+04
9.600000e+01 3.839380e+04
9.700000e+01 3.835484e+04
9.800000e+01 3.831498e+04
9.900000e+01 3.827351e+04
1.000000e+02 3.823185e+04
1.010000e+02 3.819342e+04
1.020000e+02 3.815822e+04
1.030000e+02 3.812558e+04
1.040000e+02 3.809481e+04
1.050000e+02 3.806525e+04
1.060000e+02 3.803621e+04
1.070000e+02 3.800704e+04
1.080000e+02 3.797704e+04
1.090000e+02 3.794556e+04
1.100000e+02 3.791367e+04
1.110000e+02 3.788486e+04
1.120000e+02 3.785935e+04
1.130000e+02 3.783641e+04
1.140000e+02 3.781530e+04
1.150000e+02 3.779528e+04
1.160000e+02 3.777561e+04
1.170000e+02 3.775556e+04
1.180000e+02 3.773440e+04
1.190000e+02 3.771175e+04
1.200000e+02 3.769083e+04
1.210000e+02 3.767375e+04
1.220000e+02 3.765975e+04
1.230000e+02 3.764799e+04
1.240000e+02 3.763761e+04
1.250000e+02 3.762776e+04
1.260000e+02 3.761760e+04
1.270000e+02 3.760627e+04
1.280000e+02 3.759351e+04
1.290000e+02 3.758299e+04
1.300000e+02 3.757615e+04
1.310000e+02 3.757212e+04
1.320000e+02 3.757000e+04
1.330000e+02 3.756888e+04
1.340000e+02 3.756784e+04
1.350000e+02 3.756598e+04
1.360000e+02 3.756253e+04
1.370000e+02 3.756002e+04
1.380000e+02 3.756123e+04
1.390000e+02 3.756541e+04
1.400000e+02 3.757159e+04
1.410000e+02 3.757880e+04
1.420000e+02 3.758607e+04
1.430000e+02 3.759243e+04
1.440000e+02 3.759736e+04
1.450000e+02 3.760438e+04
1.460000e+02 3.761494e+04
1.470000e+02 3.762804e+04
1.480000e+02 3.764265e+04
1.490000e+02 3.765771e+04
1.500000e+02 3.767221e+04
1.510000e+02 3.768522e+04
1.520000e+02 3.769924e+04
1.530000e+02 3.771689e+04
1.540000e+02 3.773721e+04
1.550000e+02 3.775908e+04
1.560000e+02 3.778140e+04
1.570000e+02 3.780305e+04
1.580000e+02 3.782329e+04
1.590000e+02 3.784561e+04
1.600000e+02 3.787131e+04
1.610000e+02 3.789922e+04
1.620000e+02 3.792818e+04
1.630000e+02 3.795701e+04
1.640000e+02 3.798456e+04
1.650000e+02 3.801268e+04
1.660000e+02 3.804426e+04
1.670000e+02 3.807826e+04
1.680000e+02 3.811345e+04
1.690000e+02 3.814859e+04
1.700000e+02 3.818254e+04
1.710000e+02 3.821751e+04
1.720000e+02 3.825580e+04
1.730000e+02 3.829618e+04
1.740000e+02 3.833733e+04
1.750000e+02 3.837792e+04
1.760000e+02 3.841758e+04
1.770000e+02 3.846021e+04
1.780000e+02 3.850554e+04
1.790000e+02 3.855214e+04
1.800000e+02 3.859854e+04
1.810000e+02 3.864376e+04
1.820000e+02 3.869138e+04
1.830000e+02 3.874180e+04
1.840000e+02 3.879351e+04
1.850000e+02 3.884497e+04
1.860000e+02 3.889562e+04
1.870000e+02 3.894916e+04
1.880000e+02 3.900502e+04
1.890000e+02 3.906157e+04
1.900000e+02 3.911720e+04
1.910000e+02 3.917381e+04
1.920000e+02 3.923350e+04
1.930000e+02 3.929451e+04
1.940000e+02 3.935503e+04
1.950000e+02 3.941557e+04
1.960000e+02 3.947922e+04
1.970000e+02 3.954436e+04
1.980000e+02 3.960906e+04
1.990000e+02 3.967407e+04
2.000000e+02 3.974206e+04
2.010000e+02 3.981118e+04
2.020000e+02 3.987954e+04
2.030000e+02 3.994964e+04
2.040000e+02 4.002204e+04
2.050000e+02 4.009455e+04
2.060000e+02 4.016694e+04
2.070000e+02 4.024213e+04
2.080000e+02 4.031828e+04
2.090000e+02 4.039408e+04
2.100000e+02 4.047230e+04
2.110000e+02 4.055155e+04
2.120000e+02 4.063049e+04
2.130000e+02 4.071184e+04
2.140000e+02 4.079403e+04
2.150000e+02 4.087639e+04
2.160000e+02 4.096116e+04
2.170000e+02 4.104574e+04
2.180000e+02 4.113167e+04
2.190000e+02 4.121938e+04
2.200000e+02 4.130711e+04
2.210000e+02 4.139688e+04
2.220000e+02 4.148691e+04
2.230000e+02 4.157874e+04
2.240000e+02 4.167078e+04
2.250000e+02 4.176465e+04
2.260000e+02 4.185875e+04
2.270000e+02 4.195461e+04
2.280000e+02 4.205109e+04
2.290000e+02 4.214912e+04
2.300000e+02 4.224769e+04
2.310000e+02 4.234760e+04
2.320000e+02 4.244852e+04
2.330000e+02 4.255036e+04
2.340000e+02 4.265336e+04
2.350000e+02 4.275751e+04
2.360000e+02 4.286254e+04
2.370000e+02 4.296848e+04
2.380000e+02 4.307556e+04
2.390000e+02 4.318397e+04
2.400000e+02 4.329426e+04
2.410000e+02 4.340203e+04
2.420000e+02 4.351401e+04
2.430000e+02 4.362656e+04
2.440000e+02 4.374038e+04
2.450000e+02 4.385674e+04
2.460000e+02 4.397049e+04
2.470000e+02 4.408759e+04
2.480000e+02 4.420569e+04
2.490000e+02 2.529161e+03
