1.000000e+00 9.960578e+03
2.000000e+00 1.393345e+04
3.000000e+00 1.375959e+04
4.000000e+00 1.355719e+04
5.000000e+00 1.337731e+04
6.000000e+00 1.320192e+04
7.000000e+00 1.304188e+04
8.000000e+00 1.289302e+04
9.000000e+00 1.274980e+04
1.000000e+01 1.261553e+04
1.100000e+01 1.248971e+04
1.200000e+01 1.236811e+04
1.300000e+01 1.225231e+04
1.400000e+01 1.213933e+04
1.500000e+01 1.203081e+04
1.600000e+01 1.192408e+04
1.700000e+01 1.182114e+04
1.800000e+01 1.171936e+04
1.900000e+01 1.162052e+04
2.000000e+01 1.152295e+04
2.100000e+01 1.142737e+04
2.200000e+01 1.133365e+04
2.300000e+01 1.124093e+04
2.400000e+01 1.114974e+04
2.500000e+01 1.106021e+04
2.600000e+01 1.097177e+04
2.700000e+01 1.088393e+04
2.800000e+01 1.079793e+04
2.900000e+01 1.071335e+04
3.000000e+01 1.062906e+04
3.100000e+01 1.054601e+04
3.200000e+01 1.046484e+04
3.300000e+01 1.038433e+04
3.400000e+01 1.030362e+04
3.500000e+01 1.022502e+04
3.600000e+01 1.014815e+04
3.700000e+01 1.007167e+04
3.800000e+01 9.994716e+03
3.900000e+01 9.919919e+03
4.000000e+01 9.847107e+03
4.100000e+01 9.774985e+03
4.200000e+01 9.702278e+03
4.300000e+01 9.630317e+03
4.400000e+01 9.561040e+03
4.500000e+01 9.493293e+03
4.600000e+01 9.425850e+03
4.700000e+01 9.357551e+03
4.800000e+01 9.290353e+03
4.900000e+01 9.225970e+03
5.000000e+01 9.163285e+03
5.100000e+01 9.101148e+03
5.200000e+01 9.038406e+03
5.300000e+01 8.975206e+03
5.400000e+01 8.914902e+03
5.500000e+01 8.857032e+03
5.600000e+01 8.800519e+03
5.700000e+01 8.744286e+03
5.800000e+01 8.687256e+03
5.900000e+01 8.629740e+03
6.000000e+01 8.575255e+03
6.100000e+01 8.523449e+03
6.200000e+01 8.473313e+03
6.300000e+01 8.423838e+03
6.400000e+01 8.374016e+03
6.500000e+01 8.322926e+03
6.600000e+01 8.272811e+03
6.700000e+01 8.226115e+03
6.800000e+01 8.182001e+03
6.900000e+01 8.139523e+03
7.000000e+01 8.097734e+03
7.100000e+01 8.055689e+03
7.200000e+01 8.012441e+03
7.300000e+01 7.968829e+03
7.400000e+01 7.928589e+03
7.500000e+01 7.891496e+03
7.600000e+01 7.856663e+03
7.700000e+01 7.823204e+03
7.800000e+01 7.790231e+03
7.900000e+01 7.756859e+03
8.000000e+01 7.722202e+03
8.100000e+01 7.686844e+03
8.200000e+01 7.654765e+03
8.300000e+01 7.626154e+03
8.400000e+01 7.600183e+03
8.500000e+01 7.576026e+03
8.600000e+01 7.552857e+03
8.700000e+01 7.529848e+03
8.800000e+01 7.506173e+03
8.900000e+01 7.481011e+03
9.000000e+01 7.455332e+03
9.100000e+01 7.433122e+03
9.200000e+01 7.414564e+03
9.300000e+01 7.398892e+03
9.400000e+01 7.385338e+03
9.500000e+01 7.373135e+03
9.600000e+01 7.361518e+03
9.700000e+01 7.349717e+03
9.800000e+01 7.336967e+03
9.900000e+01 7.322540e+03
1.000000e+02 7.307986e+03
1.010000e+02 7.296966e+03
1.020000e+02 7.289474e+03
1.030000e+02 7.284774e+03
1.040000e+02 7.282127e+03
1.050000e+02 7.280796e+03
1.060000e+02 7.280043e+03
1.070000e+02 7.279130e+03
1.080000e+02 7.277320e+03
1.090000e+02 7.273891e+03
1.100000e+02 7.270059e+03
1.110000e+02 7.269797e+03
1.120000e+02 7.273344e+03
1.130000e+02 7.279856e+03
1.140000e+02 7.288493e+03
1.150000e+02 7.298410e+03
1.160000e+02 7.308767e+03
1.170000e+02 7.318720e+03
1.180000e+02 7.327428e+03
1.190000e+02 7.334469e+03
1.200000e+02 7.343340e+03
1.210000e+02 7.356361e+03
1.220000e+02 7.372723e+03
1.230000e+02 7.391502e+03
1.240000e+02 7.411775e+03
1.250000e+02 7.432619e+03
1.260000e+02 7.453109e+03
1.270000e+02 7.472322e+03
1.280000e+02 7.489981e+03
1.290000e+02 7.510009e+03
1.300000e+02 7.533995e+03
1.310000e+02 7.561000e+03
1.320000e+02 7.590056e+03
1.330000e+02 7.620195e+03
1.340000e+02 7.650447e+03
1.350000e+02 7.679845e+03
1.360000e+02 7.707563e+03
1.370000e+02 7.736222e+03
1.380000e+02 7.768738e+03
1.390000e+02 7.804316e+03
1.400000e+02 7.841954e+03
1.410000e+02 7.880650e+03
1.420000e+02 7.919400e+03
1.430000e+02 7.957203e+03
1.440000e+02 7.993509e+03
1.450000e+02 8.031874e+03
1.460000e+02 8.073788e+03
1.470000e+02 8.118249e+03
1.480000e+02 8.164231e+03
1.490000e+02 8.210709e+03
1.500000e+02 8.256658e+03
1.510000e+02 8.301159e+03
1.520000e+02 8.346575e+03
1.530000e+02 8.395425e+03
1.540000e+02 8.446795e+03
1.550000e+02 8.499637e+03
1.560000e+02 8.552899e+03
1.570000e+02 8.605534e+03
1.580000e+02 8.656847e+03
1.590000e+02 8.710029e+03
1.600000e+02 8.766296e+03
1.610000e+02 8.824591e+03
1.620000e+02 8.883847e+03
1.630000e+02 8.942998e+03
1.640000e+02 9.001008e+03
1.650000e+02 9.059485e+03
1.660000e+02 9.120978e+03
1.670000e+02 9.184576e+03
1.680000e+02 9.249198e+03
1.690000e+02 9.313761e+03
1.700000e+02 9.377246e+03
1.710000e+02 9.441560e+03
1.720000e+02 9.508704e+03
1.730000e+02 9.577637e+03
1.740000e+02 9.647241e+03
1.750000e+02 9.716395e+03
1.760000e+02 9.784748e+03
1.770000e+02 9.855416e+03
1.780000e+02 9.928249e+03
1.790000e+02 1.000212e+04
1.800000e+02 1.007592e+04
1.810000e+02 1.014887e+04
1.820000e+02 1.022361e+04
1.830000e+02 1.030045e+04
1.840000e+02 1.037826e+04
1.850000e+02 1.045595e+04
1.860000e+02 1.053308e+04
1.870000e+02 1.061231e+04
1.880000e+02 1.069325e+04
1.890000e+02 1.077471e+04
1.900000e+02 1.085555e+04
1.910000e+02 1.093715e+04
1.920000e+02 1.102101e+04
1.930000e+02 1.110583e+04
1.940000e+02 1.119023e+04
1.950000e+02 1.127459e+04
1.960000e+02 1.136125e+04
1.970000e+02 1.144905e+04
1.980000e+02 1.153662e+04
1.990000e+02 1.162443e+04
2.000000e+02 1.171430e+04
2.010000e+02 1.180489e+04
2.020000e+02 1.189484e+04
2.030000e+02 1.198610e+04
2.040000e+02 1.207906e+04
2.050000e+02 1.217203e+04
2.060000e+02 1.226485e+04
2.070000e+02 1.235977e+04
2.080000e+02 1.245528e+04
2.090000e+02 1.255031e+04
2.100000e+02 1.264715e+04
2.110000e+02 1.274488e+04
2.120000e+02 1.284244e+04
2.130000e+02 1.294147e+04
2.140000e+02 1.304100e+04
2.150000e+02 1.314062e+04
2.160000e+02 1.324187e+04
2.170000e+02 1.334329e+04
2.180000e+02 1.344553e+04
2.190000e+02 1.354873e+04
2.200000e+02 1.365206e+04
2.210000e+02 1.375673e+04
2.220000e+02 1.386151e+04
2.230000e+02 1.396768e+04
2.240000e+02 1.407370e+04
2.250000e+02 1.418105e+04
2.260000e+02 1.428867e+04
2.270000e+02 1.439732e+04
2.280000e+02 1.450653e+04
2.290000e+02 1.461668e+04
2.300000e+02 1.472719e+04
2.310000e+02 1.483851e+04
2.320000e+02 1.495034e+04
2.330000e+02 1.506319e+04
2.340000e+02 1.517650e+04
2.350000e+02 1.529072e+04
2.360000e+02 1.540533e+04
2.370000e+02 1.552067e+04
2.380000e+02 1.563682e+04
2.390000e+02 1.575374e+04
2.400000e+02 1.587241e+04
2.410000e+02 1.598770e+04
2.420000e+02 1.610718e+04
2.430000e+02 1.622690e+04
2.440000e+02 1.634756e+04
2.450000e+02 1.647049e+04
2.460000e+02 1.659023e+04
2.470000e+02 1.671306e+04
2.480000e+02 1.683658e+04
2.490000e+02 2.529127e+03
