1.000000e+00 8.665227e+03
2.000000e+00 9.346028e+03
3.000000e+00 9.133743e+03
4.000000e+00 8.927013e+03
5.000000e+00 8.743083e+03
6.000000e+00 8.558482e+03
7.000000e+00 8.384546e+03
8.000000e+00 8.218018e+03
9.000000e+00 8.055035e+03
1.000000e+01 7.898066e+03
1.100000e+01 7.747183e+03
1.200000e+01 7.599366e+03
1.300000e+01 7.455271e+03
1.400000e+01 7.313784e+03
1.500000e+01 7.175204e+03
1.600000e+01 7.038402e+03
1.700000e+01 6.904057e+03
1.800000e+01 6.771065e+03
1.900000e+01 6.640021e+03
2.000000e+01 6.510336e+03
2.100000e+01 6.381942e+03
2.200000e+01 6.254993e+03
2.300000e+01 6.129244e+03
2.400000e+01 6.004323e+03
2.500000e+01 5.880832e+03
2.600000e+01 5.758414e+03
2.700000e+01 5.636407e+03
2.800000e+01 5.515843e+03
2.900000e+01 5.396397e+03
3.000000e+01 5.277116e+03
3.100000e+01 5.158803e+03
3.200000e+01 5.042037e+03
3.300000e+01 4.925784e+03
3.400000e+01 4.809343e+03
3.500000e+01 4.694503e+03
3.600000e+01 4.580985e+03
3.700000e+01 4.467765e+03
3.800000e+01 4.354167e+03
3.900000e+01 4.242206e+03
4.000000e+01 4.131753e+03
4.100000e+01 4.021820e+03
4.200000e+01 3.911435e+03
4.300000e+01 3.801672e+03
4.400000e+01 3.694054e+03
4.500000e+01 3.587643e+03
4.600000e+01 3.481446e+03
4.700000e+01 3.374526e+03
4.800000e+01 3.268745e+03
4.900000e+01 3.165630e+03
5.000000e+01 3.064096e+03
5.100000e+01 2.963026e+03
5.200000e+01 2.861302e+03
5.300000e+01 2.759353e+03
5.400000e+01 2.661283e+03
5.500000e+01 2.566395e+03
5.600000e+01 2.473230e+03
5.700000e+01 2.380329e+03
5.800000e+01 2.286235e+03
5.900000e+01 2.191921e+03
6.000000e+01 2.103770e+03
6.100000e+01 2.020940e+03
6.200000e+01 1.941383e+03
6.300000e+01 1.863054e+03
6.400000e+01 1.783908e+03
6.500000e+01 1.702110e+03
6.600000e+01 1.623466e+03
6.700000e+01 1.553938e+03
6.800000e+01 1.491283e+03
6.900000e+01 1.432984e+03
7.000000e+01 1.376521e+03
7.100000e+01 1.319375e+03
7.200000e+01 1.259033e+03
7.300000e+01 1.197724e+03
7.400000e+01 1.145401e+03
7.500000e+01 1.101488e+03
7.600000e+01 1.063649e+03
7.700000e+01 1.029550e+03
7.800000e+01 9.968534e+02
7.900000e+01 9.632255e+02
8.000000e+01 9.263315e+02
8.100000e+01 8.871246e+02
8.200000e+01 8.542480e+02
8.300000e+01 8.282727e+02
8.400000e+01 8.075851e+02
8.500000e+01 7.905720e+02
8.600000e+01 7.756197e+02
8.700000e+01 7.611150e+02
8.800000e+01 7.454444e+02
8.900000e+01 7.270034e+02
9.000000e+01 7.069059e+02
9.100000e+01 6.909480e+02
9.200000e+01 6.795449e+02
9.300000e+01 6.717488e+02
9.400000e+01 6.666122e+02
9.500000e+01 6.631874e+02
9.600000e+01 6.605268e+02
9.700000e+01 6.576828e+02
9.800000e+01 6.537078e+02
9.900000e+01 6.476984e+02
1.000000e+02 6.412445e+02
1.010000e+02 6.382844e+02
1.020000e+02 6.388278e+02
1.030000e+02 6.420997e+02
1.040000e+02 6.473254e+02
1.050000e+02 6.537298e+02
1.060000e+02 6.605381e+02
1.070000e+02 6.669753e+02
1.080000e+02 6.722665e+02
1.090000e+02 6.757998e+02
1.100000e+02 6.807199e+02
1.110000e+02 6.912002e+02
1.120000e+02 7.064912e+02
1.130000e+02 7.252985e+02
1.140000e+02 7.463276e+02
1.150000e+02 7.682841e+02
1.160000e+02 7.898738e+02
1.170000e+02 8.098020e+02
1.180000e+02 8.271425e+02
1.190000e+02 8.483442e+02
1.200000e+02 8.798496e+02
1.210000e+02 9.195701e+02
1.220000e+02 9.648717e+02
1.230000e+02 1.013120e+03
1.240000e+02 1.061682e+03
1.250000e+02 1.107923e+03
1.260000e+02 1.149617e+03
1.270000e+02 1.196640e+03
1.280000e+02 1.259948e+03
1.290000e+02 1.335797e+03
1.300000e+02 1.419583e+03
1.310000e+02 1.506705e+03
1.320000e+02 1.592559e+03
1.330000e+02 1.672573e+03
1.340000e+02 1.752223e+03
1.350000e+02 1.849066e+03
1.360000e+02 1.960161e+03
1.370000e+02 2.079924e+03
1.380000e+02 2.202773e+03
1.390000e+02 2.323124e+03
1.400000e+02 2.436788e+03
1.410000e+02 2.556745e+03
1.420000e+02 2.688468e+03
1.430000e+02 2.827573e+03
1.440000e+02 2.969630e+03
1.450000e+02 3.110207e+03
1.460000e+02 3.246342e+03
1.470000e+02 3.386431e+03
1.480000e+02 3.532005e+03
1.490000e+02 3.680504e+03
1.500000e+02 3.829365e+03
1.510000e+02 3.976164e+03
1.520000e+02 4.123386e+03
1.530000e+02 4.273405e+03
1.540000e+02 4.424880e+03
1.550000e+02 4.576429e+03
1.560000e+02 4.726954e+03
1.570000e+02 4.878432e+03
1.580000e+02 5.031181e+03
1.590000e+02 5.184372e+03
1.600000e+02 5.337197e+03
1.610000e+02 5.490293e+03
1.620000e+02 5.644352e+03
1.630000e+02 5.798773e+03
1.640000e+02 5.952988e+03
1.650000e+02 6.107597e+03
1.660000e+02 6.262839e+03
1.670000e+02 6.418298e+03
1.680000e+02 6.573891e+03
1.690000e+02 6.730113e+03
1.700000e+02 6.886517e+03
1.710000e+02 7.042954e+03
1.720000e+02 7.200405e+03
1.730000e+02 7.357943e+03
1.740000e+02 7.515407e+03
1.750000e+02 7.674014e+03
1.760000e+02 7.832433e+03
1.770000e+02 7.991527e+03
1.780000e+02 8.151196e+03
1.790000e+02 8.311124e+03
1.800000e+02 8.471572e+03
1.810000e+02 8.632450e+03
1.820000e+02 8.793755e+03
1.830000e+02 8.955574e+03
1.840000e+02 9.117866e+03
1.850000e+02 9.280922e+03
1.860000e+02 9.444187e+03
1.870000e+02 9.608063e+03
1.880000e+02 9.772610e+03
1.890000e+02 9.937813e+03
1.900000e+02 1.010744e+04
1.910000e+02 1.026825e+04
1.920000e+02 1.043557e+04
1.930000e+02 1.060274e+04
1.940000e+02 1.077114e+04
1.950000e+02 1.094222e+04
1.960000e+02 1.110871e+04
1.970000e+02 1.127904e+04
1.980000e+02 1.145004e+04
1.990000e+02 2.539258e+03
