1.000000e+00 1.031634e+04
2.000000e+00 1.765930e+04
3.000000e+00 1.751436e+04
4.000000e+00 1.734501e+04
5.000000e+00 1.719264e+04
6.000000e+00 1.704848e+04
7.000000e+00 1.692191e+04
8.000000e+00 1.680796e+04
9.000000e+00 1.669919e+04
1.000000e+01 1.660019e+04
1.100000e+01 1.651158e+04
1.200000e+01 1.642708e+04
1.300000e+01 1.634845e+04
1.400000e+01 1.627278e+04
1.500000e+01 1.620187e+04
1.600000e+01 1.613208e+04
1.700000e+01 1.606655e+04
1.800000e+01 1.600093e+04
1.900000e+01 1.593919e+04
2.000000e+01 1.587730e+04
2.100000e+01 1.581718e+04
2.200000e+01 1.575863e+04
2.300000e+01 1.570011e+04
2.400000e+01 1.564358e+04
2.500000e+01 1.558731e+04
2.600000e+01 1.553138e+04
2.700000e+01 1.547694e+04
2.800000e+01 1.542281e+04
2.900000e+01 1.536887e+04
3.000000e+01 1.531565e+04
3.100000e+01 1.526304e+04
3.200000e+01 1.521069e+04
3.300000e+01 1.515871e+04
3.400000e+01 1.510717e+04
3.500000e+01 1.505608e+04
3.600000e+01 1.500532e+04
3.700000e+01 1.495480e+04
3.800000e+01 1.490444e+04
3.900000e+01 1.485456e+04
4.000000e+01 1.480510e+04
4.100000e+01 1.475588e+04
4.200000e+01 1.470671e+04
4.300000e+01 1.465778e+04
4.400000e+01 1.460935e+04
4.500000e+01 1.456124e+04
4.600000e+01 1.451326e+04
4.700000e+01 1.446522e+04
4.800000e+01 1.441749e+04
4.900000e+01 1.437036e+04
5.000000e+01 1.432359e+04
5.100000e+01 1.427692e+04
5.200000e+01 1.423011e+04
5.300000e+01 1.418321e+04
5.400000e+01 1.413695e+04
5.500000e+01 1.409126e+04
5.600000e+01 1.404590e+04
5.700000e+01 1.400063e+04
5.800000e+01 1.395522e+04
5.900000e+01 1.390973e+04
6.000000e+01 1.386485e+04
6.100000e+01 1.382051e+04
6.200000e+01 1.377652e+04
6.300000e+01 1.373266e+04
6.400000e+01 1.368873e+04
6.500000e+01 1.364455e+04
6.600000e+01 1.360058e+04
6.700000e+01 1.355733e+04
6.800000e+01 1.351461e+04
6.900000e+01 1.347225e+04
7.000000e+01 1.343004e+04
7.100000e+01 1.338778e+04
7.200000e+01 1.334529e+04
7.300000e+01 1.330274e+04
7.400000e+01 1.326087e+04
7.500000e+01 1.321964e+04
7.600000e+01 1.317888e+04
7.700000e+01 1.313839e+04
7.800000e+01 1.309799e+04
7.900000e+01 1.305751e+04
8.000000e+01 1.301675e+04
8.100000e+01 1.297585e+04
8.200000e+01 1.293564e+04
8.300000e+01 1.289616e+04
8.400000e+01 1.285723e+04
8.500000e+01 1.281866e+04
8.600000e+01 1.278029e+04
8.700000e+01 1.274192e+04
8.800000e+01 1.270338e+04
8.900000e+01 1.266450e+04
9.000000e+01 1.262556e+04
9.100000e+01 1.258764e+04
9.200000e+01 1.255079e+04
9.300000e+01 1.251477e+04
9.400000e+01 1.247939e+04
9.500000e+01 1.244441e+04
9.600000e+01 1.240963e+04
9.700000e+01 1.237483e+04
9.800000e+01 1.233979e+04
9.900000e+01 1.230430e+04
1.000000e+02 1.226866e+04
1.010000e+02 1.223364e+04
1.020000e+02 1.219926e+04
1.030000e+02 1.216538e+04
1.040000e+02 1.213187e+04
1.050000e+02 1.209859e+04
1.060000e+02 1.206540e+04
1.070000e+02 1.203218e+04
1.080000e+02 1.199878e+04
1.090000e+02 1.196508e+04
1.100000e+02 1.193142e+04
1.110000e+02 1.189828e+04
1.120000e+02 1.186558e+04
1.130000e+02 1.183321e+04
1.140000e+02 1.180107e+04
1.150000e+02 1.176901e+04
1.160000e+02 1.173694e+04
1.170000e+02 1.170472e+04
1.180000e+02 1.167227e+04
1.190000e+02 1.164014e+04
1.200000e+02 1.160885e+04
1.210000e+02 1.157825e+04
1.220000e+02 1.154811e+04
1.230000e+02 1.151822e+04
1.240000e+02 1.148836e+04
1.250000e+02 1.145832e+04
1.260000e+02 1.142791e+04
1.270000e+02 1.139771e+04
1.280000e+02 1.136840e+04
1.290000e+02 1.133979e+04
1.300000e+02 1.131161e+04
1.310000e+02 1.128362e+04
1.320000e+02 1.125554e+04
1.330000e+02 1.122714e+04
1.340000e+02 1.119867e+04
1.350000e+02 1.117105e+04
1.360000e+02 1.114413e+04
1.370000e+02 1.111762e+04
1.380000e+02 1.109125e+04
1.390000e+02 1.106473e+04
1.400000e+02 1.103785e+04
1.410000e+02 1.101147e+04
1.420000e+02 1.098588e+04
1.430000e+02 1.096079e+04
1.440000e+02 1.093590e+04
1.450000e+02 1.091089e+04
1.460000e+02 1.088560e+04
1.470000e+02 1.086088e+04
1.480000e+02 1.083683e+04
1.490000e+02 1.081316e+04
1.500000e+02 1.078957e+04
1.510000e+02 1.076579e+04
1.520000e+02 1.074234e+04
1.530000e+02 1.071958e+04
1.540000e+02 1.069715e+04
1.550000e+02 1.067472e+04
1.560000e+02 1.065204e+04
1.570000e+02 1.063000e+04
1.580000e+02 1.060860e+04
1.590000e+02 1.058738e+04
1.600000e+02 1.056586e+04
1.610000e+02 1.054462e+04
1.620000e+02 1.052414e+04
1.630000e+02 1.050393e+04
1.640000e+02 1.048351e+04
1.650000e+02 1.046349e+04
1.660000e+02 1.044403e+04
1.670000e+02 1.042465e+04
1.680000e+02 1.040528e+04
1.690000e+02 1.038656e+04
1.700000e+02 1.036800e+04
1.710000e+02 1.034932e+04
1.720000e+02 1.033130e+04
1.730000e+02 1.031348e+04
1.740000e+02 1.029566e+04
1.750000e+02 1.027842e+04
1.760000e+02 1.026130e+04
1.770000e+02 1.024450e+04
1.780000e+02 1.022790e+04
1.790000e+02 1.021162e+04
1.800000e+02 1.019551e+04
1.810000e+02 1.017949e+04
1.820000e+02 1.016402e+04
1.830000e+02 1.014864e+04
1.840000e+02 1.013363e+04
1.850000e+02 1.011879e+04
1.860000e+02 1.010432e+04
1.870000e+02 1.009001e+04
1.880000e+02 1.007599e+04
1.890000e+02 1.006214e+04
1.900000e+02 1.004824e+04
1.910000e+02 1.003554e+04
1.920000e+02 1.002238e+04
1.930000e+02 1.000964e+04
1.940000e+02 9.997089e+03
1.950000e+02 9.984639e+03
1.960000e+02 9.972831e+03
1.970000e+02 9.961001e+03
1.980000e+02 9.949421e+03
1.990000e+02 1.620892e+03
