1.000000e+00 2.412726e+04
2.000000e+00 3.280009e+04
3.000000e+00 3.243489e+04
4.000000e+00 3.201411e+04
5.000000e+00 3.164172e+04
6.000000e+00 3.128189e+04
7.000000e+00 3.095660e+04
8.000000e+00 3.065584e+04
9.000000e+00 3.036663e+04
1.000000e+01 3.009674e+04
1.100000e+01 2.984548e+04
1.200000e+01 2.960256e+04
1.300000e+01 2.937125e+04
1.400000e+01 2.914566e+04
1.500000e+01 2.892906e+04
1.600000e+01 2.871517e+04
1.700000e+01 2.850936e+04
1.800000e+01 2.830410e+04
1.900000e+01 2.810578e+04
2.000000e+01 2.790791e+04
2.100000e+01 2.771372e+04
2.200000e+01 2.752279e+04
2.300000e+01 2.733235e+04
2.400000e+01 2.714549e+04
2.500000e+01 2.695996e+04
2.600000e+01 2.677552e+04
2.700000e+01 2.659349e+04
2.800000e+01 2.641288e+04
2.900000e+01 2.623325e+04
3.000000e+01 2.605470e+04
3.100000e+01 2.587770e+04
3.200000e+01 2.570221e+04
3.300000e+01 2.552758e+04
3.400000e+01 2.535341e+04
3.500000e+01 2.518097e+04
3.600000e+01 2.500994e+04
3.700000e+01 2.483948e+04
3.800000e+01 2.466907e+04
3.900000e+01 2.450048e+04
4.000000e+01 2.433349e+04
4.100000e+01 2.416716e+04
4.200000e+01 2.400053e+04
4.300000e+01 2.383468e+04
4.400000e+01 2.367110e+04
4.500000e+01 2.350884e+04
4.600000e+01 2.334690e+04
4.700000e+01 2.318433e+04
4.800000e+01 2.302275e+04
4.900000e+01 2.286356e+04
5.000000e+01 2.270581e+04
5.100000e+01 2.254854e+04
5.200000e+01 2.239077e+04
5.300000e+01 2.223264e+04
5.400000e+01 2.207697e+04
5.500000e+01 2.192339e+04
5.600000e+01 2.177098e+04
5.700000e+01 2.161885e+04
5.800000e+01 2.146609e+04
5.900000e+01 2.131293e+04
6.000000e+01 2.116230e+04
6.100000e+01 2.101389e+04
6.200000e+01 2.086687e+04
6.300000e+01 2.072042e+04
6.400000e+01 2.057370e+04
6.500000e+01 2.042595e+04
6.600000e+01 2.027903e+04
6.700000e+01 2.013496e+04
6.800000e+01 1.999303e+04
6.900000e+01 1.985247e+04
7.000000e+01 1.971248e+04
7.100000e+01 1.957227e+04
7.200000e+01 1.943104e+04
7.300000e+01 1.928952e+04
7.400000e+01 1.915082e+04
7.500000e+01 1.901476e+04
7.600000e+01 1.888059e+04
7.700000e+01 1.874758e+04
7.800000e+01 1.861498e+04
7.900000e+01 1.848205e+04
8.000000e+01 1.834804e+04
8.100000e+01 1.821345e+04
8.200000e+01 1.808163e+04
8.300000e+01 1.795275e+04
8.400000e+01 1.782610e+04
8.500000e+01 1.770096e+04
8.600000e+01 1.757663e+04
8.700000e+01 1.745240e+04
8.800000e+01 1.732756e+04
8.900000e+01 1.720142e+04
9.000000e+01 1.707501e+04
9.100000e+01 1.695229e+04
9.200000e+01 1.683341e+04
9.300000e+01 1.671757e+04
9.400000e+01 1.660397e+04
9.500000e+01 1.649182e+04
9.600000e+01 1.638032e+04
9.700000e+01 1.626867e+04
9.800000e+01 1.615608e+04
9.900000e+01 1.604178e+04
1.000000e+02 1.592715e+04
1.010000e+02 1.581557e+04
1.020000e+02 1.570707e+04
1.030000e+02 1.560101e+04
1.040000e+02 1.549675e+04
1.050000e+02 1.539367e+04
1.060000e+02 1.529111e+04
1.070000e+02 1.518844e+04
1.080000e+02 1.508503e+04
1.090000e+02 1.498025e+04
1.100000e+02 1.487495e+04
1.110000e+02 1.477213e+04
1.120000e+02 1.467199e+04
1.130000e+02 1.457391e+04
1.140000e+02 1.447731e+04
1.150000e+02 1.438158e+04
1.160000e+02 1.428611e+04
1.170000e+02 1.419030e+04
1.180000e+02 1.409354e+04
1.190000e+02 1.399559e+04
1.200000e+02 1.389949e+04
1.210000e+02 1.380722e+04
1.220000e+02 1.371802e+04
1.230000e+02 1.363104e+04
1.240000e+02 1.354544e+04
1.250000e+02 1.346035e+04
1.260000e+02 1.337494e+04
1.270000e+02 1.328834e+04
1.280000e+02 1.320033e+04
1.290000e+02 1.311463e+04
1.300000e+02 1.303275e+04
1.310000e+02 1.295379e+04
1.320000e+02 1.287679e+04
1.330000e+02 1.280084e+04
1.340000e+02 1.272498e+04
1.350000e+02 1.264829e+04
1.360000e+02 1.256996e+04
1.370000e+02 1.249267e+04
1.380000e+02 1.241932e+04
1.390000e+02 1.234910e+04
1.400000e+02 1.228099e+04
1.410000e+02 1.221394e+04
1.420000e+02 1.214694e+04
1.430000e+02 1.207894e+04
1.440000e+02 1.200940e+04
1.450000e+02 1.194216e+04
1.460000e+02 1.187879e+04
1.470000e+02 1.181818e+04
1.480000e+02 1.175922e+04
1.490000e+02 1.170075e+04
1.500000e+02 1.164167e+04
1.510000e+02 1.158095e+04
1.520000e+02 1.152133e+04
1.530000e+02 1.146567e+04
1.540000e+02 1.141292e+04
1.550000e+02 1.136188e+04
1.560000e+02 1.131133e+04
1.570000e+02 1.126007e+04
1.580000e+02 1.120730e+04
1.590000e+02 1.115683e+04
1.600000e+02 1.111009e+04
1.610000e+02 1.106576e+04
1.620000e+02 1.102255e+04
1.630000e+02 1.097915e+04
1.640000e+02 1.093428e+04
1.650000e+02 1.089005e+04
1.660000e+02 1.084973e+04
1.670000e+02 1.081212e+04
1.680000e+02 1.077581e+04
1.690000e+02 1.073937e+04
1.700000e+02 1.070147e+04
1.710000e+02 1.066466e+04
1.720000e+02 1.063160e+04
1.730000e+02 1.060091e+04
1.740000e+02 1.057111e+04
1.750000e+02 1.054070e+04
1.760000e+02 1.050924e+04
1.770000e+02 1.048097e+04
1.780000e+02 1.045563e+04
1.790000e+02 1.043161e+04
1.800000e+02 1.040734e+04
1.810000e+02 1.038175e+04
1.820000e+02 1.035879e+04
1.830000e+02 1.033890e+04
1.840000e+02 1.032039e+04
1.850000e+02 1.030157e+04
1.860000e+02 1.028179e+04
1.870000e+02 1.026502e+04
1.880000e+02 1.025073e+04
1.890000e+02 1.023722e+04
1.900000e+02 1.022284e+04
1.910000e+02 1.020943e+04
1.920000e+02 1.019904e+04
1.930000e+02 1.019002e+04
1.940000e+02 1.018061e+04
1.950000e+02 1.017128e+04
1.960000e+02 1.016497e+04
1.970000e+02 1.016011e+04
1.980000e+02 1.015484e+04
1.990000e+02 1.014989e+04
2.000000e+02 1.014784e+04
2.010000e+02 1.014689e+04
2.020000e+02 1.014522e+04
2.030000e+02 1.014520e+04
2.040000e+02 1.014741e+04
2.050000e+02 1.014978e+04
2.060000e+02 1.015209e+04
2.070000e+02 1.015695e+04
2.080000e+02 1.016265e+04
2.090000e+02 1.016801e+04
2.100000e+02 1.017562e+04
2.110000e+02 1.018425e+04
2.120000e+02 1.019262e+04
2.130000e+02 1.020304e+04
2.140000e+02 1.021431e+04
2.150000e+02 1.022580e+04
2.160000e+02 1.023920e+04
2.170000e+02 1.025266e+04
2.180000e+02 1.026736e+04
2.190000e+02 1.028336e+04
2.200000e+02 1.029935e+04
2.210000e+02 1.031720e+04
2.220000e+02 1.033509e+04
2.230000e+02 1.035471e+04
2.240000e+02 1.037431e+04
2.250000e+02 1.039542e+04
2.260000e+02 1.041704e+04
2.270000e+02 1.043989e+04
2.280000e+02 1.046306e+04
2.290000e+02 1.048768e+04
2.300000e+02 1.051260e+04
2.310000e+02 1.053863e+04
2.320000e+02 1.056538e+04
2.330000e+02 1.059273e+04
2.340000e+02 1.062128e+04
2.350000e+02 1.065051e+04
2.360000e+02 1.068043e+04
2.370000e+02 1.071108e+04
2.380000e+02 1.074250e+04
2.390000e+02 1.077478e+04
2.400000e+02 1.080812e+04
2.410000e+02 1.084121e+04
2.420000e+02 1.087591e+04
2.430000e+02 1.091110e+04
2.440000e+02 1.094726e+04
2.450000e+02 1.098449e+04
2.460000e+02 1.102142e+04
2.470000e+02 1.105970e+04
2.480000e+02 1.109866e+04
2.490000e+02 1.628080e+03
