1.000000e+00 7.139915e+03
2.000000e+00 7.791316e+03
3.000000e+00 7.486467e+03
4.000000e+00 7.147549e+03
5.000000e+00 6.846454e+03
6.000000e+00 6.537351e+03
7.000000e+00 6.239197e+03
8.000000e+00 5.948532e+03
9.000000e+00 5.661967e+03
1.000000e+01 5.381352e+03
1.100000e+01 5.106758e+03
1.200000e+01 4.835531e+03
1.300000e+01 4.567904e+03
1.400000e+01 4.303308e+03
1.500000e+01 4.041400e+03
1.600000e+01 3.781839e+03
1.700000e+01 3.524508e+03
1.800000e+01 3.269539e+03
1.900000e+01 3.016279e+03
2.000000e+01 2.766758e+03
2.100000e+01 2.518495e+03
2.200000e+01 2.276015e+03
2.300000e+01 2.040453e+03
2.400000e+01 1.804714e+03
2.500000e+01 1.591126e+03
2.600000e+01 1.391110e+03
2.700000e+01 1.187569e+03
2.800000e+01 1.024854e+03
2.900000e+01 8.917477e+02
3.000000e+01 7.525210e+02
3.100000e+01 6.345247e+02
3.200000e+01 5.609211e+02
3.300000e+01 4.989776e+02
3.400000e+01 4.237216e+02
3.500000e+01 3.724588e+02
3.600000e+01 3.434547e+02
3.700000e+01 3.188973e+02
3.800000e+01 2.848942e+02
3.900000e+01 2.601438e+02
4.000000e+01 2.461490e+02
4.100000e+01 2.359495e+02
4.200000e+01 2.226460e+02
4.300000e+01 2.083194e+02
4.400000e+01 1.995193e+02
4.500000e+01 1.939468e+02
4.600000e+01 1.890985e+02
4.700000e+01 1.825544e+02
4.800000e+01 1.760208e+02
4.900000e+01 1.717795e+02
5.000000e+01 1.689496e+02
5.100000e+01 1.666099e+02
5.200000e+01 1.638392e+02
5.300000e+01 1.603877e+02
5.400000e+01 1.578320e+02
5.500000e+01 1.561007e+02
5.600000e+01 1.548395e+02
5.700000e+01 1.536943e+02
5.800000e+01 1.523111e+02
5.900000e+01 1.506348e+02
6.000000e+01 1.493608e+02
6.100000e+01 1.484737e+02
6.200000e+01 1.478321e+02
6.300000e+01 1.472944e+02
6.400000e+01 1.467191e+02
6.500000e+01 1.459728e+02
6.600000e+01 1.452185e+02
6.700000e+01 1.446777e+02
6.800000e+01 1.443012e+02
6.900000e+01 1.440307e+02
7.000000e+01 1.438079e+02
7.100000e+01 1.435744e+02
7.200000e+01 1.432721e+02
7.300000e+01 1.429171e+02
7.400000e+01 1.426552e+02
7.500000e+01 1.424859e+02
7.600000e+01 1.423838e+02
7.700000e+01 1.423234e+02
7.800000e+01 1.422792e+02
7.900000e+01 1.422256e+02
8.000000e+01 1.421372e+02
8.100000e+01 1.420196e+02
8.200000e+01 1.419520e+02
8.300000e+01 1.419410e+02
8.400000e+01 1.419732e+02
8.500000e+01 1.420352e+02
8.600000e+01 1.421137e+02
8.700000e+01 1.421952e+02
8.800000e+01 1.422664e+02
8.900000e+01 1.423141e+02
9.000000e+01 1.423507e+02
9.100000e+01 1.424324e+02
9.200000e+01 1.425623e+02
9.300000e+01 1.427299e+02
9.400000e+01 1.429250e+02
9.500000e+01 1.431371e+02
9.600000e+01 1.433558e+02
9.700000e+01 1.435708e+02
9.800000e+01 1.437716e+02
9.900000e+01 1.439486e+02
1.000000e+02 1.441321e+02
1.010000e+02 1.443884e+02
1.020000e+02 1.447153e+02
1.030000e+02 1.450974e+02
1.040000e+02 1.455191e+02
1.050000e+02 1.459647e+02
1.060000e+02 1.464188e+02
1.070000e+02 1.468658e+02
1.080000e+02 1.472901e+02
1.090000e+02 1.476766e+02
1.100000e+02 1.480735e+02
1.110000e+02 1.486164e+02
1.120000e+02 1.493086e+02
1.130000e+02 1.501152e+02
1.140000e+02 1.510016e+02
1.150000e+02 1.519331e+02
1.160000e+02 1.528749e+02
1.170000e+02 1.537923e+02
1.180000e+02 1.546506e+02
1.190000e+02 1.554423e+02
1.200000e+02 1.564123e+02
1.210000e+02 1.577108e+02
1.220000e+02 1.592693e+02
1.230000e+02 1.610110e+02
1.240000e+02 1.628591e+02
1.250000e+02 1.647370e+02
1.260000e+02 1.665680e+02
1.270000e+02 1.682753e+02
1.280000e+02 1.698695e+02
1.290000e+02 1.719232e+02
1.300000e+02 1.746410e+02
1.310000e+02 1.778557e+02
1.320000e+02 1.813958e+02
1.330000e+02 1.850895e+02
1.340000e+02 1.887653e+02
1.350000e+02 1.922515e+02
1.360000e+02 1.954184e+02
1.370000e+02 1.991474e+02
1.380000e+02 2.043113e+02
1.390000e+02 2.105856e+02
1.400000e+02 2.175788e+02
1.410000e+02 2.248994e+02
1.420000e+02 2.321559e+02
1.430000e+02 2.389567e+02
1.440000e+02 2.452105e+02
1.450000e+02 2.535088e+02
1.460000e+02 2.647699e+02
1.470000e+02 2.780993e+02
1.480000e+02 2.925860e+02
1.490000e+02 3.073189e+02
1.500000e+02 3.213868e+02
1.510000e+02 3.340417e+02
1.520000e+02 3.494841e+02
1.530000e+02 3.715631e+02
1.540000e+02 3.983840e+02
1.550000e+02 4.278255e+02
1.560000e+02 4.577665e+02
1.570000e+02 4.860859e+02
1.580000e+02 5.118193e+02
1.590000e+02 5.464964e+02
1.600000e+02 5.937259e+02
1.610000e+02 6.490428e+02
1.620000e+02 7.079412e+02
1.630000e+02 7.659153e+02
1.640000e+02 8.186495e+02
1.650000e+02 8.770058e+02
1.660000e+02 9.559423e+02
1.670000e+02 1.049121e+03
1.680000e+02 1.149167e+03
1.690000e+02 1.248705e+03
1.700000e+02 1.340800e+03
1.710000e+02 1.438867e+03
1.720000e+02 1.556932e+03
1.730000e+02 1.687784e+03
1.740000e+02 1.823668e+03
1.750000e+02 1.956830e+03
1.760000e+02 2.083551e+03
1.770000e+02 2.219161e+03
1.780000e+02 2.363825e+03
1.790000e+02 2.512960e+03
1.800000e+02 2.661982e+03
1.810000e+02 2.807138e+03
1.820000e+02 2.953172e+03
1.830000e+02 3.101622e+03
1.840000e+02 3.251273e+03
1.850000e+02 3.400909e+03
1.860000e+02 3.549521e+03
1.870000e+02 3.697424e+03
1.880000e+02 3.844980e+03
1.890000e+02 3.992452e+03
1.900000e+02 4.140098e+03
1.910000e+02 4.287331e+03
1.920000e+02 4.433632e+03
1.930000e+02 4.579465e+03
1.940000e+02 4.725314e+03
1.950000e+02 4.871167e+03
1.960000e+02 5.016400e+03
1.970000e+02 5.161332e+03
1.980000e+02 5.306342e+03
1.990000e+02 5.451423e+03
2.000000e+02 5.596193e+03
2.010000e+02 5.740829e+03
2.020000e+02 5.885527e+03
2.030000e+02 6.030314e+03
2.040000e+02 6.175137e+03
2.050000e+02 6.319985e+03
2.060000e+02 6.464966e+03
2.070000e+02 6.610276e+03
2.080000e+02 6.755708e+03
2.090000e+02 6.901195e+03
2.100000e+02 7.047299e+03
2.110000e+02 7.193634e+03
2.120000e+02 7.339881e+03
2.130000e+02 7.486838e+03
2.140000e+02 7.634187e+03
2.150000e+02 7.781806e+03
2.160000e+02 7.930182e+03
2.170000e+02 8.078489e+03
2.180000e+02 8.227422e+03
2.190000e+02 8.377154e+03
2.200000e+02 8.527048e+03
2.210000e+02 8.677836e+03
2.220000e+02 8.828890e+03
2.230000e+02 8.980898e+03
2.240000e+02 9.132979e+03
2.250000e+02 9.286184e+03
2.260000e+02 9.439456e+03
2.270000e+02 9.593842e+03
2.280000e+02 9.748678e+03
2.290000e+02 9.904555e+03
2.300000e+02 1.006070e+04
2.310000e+02 1.021777e+04
2.320000e+02 1.037542e+04
2.330000e+02 1.053391e+04
2.340000e+02 1.069316e+04
2.350000e+02 1.085342e+04
2.360000e+02 1.101405e+04
2.370000e+02 1.117552e+04
2.380000e+02 1.133780e+04
2.390000e+02 1.150117e+04
2.400000e+02 1.166684e+04
2.410000e+02 1.182801e+04
2.420000e+02 1.199447e+04
2.430000e+02 1.216137e+04
2.440000e+02 1.232952e+04
2.450000e+02 1.250068e+04
2.460000e+02 1.266737e+04
2.470000e+02 1.283854e+04
2.480000e+02 1.301054e+04
2.490000e+02 1.640506e+03
