1.000000e+00 5.920057e+03
2.000000e+00 9.845717e+03
3.000000e+00 9.742365e+03
4.000000e+00 9.620293e+03
5.000000e+00 9.508656e+03
6.000000e+00 9.399114e+03
7.000000e+00 9.298409e+03
8.000000e+00 9.203845e+03
9.000000e+00 9.110912e+03
1.000000e+01 9.023780e+03
1.100000e+01 8.942827e+03
1.200000e+01 8.864004e+03
1.300000e+01 8.789023e+03
1.400000e+01 8.715500e+03
1.500000e+01 8.645216e+03
1.600000e+01 8.575342e+03
1.700000e+01 8.508438e+03
1.800000e+01 8.441291e+03
1.900000e+01 8.376739e+03
2.000000e+01 8.311998e+03
2.100000e+01 8.248595e+03
2.200000e+01 8.186288e+03
2.300000e+01 8.123882e+03
2.400000e+01 8.062944e+03
2.500000e+01 8.002257e+03
2.600000e+01 7.941799e+03
2.700000e+01 7.882348e+03
2.800000e+01 7.823221e+03
2.900000e+01 7.764320e+03
3.000000e+01 7.705967e+03
3.100000e+01 7.648128e+03
3.200000e+01 7.590593e+03
3.300000e+01 7.533347e+03
3.400000e+01 7.476408e+03
3.500000e+01 7.419969e+03
3.600000e+01 7.363918e+03
3.700000e+01 7.308064e+03
3.800000e+01 7.252295e+03
3.900000e+01 7.197094e+03
4.000000e+01 7.142390e+03
4.100000e+01 7.087904e+03
4.200000e+01 7.033362e+03
4.300000e+01 6.979094e+03
4.400000e+01 6.925544e+03
4.500000e+01 6.872417e+03
4.600000e+01 6.819401e+03
4.700000e+01 6.766200e+03
4.800000e+01 6.713344e+03
4.900000e+01 6.661281e+03
5.000000e+01 6.609702e+03
5.100000e+01 6.558288e+03
5.200000e+01 6.506721e+03
5.300000e+01 6.455051e+03
5.400000e+01 6.404230e+03
5.500000e+01 6.354121e+03
5.600000e+01 6.304412e+03
5.700000e+01 6.254789e+03
5.800000e+01 6.204938e+03
5.900000e+01 6.154959e+03
6.000000e+01 6.105897e+03
6.100000e+01 6.057642e+03
6.200000e+01 6.009891e+03
6.300000e+01 5.962341e+03
6.400000e+01 5.914686e+03
6.500000e+01 5.866651e+03
6.600000e+01 5.818929e+03
6.700000e+01 5.772270e+03
6.800000e+01 5.726415e+03
6.900000e+01 5.681067e+03
7.000000e+01 5.635933e+03
7.100000e+01 5.590718e+03
7.200000e+01 5.545128e+03
7.300000e+01 5.499436e+03
7.400000e+01 5.454837e+03
7.500000e+01 5.411254e+03
7.600000e+01 5.368401e+03
7.700000e+01 5.325990e+03
7.800000e+01 5.283733e+03
7.900000e+01 5.241345e+03
8.000000e+01 5.198536e+03
8.100000e+01 5.155514e+03
8.200000e+01 5.113617e+03
8.300000e+01 5.072901e+03
8.400000e+01 5.033083e+03
8.500000e+01 4.993876e+03
8.600000e+01 4.954997e+03
8.700000e+01 4.916159e+03
8.800000e+01 4.877078e+03
8.900000e+01 4.837471e+03
9.000000e+01 4.797751e+03
9.100000e+01 4.759490e+03
9.200000e+01 4.722749e+03
9.300000e+01 4.687209e+03
9.400000e+01 4.652554e+03
9.500000e+01 4.618466e+03
9.600000e+01 4.584628e+03
9.700000e+01 4.550721e+03
9.800000e+01 4.516429e+03
9.900000e+01 4.481449e+03
1.000000e+02 4.446367e+03
1.010000e+02 4.412605e+03
1.020000e+02 4.380166e+03
1.030000e+02 4.348778e+03
1.040000e+02 4.318163e+03
1.050000e+02 4.288047e+03
1.060000e+02 4.258155e+03
1.070000e+02 4.228210e+03
1.080000e+02 4.197939e+03
1.090000e+02 4.167071e+03
1.100000e+02 4.136013e+03
1.110000e+02 4.106138e+03
1.120000e+02 4.077534e+03
1.130000e+02 4.049917e+03
1.140000e+02 4.023003e+03
1.150000e+02 3.996506e+03
1.160000e+02 3.970143e+03
1.170000e+02 3.943629e+03
1.180000e+02 3.916679e+03
1.190000e+02 3.889170e+03
1.200000e+02 3.862470e+03
1.210000e+02 3.837467e+03
1.220000e+02 3.813828e+03
1.230000e+02 3.791174e+03
1.240000e+02 3.769127e+03
1.250000e+02 3.747310e+03
1.260000e+02 3.725343e+03
1.270000e+02 3.702849e+03
1.280000e+02 3.679724e+03
1.290000e+02 3.657649e+03
1.300000e+02 3.637299e+03
1.310000e+02 3.618263e+03
1.320000e+02 3.600118e+03
1.330000e+02 3.582441e+03
1.340000e+02 3.564808e+03
1.350000e+02 3.546797e+03
1.360000e+02 3.528048e+03
1.370000e+02 3.509759e+03
1.380000e+02 3.493248e+03
1.390000e+02 3.478147e+03
1.400000e+02 3.463992e+03
1.410000e+02 3.450322e+03
1.420000e+02 3.436674e+03
1.430000e+02 3.422584e+03
1.440000e+02 3.407806e+03
1.450000e+02 3.394037e+03
1.460000e+02 3.381980e+03
1.470000e+02 3.371150e+03
1.480000e+02 3.361049e+03
1.490000e+02 3.351180e+03
1.500000e+02 3.341047e+03
1.510000e+02 3.330205e+03
1.520000e+02 3.319834e+03
1.530000e+02 3.311184e+03
1.540000e+02 3.303795e+03
1.550000e+02 3.297142e+03
1.560000e+02 3.290701e+03
1.570000e+02 3.283945e+03
1.580000e+02 3.276529e+03
1.590000e+02 3.270073e+03
1.600000e+02 3.265191e+03
1.610000e+02 3.261340e+03
1.620000e+02 3.257971e+03
1.630000e+02 3.254537e+03
1.640000e+02 3.250507e+03
1.650000e+02 3.246722e+03
1.660000e+02 3.244507e+03
1.670000e+02 3.243386e+03
1.680000e+02 3.242794e+03
1.690000e+02 3.242166e+03
1.700000e+02 3.240969e+03
1.710000e+02 3.240191e+03
1.720000e+02 3.240870e+03
1.730000e+02 3.242470e+03
1.740000e+02 3.244414e+03
1.750000e+02 3.246123e+03
1.760000e+02 3.247414e+03
1.770000e+02 3.249896e+03
1.780000e+02 3.253482e+03
1.790000e+02 3.257584e+03
1.800000e+02 3.261618e+03
1.810000e+02 3.265181e+03
1.820000e+02 3.269666e+03
1.830000e+02 3.275234e+03
1.840000e+02 3.281289e+03
1.850000e+02 3.287239e+03
1.860000e+02 3.292854e+03
1.870000e+02 3.299523e+03
1.880000e+02 3.307054e+03
1.890000e+02 3.314849e+03
1.900000e+02 3.322321e+03
1.910000e+02 3.330107e+03
1.920000e+02 3.338933e+03
1.930000e+02 3.348215e+03
1.940000e+02 3.357348e+03
1.950000e+02 3.366476e+03
1.960000e+02 3.376599e+03
1.970000e+02 3.387202e+03
1.980000e+02 3.397675e+03
1.990000e+02 3.408228e+03
2.000000e+02 3.419685e+03
2.010000e+02 3.431483e+03
2.020000e+02 3.443050e+03
2.030000e+02 3.455110e+03
2.040000e+02 3.467841e+03
2.050000e+02 3.480619e+03
2.060000e+02 3.493368e+03
2.070000e+02 3.506882e+03
2.080000e+02 3.520629e+03
2.090000e+02 3.534238e+03
2.100000e+02 3.548521e+03
2.110000e+02 3.563088e+03
2.120000e+02 3.577543e+03
2.130000e+02 3.592621e+03
2.140000e+02 3.607905e+03
2.150000e+02 3.623185e+03
2.160000e+02 3.639046e+03
2.170000e+02 3.654920e+03
2.180000e+02 3.671097e+03
2.190000e+02 3.687626e+03
2.200000e+02 3.704147e+03
2.210000e+02 3.721154e+03
2.220000e+02 3.738155e+03
2.230000e+02 3.755570e+03
2.240000e+02 3.773054e+03
2.250000e+02 3.790870e+03
2.260000e+02 3.808792e+03
2.270000e+02 3.827026e+03
2.280000e+02 3.845350e+03
2.290000e+02 3.863999e+03
2.300000e+02 3.882726e+03
2.310000e+02 3.901730e+03
2.320000e+02 3.920901e+03
2.330000e+02 3.940222e+03
2.340000e+02 3.959780e+03
2.350000e+02 3.979517e+03
2.360000e+02 3.999403e+03
2.370000e+02 4.019469e+03
2.380000e+02 4.039718e+03
2.390000e+02 4.060148e+03
2.400000e+02 4.080931e+03
2.410000e+02 4.101224e+03
2.420000e+02 4.122221e+03
2.430000e+02 4.143358e+03
2.440000e+02 4.164645e+03
2.450000e+02 4.186385e+03
2.460000e+02 4.207622e+03
2.470000e+02 4.229429e+03
2.480000e+02 4.261394e+03
2.490000e+02 1.624142e+03
