1.000000e+00 7.827845e+03
2.000000e+00 1.376534e+04
3.000000e+00 1.364634e+04
4.000000e+00 1.350449e+04
5.000000e+00 1.337445e+04
6.000000e+00 1.324876e+04
7.000000e+00 1.313508e+04
8.000000e+00 1.302977e+04
9.000000e+00 1.292675e+04
1.000000e+01 1.283164e+04
1.100000e+01 1.274484e+04
1.200000e+01 1.266088e+04
1.300000e+01 1.258218e+04
1.400000e+01 1.250527e+04
1.500000e+01 1.243283e+04
1.600000e+01 1.236075e+04
1.700000e+01 1.229276e+04
1.800000e+01 1.222423e+04
1.900000e+01 1.215928e+04
2.000000e+01 1.209386e+04
2.100000e+01 1.203024e+04
2.200000e+01 1.196803e+04
2.300000e+01 1.190550e+04
2.400000e+01 1.184502e+04
2.500000e+01 1.178468e+04
2.600000e+01 1.172450e+04
2.700000e+01 1.166576e+04
2.800000e+01 1.160724e+04
2.900000e+01 1.154885e+04
3.000000e+01 1.149126e+04
3.100000e+01 1.143424e+04
3.200000e+01 1.137737e+04
3.300000e+01 1.132083e+04
3.400000e+01 1.126479e+04
3.500000e+01 1.120915e+04
3.600000e+01 1.115381e+04
3.700000e+01 1.109870e+04
3.800000e+01 1.104381e+04
3.900000e+01 1.098938e+04
4.000000e+01 1.093536e+04
4.100000e+01 1.088155e+04
4.200000e+01 1.082776e+04
4.300000e+01 1.077424e+04
4.400000e+01 1.072131e+04
4.500000e+01 1.066873e+04
4.600000e+01 1.061627e+04
4.700000e+01 1.056369e+04
4.800000e+01 1.051141e+04
4.900000e+01 1.045978e+04
5.000000e+01 1.040856e+04
5.100000e+01 1.035748e+04
5.200000e+01 1.030629e+04
5.300000e+01 1.025502e+04
5.400000e+01 1.020445e+04
5.500000e+01 1.015445e+04
5.600000e+01 1.010479e+04
5.700000e+01 1.005519e+04
5.800000e+01 1.000543e+04
5.900000e+01 9.955556e+03
6.000000e+01 9.906411e+03
6.100000e+01 9.857907e+03
6.200000e+01 9.809802e+03
6.300000e+01 9.761859e+03
6.400000e+01 9.713837e+03
6.500000e+01 9.665519e+03
6.600000e+01 9.617437e+03
6.700000e+01 9.570170e+03
6.800000e+01 9.523519e+03
6.900000e+01 9.477259e+03
7.000000e+01 9.431165e+03
7.100000e+01 9.385012e+03
7.200000e+01 9.338574e+03
7.300000e+01 9.292051e+03
7.400000e+01 9.246334e+03
7.500000e+01 9.201368e+03
7.600000e+01 9.156941e+03
7.700000e+01 9.112842e+03
7.800000e+01 9.068859e+03
7.900000e+01 9.024781e+03
8.000000e+01 8.980396e+03
8.100000e+01 8.935846e+03
8.200000e+01 8.892094e+03
8.300000e+01 8.849182e+03
8.400000e+01 8.806906e+03
8.500000e+01 8.765063e+03
8.600000e+01 8.723451e+03
8.700000e+01 8.681865e+03
8.800000e+01 8.640103e+03
8.900000e+01 8.597963e+03
9.000000e+01 8.555756e+03
9.100000e+01 8.514649e+03
9.200000e+01 8.474683e+03
9.300000e+01 8.435621e+03
9.400000e+01 8.397226e+03
9.500000e+01 8.359261e+03
9.600000e+01 8.321488e+03
9.700000e+01 8.283670e+03
9.800000e+01 8.245569e+03
9.900000e+01 8.206959e+03
1.000000e+02 8.168236e+03
1.010000e+02 8.130383e+03
1.020000e+02 8.093411e+03
1.030000e+02 8.057140e+03
1.040000e+02 8.021387e+03
1.050000e+02 7.985970e+03
1.060000e+02 7.950707e+03
1.070000e+02 7.915417e+03
1.080000e+02 7.879918e+03
1.090000e+02 7.844031e+03
1.100000e+02 7.807983e+03
1.110000e+02 7.772588e+03
1.120000e+02 7.737905e+03
1.130000e+02 7.703772e+03
1.140000e+02 7.670030e+03
1.150000e+02 7.636517e+03
1.160000e+02 7.603074e+03
1.170000e+02 7.569540e+03
1.180000e+02 7.535755e+03
1.190000e+02 7.501655e+03
1.200000e+02 7.468087e+03
1.210000e+02 7.435596e+03
1.220000e+02 7.403970e+03
1.230000e+02 7.372967e+03
1.240000e+02 7.342350e+03
1.250000e+02 7.311878e+03
1.260000e+02 7.281312e+03
1.270000e+02 7.250412e+03
1.280000e+02 7.219111e+03
1.290000e+02 7.188472e+03
1.300000e+02 7.158919e+03
1.310000e+02 7.130193e+03
1.320000e+02 7.102028e+03
1.330000e+02 7.074158e+03
1.340000e+02 7.046315e+03
1.350000e+02 7.018233e+03
1.360000e+02 6.989687e+03
1.370000e+02 6.961433e+03
1.380000e+02 6.934302e+03
1.390000e+02 6.908062e+03
1.400000e+02 6.882421e+03
1.410000e+02 6.857084e+03
1.420000e+02 6.831761e+03
1.430000e+02 6.806157e+03
1.440000e+02 6.780118e+03
1.450000e+02 6.754730e+03
1.460000e+02 6.730443e+03
1.470000e+02 6.706943e+03
1.480000e+02 6.683910e+03
1.490000e+02 6.661026e+03
1.500000e+02 6.637969e+03
1.510000e+02 6.614456e+03
1.520000e+02 6.591262e+03
1.530000e+02 6.569204e+03
1.540000e+02 6.547979e+03
1.550000e+02 6.527239e+03
1.560000e+02 6.506636e+03
1.570000e+02 6.485824e+03
1.580000e+02 6.464575e+03
1.590000e+02 6.443992e+03
1.600000e+02 6.424487e+03
1.610000e+02 6.405687e+03
1.620000e+02 6.387216e+03
1.630000e+02 6.368698e+03
1.640000e+02 6.349768e+03
1.650000e+02 6.331029e+03
1.660000e+02 6.313415e+03
1.670000e+02 6.296584e+03
1.680000e+02 6.280130e+03
1.690000e+02 6.263647e+03
1.700000e+02 6.246754e+03
1.710000e+02 6.230190e+03
1.720000e+02 6.214724e+03
1.730000e+02 6.199950e+03
1.740000e+02 6.185431e+03
1.750000e+02 6.170733e+03
1.760000e+02 6.155726e+03
1.770000e+02 6.141669e+03
1.780000e+02 6.128486e+03
1.790000e+02 6.115712e+03
1.800000e+02 6.102879e+03
1.810000e+02 6.089674e+03
1.820000e+02 6.077250e+03
1.830000e+02 6.065731e+03
1.840000e+02 6.054618e+03
1.850000e+02 6.043414e+03
1.860000e+02 6.031936e+03
1.870000e+02 6.021393e+03
1.880000e+02 6.011612e+03
1.890000e+02 6.002061e+03
1.900000e+02 5.992222e+03
1.910000e+02 5.982692e+03
1.920000e+02 5.974129e+03
1.930000e+02 5.965989e+03
1.940000e+02 5.957708e+03
1.950000e+02 5.949439e+03
1.960000e+02 5.942148e+03
1.970000e+02 5.935325e+03
1.980000e+02 5.928371e+03
1.990000e+02 5.921517e+03
2.000000e+02 5.915591e+03
2.010000e+02 5.910016e+03
2.020000e+02 5.904202e+03
2.030000e+02 5.898928e+03
2.040000e+02 5.894376e+03
2.050000e+02 5.889872e+03
2.060000e+02 5.885350e+03
2.070000e+02 5.881690e+03
2.080000e+02 5.878288e+03
2.090000e+02 5.874737e+03
2.100000e+02 5.871978e+03
2.110000e+02 5.869550e+03
2.120000e+02 5.866995e+03
2.130000e+02 5.865199e+03
2.140000e+02 5.863652e+03
2.150000e+02 5.862108e+03
2.160000e+02 5.861296e+03
2.170000e+02 5.860499e+03
2.180000e+02 5.860100e+03
2.190000e+02 5.860156e+03
2.200000e+02 5.860208e+03
2.210000e+02 5.860909e+03
2.220000e+02 5.861604e+03
2.230000e+02 5.862865e+03
2.240000e+02 5.864223e+03
2.250000e+02 5.866049e+03
2.260000e+02 5.868024e+03
2.270000e+02 5.870447e+03
2.280000e+02 5.873002e+03
2.290000e+02 5.876032e+03
2.300000e+02 5.879180e+03
2.310000e+02 5.882738e+03
2.320000e+02 5.886553e+03
2.330000e+02 5.890596e+03
2.340000e+02 5.895002e+03
2.350000e+02 5.899688e+03
2.360000e+02 5.904609e+03
2.370000e+02 5.909813e+03
2.380000e+02 5.915310e+03
2.390000e+02 5.921091e+03
2.400000e+02 5.927201e+03
2.410000e+02 5.933383e+03
2.420000e+02 5.939997e+03
2.430000e+02 5.946878e+03
2.440000e+02 5.954004e+03
2.450000e+02 5.961507e+03
2.460000e+02 5.969040e+03
2.470000e+02 5.976975e+03
2.480000e+02 5.985359e+03
2.490000e+02 1.624143e+03
