1.000000e+00 3.024457e+04
2.000000e+00 3.988911e+04
3.000000e+00 3.963241e+04
4.000000e+00 3.932431e+04
5.000000e+00 3.904865e+04
6.000000e+00 3.879565e+04
7.000000e+00 3.858111e+04
8.000000e+00 3.839390e+04
9.000000e+00 3.821834e+04
1.000000e+01 3.806475e+04
1.100000e+01 3.793256e+04
1.200000e+01 3.780924e+04
1.300000e+01 3.769884e+04
1.400000e+01 3.759426e+04
1.500000e+01 3.749984e+04
1.600000e+01 3.740748e+04
1.700000e+01 3.732446e+04
1.800000e+01 3.724066e+04
1.900000e+01 3.716502e+04
2.000000e+01 3.708851e+04
2.100000e+01 3.701624e+04
2.200000e+01 3.694709e+04
2.300000e+01 3.687707e+04
2.400000e+01 3.681166e+04
2.500000e+01 3.674636e+04
2.600000e+01 3.668129e+04
2.700000e+01 3.661940e+04
2.800000e+01 3.655768e+04
2.900000e+01 3.649602e+04
3.000000e+01 3.643611e+04
3.100000e+01 3.637714e+04
3.200000e+01 3.631799e+04
3.300000e+01 3.625951e+04
3.400000e+01 3.620234e+04
3.500000e+01 3.614535e+04
3.600000e+01 3.608844e+04
3.700000e+01 3.603196e+04
3.800000e+01 3.597616e+04
3.900000e+01 3.592066e+04
4.000000e+01 3.586538e+04
4.100000e+01 3.581035e+04
4.200000e+01 3.575564e+04
4.300000e+01 3.570128e+04
4.400000e+01 3.564723e+04
4.500000e+01 3.559342e+04
4.600000e+01 3.553975e+04
4.700000e+01 3.548615e+04
4.800000e+01 3.543283e+04
4.900000e+01 3.537993e+04
5.000000e+01 3.532731e+04
5.100000e+01 3.527482e+04
5.200000e+01 3.522231e+04
5.300000e+01 3.516980e+04
5.400000e+01 3.511773e+04
5.500000e+01 3.506603e+04
5.600000e+01 3.501456e+04
5.700000e+01 3.496316e+04
5.800000e+01 3.491170e+04
5.900000e+01 3.486022e+04
6.000000e+01 3.480918e+04
6.100000e+01 3.475854e+04
6.200000e+01 3.470814e+04
6.300000e+01 3.465784e+04
6.400000e+01 3.460747e+04
6.500000e+01 3.455692e+04
6.600000e+01 3.450652e+04
6.700000e+01 3.445666e+04
6.800000e+01 3.440720e+04
6.900000e+01 3.435799e+04
7.000000e+01 3.430889e+04
7.100000e+01 3.425974e+04
7.200000e+01 3.421039e+04
7.300000e+01 3.416097e+04
7.400000e+01 3.411204e+04
7.500000e+01 3.406358e+04
7.600000e+01 3.401546e+04
7.700000e+01 3.396755e+04
7.800000e+01 3.391972e+04
7.900000e+01 3.387183e+04
8.000000e+01 3.382375e+04
8.100000e+01 3.377556e+04
8.200000e+01 3.372783e+04
8.300000e+01 3.368058e+04
8.400000e+01 3.363370e+04
8.500000e+01 3.358706e+04
8.600000e+01 3.354056e+04
8.700000e+01 3.349409e+04
8.800000e+01 3.344752e+04
8.900000e+01 3.340074e+04
9.000000e+01 3.335396e+04
9.100000e+01 3.330795e+04
9.200000e+01 3.326271e+04
9.300000e+01 3.321810e+04
9.400000e+01 3.317394e+04
9.500000e+01 3.313009e+04
9.600000e+01 3.308638e+04
9.700000e+01 3.304266e+04
9.800000e+01 3.299876e+04
9.900000e+01 3.295452e+04
1.000000e+02 3.291018e+04
1.010000e+02 3.286631e+04
1.020000e+02 3.282292e+04
1.030000e+02 3.277991e+04
1.040000e+02 3.273719e+04
1.050000e+02 3.269466e+04
1.060000e+02 3.265223e+04
1.070000e+02 3.260978e+04
1.080000e+02 3.256724e+04
1.090000e+02 3.252449e+04
1.100000e+02 3.248161e+04
1.110000e+02 3.243893e+04
1.120000e+02 3.239646e+04
1.130000e+02 3.235416e+04
1.140000e+02 3.231198e+04
1.150000e+02 3.226985e+04
1.160000e+02 3.222773e+04
1.170000e+02 3.218556e+04
1.180000e+02 3.214329e+04
1.190000e+02 3.210091e+04
1.200000e+02 3.205884e+04
1.210000e+02 3.201734e+04
1.220000e+02 3.197630e+04
1.230000e+02 3.193559e+04
1.240000e+02 3.189508e+04
1.250000e+02 3.185467e+04
1.260000e+02 3.181421e+04
1.270000e+02 3.177359e+04
1.280000e+02 3.173277e+04
1.290000e+02 3.169228e+04
1.300000e+02 3.165235e+04
1.310000e+02 3.161284e+04
1.320000e+02 3.157360e+04
1.330000e+02 3.153451e+04
1.340000e+02 3.149542e+04
1.350000e+02 3.145618e+04
1.360000e+02 3.141669e+04
1.370000e+02 3.137734e+04
1.380000e+02 3.133857e+04
1.390000e+02 3.130025e+04
1.400000e+02 3.126225e+04
1.410000e+02 3.122442e+04
1.420000e+02 3.118662e+04
1.430000e+02 3.114871e+04
1.440000e+02 3.111059e+04
1.450000e+02 3.107276e+04
1.460000e+02 3.103544e+04
1.470000e+02 3.099847e+04
1.480000e+02 3.096173e+04
1.490000e+02 3.092506e+04
1.500000e+02 3.088834e+04
1.510000e+02 3.085143e+04
1.520000e+02 3.081467e+04
1.530000e+02 3.077843e+04
1.540000e+02 3.074256e+04
1.550000e+02 3.070693e+04
1.560000e+02 3.067137e+04
1.570000e+02 3.063574e+04
1.580000e+02 3.059995e+04
1.590000e+02 3.056446e+04
1.600000e+02 3.052946e+04
1.610000e+02 3.049478e+04
1.620000e+02 3.046025e+04
1.630000e+02 3.042570e+04
1.640000e+02 3.039098e+04
1.650000e+02 3.035635e+04
1.660000e+02 3.032224e+04
1.670000e+02 3.028850e+04
1.680000e+02 3.025494e+04
1.690000e+02 3.022137e+04
1.700000e+02 3.018763e+04
1.710000e+02 3.015404e+04
1.720000e+02 3.012094e+04
1.730000e+02 3.008817e+04
1.740000e+02 3.005554e+04
1.750000e+02 3.002286e+04
1.760000e+02 2.999008e+04
1.770000e+02 2.995770e+04
1.780000e+02 2.992569e+04
1.790000e+02 2.989386e+04
1.800000e+02 2.986202e+04
1.810000e+02 2.983005e+04
1.820000e+02 2.979845e+04
1.830000e+02 2.976727e+04
1.840000e+02 2.973628e+04
1.850000e+02 2.970524e+04
1.860000e+02 2.967405e+04
1.870000e+02 2.964330e+04
1.880000e+02 2.961291e+04
1.890000e+02 2.958267e+04
1.900000e+02 2.955236e+04
1.910000e+02 2.952217e+04
1.920000e+02 2.949234e+04
1.930000e+02 2.946272e+04
1.940000e+02 2.943314e+04
1.950000e+02 2.940368e+04
1.960000e+02 2.937461e+04
1.970000e+02 2.934567e+04
1.980000e+02 2.931658e+04
1.990000e+02 2.928753e+04
2.000000e+02 2.925909e+04
2.010000e+02 2.923087e+04
2.020000e+02 2.920250e+04
2.030000e+02 2.917436e+04
2.040000e+02 2.914658e+04
2.050000e+02 2.911882e+04
2.060000e+02 2.909107e+04
2.070000e+02 2.906374e+04
2.080000e+02 2.903655e+04
2.090000e+02 2.900929e+04
2.100000e+02 2.898240e+04
2.110000e+02 2.895568e+04
2.120000e+02 2.892893e+04
2.130000e+02 2.890260e+04
2.140000e+02 2.887635e+04
2.150000e+02 2.885004e+04
2.160000e+02 2.882415e+04
2.170000e+02 2.879839e+04
2.180000e+02 2.877286e+04
2.190000e+02 2.874743e+04
2.200000e+02 2.872195e+04
2.210000e+02 2.869703e+04
2.220000e+02 2.867184e+04
2.230000e+02 2.864713e+04
2.240000e+02 2.862244e+04
2.250000e+02 2.859803e+04
2.260000e+02 2.857364e+04
2.270000e+02 2.854955e+04
2.280000e+02 2.852550e+04
2.290000e+02 2.850169e+04
2.300000e+02 2.847811e+04
2.310000e+02 2.845460e+04
2.320000e+02 2.843149e+04
2.330000e+02 2.840799e+04
2.340000e+02 2.838515e+04
2.350000e+02 2.836218e+04
2.360000e+02 2.833970e+04
2.370000e+02 2.831714e+04
2.380000e+02 2.829466e+04
2.390000e+02 2.827253e+04
2.400000e+02 2.825030e+04
2.410000e+02 2.822902e+04
2.420000e+02 2.820716e+04
2.430000e+02 2.818568e+04
2.440000e+02 2.816409e+04
2.450000e+02 2.814263e+04
2.460000e+02 2.812168e+04
2.470000e+02 2.810078e+04
2.480000e+02 2.807992e+04
2.490000e+02 1.620634e+03
